# File produced by Open Asset Import Library (http://www.assimp.sf.net)
# (assimp v3.1.77322876)

mtllib lvl1Ground.mtl

# 82 vertex positions
v  -67.5898 -3.3834 23.5
v  -67.5898 -4.3199 -10.82
v  -67.5898 -4.3834 23.5
v  -67.5898 -3.3199 -10.82
v  150.5 0.2 -10.82
v  150.5 -0.8 23.5
v  150.5 -0.8 -10.82
v  150.5 0.2 23.5
v  51.5365 5.9378 23.5
v  45.6977 4.8988 23.5
v  51.5365 4.8988 23.5
v  45.6977 5.9105 23.5
v  45.6977 4.8988 -10.82
v  45.6977 5.8988 -10.82
v  51.5365 5.9281 -10.82
v  51.5365 4.8988 -10.82
v  45.6977 5.9573 -10.82
v  45.6977 5.9573 23.5
v  79.0104 3.6712 23.5
v  74.5555 3.6416 23.5
v  78.8758 2.6803 23.5
v  74.5555 4.6416 23.5
v  79.0104 3.6712 -10.82
v  74.5555 3.6416 -10.82
v  74.5555 4.6416 -10.82
v  78.8758 2.6803 -10.82
v  86.2597 -0.465 23.5
v  86.327 0.5305 23.5
v  86.2597 -0.465 -10.82
v  86.327 0.5305 -10.82
v  82.5677 1.2709 23.5
v  82.6687 2.264 23.5
v  82.6687 2.264 -10.82
v  82.5677 1.2709 -10.82
v  70.7769 4.9746 23.5
v  70.7769 3.9746 23.5
v  70.7769 4.9746 -10.82
v  70.7769 3.9746 -10.82
v  66.4646 5.19 23.5
v  66.4646 4.19 23.5
v  66.4646 5.19 -10.82
v  66.4646 4.19 -10.82
v  56.6746 5.1582 23.5
v  56.6746 6.1582 23.5
v  56.6746 6.1582 -10.82
v  56.6746 5.1582 -10.82
v  8.0831 0.2 23.5
v  -40.8952 -0.8 23.5
v  8.0831 -0.8 23.5
v  -40.8952 0.2 23.5
v  -40.8952 -0.8 -10.82
v  -40.8952 0.2 -10.82
v  8.3769 0.2 -10.82
v  8.3769 -0.8 -10.82
v  17.7692 -0.8 23.5
v  17.7692 0.2 23.5
v  17.7692 0.2 -10.82
v  17.7692 -0.8 -10.82
v  17.7692 -0.4321 23.5
v  17.7692 -0.4321 -10.82
v  8.3673 -0.4321 -10.82
v  8.3673 -0.4321 23.5
v  61.5696 4.9719 23.5
v  61.5696 5.9719 23.5
v  61.5696 4.9719 -10.82
v  61.5696 5.9719 -10.82
v  31.7334 2.5853 23.5
v  31.7334 3.5853 23.5
v  31.7334 3.5853 -10.82
v  31.7334 2.5853 -10.82
v  38.7155 4.2292 23.5
v  38.7155 5.2292 23.5
v  38.7155 5.2292 -10.82
v  38.7155 4.2292 -10.82
v  -47.7103 -2.0971 23.5
v  -47.7103 -2.0971 -10.82
v  -47.7103 -1.0971 23.5
v  -47.7103 -1.0971 -10.82
v  -53.9303 -4.3199 23.5
v  -53.9303 -4.3199 -10.82
v  -53.9303 -3.3199 23.5
v  -53.9303 -3.3199 -10.82

# 50 UV coordinates
vt 0.0776 0.5337 0
vt 0.0776 0.8575 0
vt 0.9627 0.4482 0
vt 0.9627 0.1243 0
vt 0.1547 0.1243 0
vt 0.107 0.1243 0
vt 0.107 0.4482 0
vt 0.1547 0.4482 0
vt 0.379 0.1243 0
vt 0.3426 0.1243 0
vt 0.3779 0.1243 0
vt 0.379 0.4482 0
vt 0.3426 0.4482 0
vt 0.3779 0.4482 0
vt 0.4382 0.1243 0
vt 0.4388 0.1243 0
vt 0.4382 0.4482 0
vt 0.4388 0.4482 0
vt 0.4081 0.1243 0
vt 0.4089 0.1243 0
vt 0.4089 0.4482 0
vt 0.4081 0.4482 0
vt 0.3118 0.1243 0
vt 0.3118 0.4482 0
vt 0.2766 0.1243 0
vt 0.2766 0.4482 0
vt 0.1966 0.1243 0
vt 0.1966 0.4482 0
vt 0.6954 0.5337 0
vt 0.2955 0.5337 0
vt 0.2955 0.8575 0
vt 0.6978 0.8575 0
vt 0.7745 0.5337 0
vt 0.7745 0.8575 0
vt 0.7702 0.5373 0
vt 0.7702 0.8532 0
vt 0.7012 0.8532 0
vt 0.7012 0.5373 0
vt 0.2366 0.1243 0
vt 0.2366 0.4482 0
vt 0.8885 0.5337 0
vt 0.8885 0.8575 0
vt 0.9456 0.5337 0
vt 0.05 0.1243 0
vt 0.05 0.4482 0
vt 0.9456 0.8575 0
vt 0.2399 0.5337 0
vt 0.2399 0.8575 0
vt 0.1891 0.5337 0
vt 0.1891 0.8575 0

# 37 vertex normals
vn -0.9717 0 0
vn 0.9717 0 0
vn 0 0 0.236
vn 0 0 -0.236
vn 0 -0.0069 0
vn 0.9712 0.0002 0
vn -0.9712 -0.0002 0
vn 0.5717 0.0056 0
vn -0.5764 -0.0055 0
vn 0.9716 0.0001 0
vn -0.9716 -0.0001 0
vn 0.9686 0.0006 0
vn -0.9686 -0.0006 0
vn 0.9621 0.001 0
vn -0.9621 -0.001 0
vn -0.9623 0.001 0
vn 0.9623 -0.001 0
vn 0 0.0069 0
vn 0.9717 0 0.0002
vn 0.9717 0 0.0005
vn 0.9553 0.0013 0
vn 0.9708 0.0003 0
vn -0.9553 -0.0013 0
vn -0.9708 -0.0003 0
vn -0.9713 0.0002 0
vn 0.9713 -0.0002 0
vn -0.9691 0.0005 0
vn 0.9691 -0.0005 0
vn 0.9711 -0.0003 0
vn -0.9711 0.0003 0
vn 0.9715 -0.0001 0
vn -0.9715 0.0001 0
vn 0.303 -0.0065 -0.0071
vn 0.5334 -0.0057 0
vn 0 -0.0069 -0.015
vn -0.303 0.0065 0.0071
vn -0.5326 0.0057 0.0125

# Mesh 'g NewFloor_NewFloor' with 160 faces
g g NewFloor_NewFloor
usemtl NavyBlue
f  1/1/1 2/2/1 3/1/1
f  1/1/1 4/2/1 2/2/1
f  5/3/2 6/4/2 7/3/2
f  5/3/2 8/4/2 6/4/2
f  9/5/3 10/6/3 11/5/3
f  9/5/3 12/6/3 10/6/3
f  13/7/4 14/7/4 15/8/4
f  16/8/4 13/7/4 15/8/4
f  16/8/5 11/5/5 10/6/5
f  13/7/5 16/8/5 10/6/5
f  17/7/4 15/8/4 14/7/4
f  18/6/1 14/7/1 12/6/1
f  18/6/1 17/7/1 14/7/1
f  9/5/3 18/6/3 12/6/3
f  19/9/3 20/10/3 21/11/3
f  22/10/3 20/10/3 19/9/3
f  23/12/4 24/13/4 25/13/4
f  26/14/4 24/13/4 23/12/4
f  22/10/6 19/9/6 25/13/6
f  19/9/6 23/12/6 25/13/6
f  24/13/7 26/14/7 21/11/7
f  24/13/7 21/11/7 20/10/7
f  8/4/3 27/15/3 6/4/3
f  28/16/3 27/15/3 8/4/3
f  5/3/4 29/17/4 30/18/4
f  7/3/4 29/17/4 5/3/4
f  28/16/8 8/4/8 30/18/8
f  8/4/8 5/3/8 30/18/8
f  29/17/9 7/3/9 6/4/9
f  29/17/9 6/4/9 27/15/9
f  27/15/3 28/16/3 31/19/3
f  32/20/3 31/19/3 28/16/3
f  31/19/3 32/20/3 21/11/3
f  19/9/3 21/11/3 32/20/3
f  33/21/4 26/14/4 23/12/4
f  26/14/4 33/21/4 34/22/4
f  30/18/4 34/22/4 33/21/4
f  34/22/4 30/18/4 29/17/4
f  32/20/10 28/16/10 33/21/10
f  28/16/10 30/18/10 33/21/10
f  19/9/10 32/20/10 23/12/10
f  32/20/10 33/21/10 23/12/10
f  34/22/11 29/17/11 27/15/11
f  34/22/11 27/15/11 31/19/11
f  26/14/11 34/22/11 31/19/11
f  26/14/11 31/19/11 21/11/11
f  20/10/3 35/23/3 36/23/3
f  35/23/3 20/10/3 22/10/3
f  25/13/4 24/13/4 37/24/4
f  38/24/4 37/24/4 24/13/4
f  25/13/12 37/24/12 35/23/12
f  25/13/12 35/23/12 22/10/12
f  20/10/13 36/23/13 24/13/13
f  36/23/13 38/24/13 24/13/13
f  36/23/3 39/25/3 40/25/3
f  39/25/3 36/23/3 35/23/3
f  37/24/4 38/24/4 41/26/4
f  42/26/4 41/26/4 38/24/4
f  35/23/14 41/26/14 39/25/14
f  35/23/14 37/24/14 41/26/14
f  36/23/15 40/25/15 38/24/15
f  40/25/15 42/26/15 38/24/15
f  9/5/3 11/5/3 43/27/3
f  9/5/3 43/27/3 44/27/3
f  45/28/4 46/28/4 15/8/4
f  46/28/4 16/8/4 15/8/4
f  45/28/16 15/8/16 9/5/16
f  45/28/16 9/5/16 44/27/16
f  43/27/17 11/5/17 46/28/17
f  11/5/17 16/8/17 46/28/17
f  47/29/3 48/30/3 49/29/3
f  47/29/3 50/30/3 48/30/3
f  51/31/4 52/31/4 53/32/4
f  54/32/4 51/31/4 53/32/4
f  50/30/18 53/32/18 52/31/18
f  50/30/18 47/29/18 53/32/18
f  54/32/5 49/29/5 48/30/5
f  51/31/5 54/32/5 48/30/5
f  47/29/3 49/29/3 55/33/3
f  47/29/3 55/33/3 56/33/3
f  57/34/4 58/34/4 53/32/4
f  58/34/4 54/32/4 53/32/4
f  59/35/18 60/36/18 61/37/18
f  59/35/18 61/37/18 62/38/18
f  49/29/5 54/32/5 55/33/5
f  54/32/5 58/34/5 55/33/5
f  61/37/3 57/34/3 53/32/3
f  61/37/3 60/36/3 57/34/3
f  60/36/1 56/33/1 57/34/1
f  60/36/1 59/35/1 56/33/1
f  62/38/19 53/32/19 47/29/20
f  62/38/19 61/37/2 53/32/19
f  59/35/4 47/29/4 56/33/4
f  59/35/4 62/38/4 47/29/4
f  63/39/3 40/25/3 39/25/3
f  64/39/3 63/39/3 39/25/3
f  43/27/3 63/39/3 64/39/3
f  44/27/3 43/27/3 64/39/3
f  41/26/4 65/40/4 66/40/4
f  41/26/4 42/26/4 65/40/4
f  66/40/4 46/28/4 45/28/4
f  66/40/4 65/40/4 46/28/4
f  44/27/21 64/39/21 45/28/21
f  64/39/21 66/40/21 45/28/21
f  64/39/22 39/25/22 66/40/22
f  39/25/22 41/26/22 66/40/22
f  46/28/23 65/40/23 63/39/23
f  46/28/23 63/39/23 43/27/23
f  65/40/24 42/26/24 40/25/24
f  65/40/24 40/25/24 63/39/24
f  12/6/18 15/8/18 17/7/18
f  12/6/18 9/5/18 15/8/18
f  67/41/3 56/33/3 55/33/3
f  56/33/3 67/41/3 68/41/3
f  69/42/4 70/42/4 57/34/4
f  58/34/4 57/34/4 70/42/4
f  69/42/25 57/34/25 56/33/25
f  69/42/25 56/33/25 68/41/25
f  67/41/26 55/33/26 70/42/26
f  55/33/26 58/34/26 70/42/26
f  71/43/3 68/41/3 67/41/3
f  68/41/3 71/43/3 72/43/3
f  10/6/3 72/44/3 71/44/3
f  72/44/3 10/6/3 12/6/3
f  14/7/4 13/7/4 73/45/4
f  74/45/4 73/45/4 13/7/4
f  73/46/4 74/46/4 69/42/4
f  70/42/4 69/42/4 74/46/4
f  73/46/25 69/42/25 68/41/25
f  73/46/25 68/41/25 72/43/25
f  14/7/27 73/45/27 72/44/27
f  14/7/27 72/44/27 12/6/27
f  71/43/26 67/41/26 74/46/26
f  67/41/26 70/42/26 74/46/26
f  10/6/28 71/44/28 13/7/28
f  71/44/28 74/45/28 13/7/28
f  75/47/29 51/31/29 48/30/29
f  75/47/29 76/48/29 51/31/29
f  77/47/3 48/30/3 50/30/3
f  77/47/3 75/47/3 48/30/3
f  76/48/4 52/31/4 51/31/4
f  76/48/4 78/48/4 52/31/4
f  78/48/30 50/30/30 52/31/30
f  78/48/30 77/47/30 50/30/30
f  79/49/31 76/48/31 75/47/31
f  79/49/31 80/50/31 76/48/31
f  81/49/3 75/47/3 77/47/3
f  81/49/3 79/49/3 75/47/3
f  80/50/4 78/48/4 76/48/4
f  80/50/4 82/50/4 78/48/4
f  82/50/32 77/47/32 78/48/32
f  82/50/32 81/49/32 77/47/32
f  3/1/33 80/50/33 79/49/34
f  3/1/33 2/2/35 80/50/33
f  1/1/3 79/49/3 81/49/3
f  1/1/3 3/1/3 79/49/3
f  2/2/4 82/50/4 80/50/4
f  2/2/4 4/2/4 82/50/4
f  4/2/36 81/49/36 82/50/18
f  4/2/36 1/1/37 81/49/36

