# 3ds Max Wavefront OBJ Exporter v0.97b - (c)2007 guruware
# File Created: 12.11.2018 15:40:13

mtllib fireplaceAttached_LOW.mtl

#
# object fireplaceAttached_LOW
#

v  -21.1963 -0.0160 6.1956
v  21.3809 -0.0160 6.4793
v  24.0812 42.9529 5.9573
v  -24.0739 46.6034 6.1574
v  39.4877 -0.0160 25.6417
v  39.3757 -0.0160 0.9475
v  46.1789 66.6432 -0.8532
v  46.2714 66.8535 26.0980
v  -39.5228 -0.0160 0.6532
v  -39.1791 -0.0160 25.8601
v  -45.7600 76.2147 26.1823
v  -46.2617 76.4421 -0.8472
v  24.6762 43.3067 26.1761
v  21.8367 -0.0160 25.7564
v  -24.3407 47.0054 26.1154
v  -21.5005 -0.0160 26.0334
v  -51.8447 75.9348 30.9099
v  -51.8937 76.1021 0.0484
v  51.4606 65.2921 0.0067
v  51.3603 65.2423 30.9128
v  -51.4560 80.7753 30.8839
v  51.8256 70.4568 30.9136
v  51.8960 70.7266 0.0465
v  -51.4559 81.1014 -0.0061
v  -29.6762 179.5336 15.4304
v  -36.2978 129.6714 15.4088
v  36.6678 125.2852 15.4088
v  29.6525 179.5336 15.4304
v  -41.7016 77.8192 15.0565
v  -36.7919 129.2315 -0.2084
v  -41.9966 77.8115 -0.2084
v  37.1241 125.0459 -0.2084
v  30.1296 179.5336 -0.2084
v  41.9601 69.3008 15.0565
v  -30.0758 179.5336 -0.2084
v  42.2592 69.4190 -0.2084
# 36 vertices

vn 0.6842 0.0428 0.7280
vn -0.6882 0.0520 0.7237
vn -0.6053 -0.5281 0.5956
vn 0.5746 -0.5792 0.5782
vn 0.6867 -0.0746 0.7231
vn 0.9948 -0.1017 -0.0045
vn 0.9948 -0.1016 -0.0026
vn 0.7030 -0.0723 0.7075
vn -0.9961 -0.0875 0.0136
vn -0.6851 -0.0622 0.7258
vn -0.7424 -0.0660 0.6667
vn -0.9960 -0.0874 0.0178
vn -0.3084 -0.2770 0.9100
vn -0.7124 0.0399 0.7007
vn 0.2688 -0.2772 0.9225
vn 0.7113 0.0417 0.7016
vn -0.6260 -0.5219 0.5794
vn -0.7750 -0.6319 -0.0022
vn 0.6386 -0.7696 0.0008
vn 0.5185 -0.6312 0.5769
vn -0.5245 0.6256 0.5776
vn 0.6285 0.5174 0.5808
vn 0.7677 0.6408 0.0074
vn -0.6329 0.7742 0.0082
vn -0.6628 0.0877 0.7437
vn -0.6949 0.0799 0.7146
vn 0.6963 0.0755 0.7138
vn 0.6620 0.0853 0.7447
vn -0.6996 0.0681 0.7113
vn -0.9928 0.1162 0.0281
vn -0.9947 0.1007 0.0192
vn 0.9936 0.1094 0.0274
vn 0.9914 0.1273 0.0302
vn 0.7416 0.0659 0.6676
vn -0.9909 0.1323 0.0253
vn 0.9956 0.0919 0.0202
# 36 vertex normals

vt 0.6942 0.6854 0.0000
vt 0.8953 0.6997 0.0000
vt 0.8934 0.9036 0.0000
vt 0.6649 0.9046 0.0000
vt 0.6573 0.1426 0.0000
vt 0.6528 0.0257 0.0000
vt 0.9696 0.0051 0.0000
vt 0.9755 0.1327 0.0000
vt 0.6126 0.6325 0.0000
vt 0.6315 0.5144 0.0000
vt 0.9892 0.5706 0.0000
vt 0.9696 0.6974 0.0000
vt 0.8571 0.2269 0.0000
vt 0.6515 0.2260 0.0000
vt 0.8584 0.4598 0.0000
vt 0.6371 0.4308 0.0000
vt 0.9867 0.6995 0.0000
vt 0.9893 0.9050 0.0000
vt 0.8962 0.9995 0.0000
vt 0.6637 0.9992 0.0000
vt 0.5708 0.8938 0.0000
vt 0.6009 0.6728 0.0000
vt 0.0249 0.8244 0.0000
vt 0.0249 0.6777 0.0000
vt 0.5163 0.6775 0.0000
vt 0.5160 0.8244 0.0000
vt 0.0245 0.8474 0.0000
vt 0.5155 0.8492 0.0000
vt 0.5150 0.9958 0.0000
vt 0.0242 0.9941 0.0000
vt 0.5403 0.8491 0.0000
vt 0.5408 0.9958 0.0000
vt 0.0005 0.9935 0.0000
vt 0.0018 0.8469 0.0000
vt 0.0794 0.4875 0.0000
vt 0.0750 0.2484 0.0000
vt 0.4175 0.2636 0.0000
vt 0.3601 0.5167 0.0000
vt 0.0731 0.0005 0.0000
vt 0.0027 0.2468 0.0000
vt 0.0005 0.0010 0.0000
vt 0.4880 0.2779 0.0000
vt 0.4331 0.5320 0.0000
vt 0.4730 0.0022 0.0000
vt 0.0050 0.4880 0.0000
vt 0.5439 0.0185 0.0000
# 46 texture coords

o fireplaceAttached_LOW
g fireplaceAttached_LOW
usemtl wire_028089177
s off
f 1/1/1 2/2/2 3/3/3 4/4/4 
f 5/5/5 6/6/6 7/7/7 8/8/8 
f 9/9/9 10/10/10 11/11/11 12/12/12 
f 5/5/5 8/8/8 13/13/13 14/14/14 
f 8/8/8 11/11/11 15/15/15 13/13/13 
f 11/11/11 10/10/10 16/16/16 15/15/15 
f 14/17/14 13/18/13 3/3/3 2/2/2 
f 13/19/13 15/20/15 4/4/4 3/3/3 
f 15/21/15 16/22/16 1/1/1 4/4/4 
f 17/23/17 18/24/18 19/25/19 20/26/20 
f 21/27/21 22/28/22 23/29/23 24/30/24 
f 17/23/17 20/26/20 22/28/22 21/27/21 
f 20/31/20 19/32/19 23/29/23 22/28/22 
f 18/33/18 17/34/17 21/27/21 24/30/24 
f 25/35/25 26/36/26 27/37/27 28/38/28 
f 29/39/29 26/36/26 30/40/30 31/41/31 
f 28/38/28 27/37/27 32/42/32 33/43/33 
f 26/36/26 29/39/29 34/44/34 27/37/27 
f 26/36/26 25/35/25 35/45/35 30/40/30 
f 27/37/27 34/44/34 36/46/36 32/42/32 
# 20 polygons

