# 3ds Max Wavefront OBJ Exporter v0.97b - (c)2007 guruware
# File Created: 12.11.2018 15:41:12

mtllib lantern_LOW.mtl

#
# object lanternCurls_LOW
#

v  3.9174 16.3362 -6.0541
v  4.2818 16.3362 -6.6854
v  6.2722 27.5479 -10.1328
v  5.9068 27.5479 -9.5000
v  3.2844 16.3362 -6.4196
v  5.2738 27.5479 -9.8654
v  3.6488 16.3362 -7.0509
v  5.6392 27.5479 -10.4983
v  3.5187 10.1549 -5.3637
v  3.8846 10.1549 -5.9973
v  2.8857 10.1549 -5.7291
v  3.2516 10.1549 -6.3628
v  4.3830 5.6408 -6.8607
v  4.7478 5.6409 -7.4924
v  3.7500 5.6408 -7.2261
v  4.1148 5.6409 -7.8579
v  6.8403 29.4469 -11.1168
v  6.8059 30.1711 -11.0573
v  6.1684 30.1200 -11.4149
v  6.2028 29.3957 -11.4745
v  7.4164 28.3104 -12.1146
v  7.7385 28.6520 -12.6726
v  7.1055 28.6427 -13.0381
v  6.7834 28.3011 -12.4801
v  7.3998 27.1803 -12.0860
v  7.5980 26.5689 -12.4292
v  6.9603 26.5680 -12.7866
v  6.7622 27.1795 -12.4434
v  6.9907 26.8376 -11.3809
v  6.8550 26.1647 -11.1451
v  6.2215 26.1719 -11.5040
v  6.3578 26.8448 -11.7394
v  6.4775 27.6316 -11.2195
v  5.3100 4.2178 -8.4662
v  5.2782 4.9432 -8.4111
v  4.6770 4.2178 -8.8316
v  4.6452 4.9432 -8.7766
v  5.9539 6.1498 -9.5836
v  5.6025 5.9620 -8.9753
v  5.3227 6.1498 -9.9481
v  4.9716 5.9620 -9.3396
v  4.8670 6.9025 -8.4299
v  -3.9174 16.3362 6.0541
v  -4.2818 16.3362 6.6854
v  -6.2722 27.5479 10.1329
v  -5.9068 27.5479 9.5000
v  -3.2844 16.3362 6.4196
v  -5.2738 27.5479 9.8654
v  -3.6488 16.3362 7.0509
v  -5.6392 27.5479 10.4983
v  -3.5187 10.1549 5.3637
v  -3.8846 10.1549 5.9973
v  -2.8857 10.1549 5.7291
v  -3.2516 10.1549 6.3628
v  -4.3830 5.6408 6.8607
v  -4.7478 5.6409 7.4924
v  -3.7500 5.6408 7.2262
v  -4.1148 5.6409 7.8579
v  -6.8403 29.4469 11.1168
v  -6.8059 30.1711 11.0573
v  -6.1684 30.1200 11.4149
v  -6.2028 29.3957 11.4745
v  -7.4164 28.3104 12.1146
v  -7.7385 28.6520 12.6726
v  -7.1055 28.6427 13.0381
v  -6.7834 28.3011 12.4801
v  -7.3998 27.1803 12.0860
v  -7.5980 26.5689 12.4292
v  -6.9603 26.5680 12.7866
v  -6.7622 27.1795 12.4434
v  -6.9907 26.8376 11.3809
v  -6.8550 26.1647 11.1451
v  -6.2215 26.1719 11.5040
v  -6.3578 26.8448 11.7394
v  -6.4775 27.6316 11.2195
v  -5.3100 4.2178 8.4662
v  -5.2782 4.9432 8.4111
v  -4.6770 4.2178 8.8317
v  -4.6452 4.9432 8.7766
v  -5.9539 6.1498 9.5836
v  -5.6025 5.9620 8.9753
v  -5.3227 6.1498 9.9481
v  -4.9716 5.9620 9.3396
v  -4.8670 6.9025 8.4299
v  7.2017 16.3362 0.3655
v  7.9306 16.3362 0.3655
v  11.9114 27.5479 0.3655
v  11.1806 27.5479 0.3655
v  7.2017 16.3362 -0.3655
v  11.1806 27.5479 -0.3655
v  7.9306 16.3362 -0.3655
v  11.9114 27.5479 -0.3655
v  6.4044 10.1549 0.3655
v  7.1361 10.1549 0.3655
v  6.4044 10.1549 -0.3655
v  7.1361 10.1549 -0.3655
v  8.1330 5.6408 0.3655
v  8.8625 5.6409 0.3655
v  8.1330 5.6408 -0.3655
v  8.8625 5.6409 -0.3655
v  13.0476 29.4469 0.3655
v  12.9789 30.1711 0.3655
v  12.9698 30.1200 -0.3655
v  13.0386 29.3957 -0.3655
v  14.1998 28.3104 0.3655
v  14.8441 28.6520 0.3655
v  14.8441 28.6427 -0.3655
v  14.1998 28.3011 -0.3655
v  14.1667 27.1803 0.3655
v  14.5630 26.5689 0.3655
v  14.5537 26.5680 -0.3655
v  14.1574 27.1795 -0.3655
v  13.3515 26.8376 0.3637
v  13.0795 26.1647 0.3641
v  13.0735 26.1719 -0.3641
v  13.3455 26.8448 -0.3637
v  12.9551 27.6316 -0.0000
v  9.9869 4.2178 0.3655
v  9.9233 4.9432 0.3655
v  9.9869 4.2178 -0.3655
v  9.9233 4.9432 -0.3655
v  11.2766 6.1498 0.3645
v  10.5741 5.9620 0.3643
v  11.2766 6.1498 -0.3645
v  10.5741 5.9620 -0.3643
v  9.7340 6.9025 -0.0000
v  -7.2017 16.3362 -0.3655
v  -7.9306 16.3362 -0.3655
v  -11.9114 27.5479 -0.3655
v  -11.1806 27.5479 -0.3655
v  -7.2017 16.3362 0.3655
v  -11.1806 27.5479 0.3655
v  -7.9306 16.3362 0.3655
v  -11.9114 27.5479 0.3655
v  -6.4044 10.1549 -0.3655
v  -7.1361 10.1549 -0.3655
v  -6.4044 10.1549 0.3655
v  -7.1361 10.1549 0.3655
v  -8.1330 5.6408 -0.3655
v  -8.8625 5.6409 -0.3655
v  -8.1330 5.6408 0.3655
v  -8.8625 5.6409 0.3655
v  -13.0476 29.4469 -0.3655
v  -12.9789 30.1711 -0.3655
v  -12.9698 30.1200 0.3655
v  -13.0386 29.3957 0.3655
v  -14.1998 28.3104 -0.3655
v  -14.8441 28.6520 -0.3655
v  -14.8441 28.6427 0.3655
v  -14.1998 28.3011 0.3655
v  -14.1667 27.1803 -0.3655
v  -14.5630 26.5689 -0.3655
v  -14.5537 26.5680 0.3655
v  -14.1574 27.1795 0.3655
v  -13.3515 26.8376 -0.3637
v  -13.0795 26.1647 -0.3641
v  -13.0735 26.1719 0.3641
v  -13.3455 26.8448 0.3637
v  -12.9551 27.6316 0.0000
v  -9.9869 4.2178 -0.3655
v  -9.9233 4.9432 -0.3655
v  -9.9869 4.2178 0.3655
v  -9.9233 4.9432 0.3655
v  -11.2766 6.1498 -0.3645
v  -10.5741 5.9620 -0.3643
v  -11.2766 6.1498 0.3645
v  -10.5741 5.9620 0.3643
v  -9.7340 6.9025 0.0000
v  3.2844 16.3362 6.4196
v  3.6488 16.3362 7.0509
v  5.6392 27.5479 10.4983
v  5.2738 27.5479 9.8654
v  3.9174 16.3362 6.0541
v  5.9068 27.5479 9.5000
v  4.2818 16.3362 6.6854
v  6.2722 27.5479 10.1328
v  2.8857 10.1549 5.7291
v  3.2516 10.1549 6.3628
v  3.5187 10.1549 5.3637
v  3.8846 10.1549 5.9973
v  3.7500 5.6408 7.2261
v  4.1148 5.6409 7.8579
v  4.3830 5.6408 6.8607
v  4.7478 5.6409 7.4924
v  6.2073 29.4469 11.4823
v  6.1729 30.1711 11.4228
v  6.8014 30.1200 11.0495
v  6.8358 29.3957 11.1090
v  6.7834 28.3104 12.4801
v  7.1055 28.6520 13.0381
v  7.7386 28.6427 12.6726
v  7.4164 28.3011 12.1147
v  6.7668 27.1803 12.4515
v  6.9650 26.5689 12.7946
v  7.5933 26.5680 12.4211
v  7.3952 27.1795 12.0779
v  6.3608 26.8376 11.7446
v  6.2245 26.1647 11.5092
v  6.8520 26.1719 11.1399
v  6.9877 26.8448 11.3757
v  6.4776 27.6316 11.2194
v  4.6770 4.2178 8.8317
v  4.6452 4.9432 8.7766
v  5.3100 4.2178 8.4662
v  5.2782 4.9432 8.4111
v  5.3227 6.1498 9.9481
v  4.9716 5.9620 9.3396
v  5.9539 6.1498 9.5836
v  5.6025 5.9620 8.9753
v  4.8670 6.9025 8.4299
v  -3.2844 16.3362 -6.4196
v  -3.6488 16.3362 -7.0509
v  -5.6392 27.5479 -10.4983
v  -5.2738 27.5479 -9.8654
v  -3.9174 16.3362 -6.0541
v  -5.9068 27.5479 -9.4999
v  -4.2818 16.3362 -6.6854
v  -6.2722 27.5479 -10.1328
v  -2.8857 10.1549 -5.7291
v  -3.2516 10.1549 -6.3628
v  -3.5187 10.1549 -5.3637
v  -3.8846 10.1549 -5.9973
v  -3.7500 5.6408 -7.2261
v  -4.1148 5.6409 -7.8579
v  -4.3830 5.6408 -6.8607
v  -4.7478 5.6409 -7.4924
v  -6.2073 29.4469 -11.4823
v  -6.1729 30.1711 -11.4228
v  -6.8014 30.1200 -11.0495
v  -6.8358 29.3957 -11.1090
v  -6.7834 28.3104 -12.4801
v  -7.1055 28.6520 -13.0381
v  -7.7386 28.6427 -12.6726
v  -7.4164 28.3011 -12.1147
v  -6.7668 27.1803 -12.4515
v  -6.9650 26.5689 -12.7946
v  -7.5933 26.5680 -12.4211
v  -7.3952 27.1795 -12.0779
v  -6.3608 26.8376 -11.7446
v  -6.2245 26.1647 -11.5092
v  -6.8520 26.1719 -11.1399
v  -6.9877 26.8448 -11.3757
v  -6.4776 27.6316 -11.2194
v  -4.6770 4.2178 -8.8316
v  -4.6452 4.9432 -8.7766
v  -5.3100 4.2178 -8.4662
v  -5.2782 4.9432 -8.4111
v  -5.3227 6.1498 -9.9481
v  -4.9716 5.9620 -9.3396
v  -5.9539 6.1498 -9.5836
v  -5.6025 5.9620 -8.9753
v  -4.8670 6.9025 -8.4299
# 252 vertices

vn 0.2398 0.1348 0.9614
vn 0.9669 -0.1276 -0.2209
vn 0.9511 -0.2399 -0.1945
vn 0.2528 0.2736 0.9280
vn -0.9525 0.1348 0.2731
vn -0.9294 0.2759 0.2452
vn -0.2922 -0.1275 -0.9478
vn -0.3088 -0.2420 -0.9198
vn 0.2048 -0.0714 0.9762
vn 0.9799 0.0629 -0.1894
vn -0.9479 -0.0714 0.3105
vn -0.3259 0.0629 -0.9433
vn 0.2443 -0.3922 0.8868
vn 0.9358 0.3465 -0.0652
vn -0.8902 -0.3922 0.2320
vn -0.4114 0.3465 -0.8430
vn 0.8450 -0.2841 0.4532
vn 0.4072 0.8406 0.3572
vn -0.5777 0.7938 -0.1900
vn -0.7927 -0.3327 -0.5108
vn 0.4001 -0.1962 0.8952
vn 0.9079 0.2581 -0.3304
vn -0.1705 0.2559 -0.9515
vn -0.9754 -0.1965 0.0997
vn 0.4996 0.2807 0.8195
vn 0.8338 -0.4958 -0.2427
vn -0.2172 -0.4995 -0.8386
vn -0.9568 0.2903 -0.0184
vn 0.7058 0.4323 0.5612
vn 0.2660 -0.6763 0.6869
vn -0.7365 -0.6658 0.1193
vn -0.8344 0.4393 -0.3328
vn -0.1138 0.9732 0.1997
vn 0.5528 -0.8158 0.1699
vn 0.7686 0.3598 0.5289
vn -0.4236 -0.8158 -0.3938
vn -0.8423 0.3599 -0.4013
vn 0.9034 0.2416 -0.3542
vn 0.4612 0.0783 0.8838
vn -0.1450 0.2416 -0.9595
vn -0.9960 0.0783 0.0425
vn -0.3614 0.6910 0.6260
vn -0.2398 0.1348 -0.9614
vn -0.9669 -0.1276 0.2209
vn -0.9511 -0.2399 0.1944
vn -0.2528 0.2736 -0.9280
vn 0.9525 0.1348 -0.2730
vn 0.9294 0.2759 -0.2452
vn 0.2922 -0.1276 0.9478
vn 0.3089 -0.2420 0.9198
vn -0.2050 -0.0714 -0.9761
vn -0.9799 0.0629 0.1894
vn 0.9478 -0.0714 -0.3107
vn 0.3259 0.0629 0.9433
vn -0.2443 -0.3922 -0.8869
vn -0.9358 0.3465 0.0652
vn 0.8902 -0.3922 -0.2319
vn 0.4114 0.3465 0.8430
vn -0.8450 -0.2841 -0.4532
vn -0.4072 0.8406 -0.3572
vn 0.5777 0.7938 0.1900
vn 0.7927 -0.3327 0.5108
vn -0.4001 -0.1962 -0.8952
vn -0.9079 0.2581 0.3304
vn 0.1705 0.2559 0.9515
vn 0.9754 -0.1964 -0.0997
vn -0.4996 0.2807 -0.8195
vn -0.8338 -0.4958 0.2426
vn 0.2172 -0.4995 0.8386
vn 0.9568 0.2903 0.0184
vn -0.7058 0.4323 -0.5612
vn -0.2660 -0.6763 -0.6869
vn 0.7365 -0.6658 -0.1193
vn 0.8344 0.4393 0.3328
vn 0.1138 0.9732 -0.1997
vn -0.5529 -0.8157 -0.1699
vn -0.7686 0.3598 -0.5289
vn 0.4236 -0.8158 0.3937
vn 0.8423 0.3599 0.4013
vn -0.9034 0.2416 0.3542
vn -0.4612 0.0783 -0.8838
vn 0.1450 0.2416 0.9595
vn 0.9960 0.0783 -0.0425
vn 0.3614 0.6910 -0.6260
vn -0.7127 0.1348 0.6884
vn 0.6748 -0.1276 0.7269
vn 0.6440 -0.2399 0.7264
vn -0.6773 0.2736 0.6829
vn -0.7128 0.1348 -0.6883
vn -0.6771 0.2759 -0.6822
vn 0.6748 -0.1276 -0.7269
vn 0.6422 -0.2420 -0.7274
vn -0.7429 -0.0715 0.6656
vn 0.6540 0.0629 0.7539
vn -0.7429 -0.0715 -0.6656
vn 0.6540 0.0629 -0.7538
vn -0.6459 -0.3922 0.6549
vn 0.5244 0.3465 0.7778
vn -0.6459 -0.3922 -0.6549
vn 0.5244 0.3465 -0.7778
vn 0.0300 -0.2841 0.9583
vn -0.1057 0.8406 0.5312
vn -0.1243 0.7938 -0.5953
vn 0.0460 -0.3327 -0.9419
vn -0.5752 -0.1962 0.7941
vn 0.7401 0.2581 0.6211
vn 0.7388 0.2559 -0.6234
vn -0.5740 -0.1964 -0.7949
vn -0.4600 0.2807 0.8424
vn 0.6271 -0.4958 0.6008
vn 0.6177 -0.4995 -0.6074
vn -0.4625 0.2903 -0.8378
vn -0.1331 0.4323 0.8918
vn -0.4619 -0.6763 0.5738
vn -0.4716 -0.6658 -0.5782
vn -0.1290 0.4393 -0.8890
vn -0.2298 0.9732 0.0013
vn 0.1293 -0.8158 0.5637
vn -0.0737 0.3598 0.9301
vn 0.1292 -0.8158 -0.5637
vn -0.0737 0.3598 -0.9301
vn 0.7584 0.2416 0.6053
vn -0.5348 0.0783 0.8413
vn 0.7585 0.2416 -0.6053
vn -0.5348 0.0783 -0.8413
vn -0.7229 0.6910 -0.0000
vn 0.7128 0.1348 -0.6883
vn -0.6748 -0.1276 -0.7269
vn -0.6440 -0.2399 -0.7264
vn 0.6773 0.2736 -0.6830
vn 0.7127 0.1348 0.6884
vn 0.6770 0.2759 0.6823
vn -0.6748 -0.1276 0.7269
vn -0.6422 -0.2420 0.7274
vn 0.7428 -0.0714 -0.6656
vn -0.6540 0.0629 -0.7539
vn 0.7430 -0.0714 0.6655
vn -0.6540 0.0629 0.7538
vn 0.6460 -0.3922 -0.6549
vn -0.5244 0.3465 -0.7778
vn 0.6459 -0.3922 0.6549
vn -0.5244 0.3465 0.7778
vn -0.0300 -0.2841 -0.9583
vn 0.1057 0.8406 -0.5312
vn 0.1243 0.7938 0.5953
vn -0.0460 -0.3327 0.9419
vn 0.5752 -0.1962 -0.7941
vn -0.7401 0.2581 -0.6211
vn -0.7388 0.2559 0.6234
vn 0.5740 -0.1964 0.7949
vn 0.4600 0.2807 -0.8424
vn -0.6271 -0.4958 -0.6008
vn -0.6177 -0.4995 0.6074
vn 0.4625 0.2903 0.8378
vn 0.1331 0.4323 -0.8918
vn 0.4619 -0.6763 -0.5738
vn 0.4716 -0.6658 0.5782
vn 0.1290 0.4393 0.8890
vn 0.2298 0.9732 -0.0013
vn -0.1293 -0.8158 -0.5637
vn 0.0737 0.3598 -0.9301
vn -0.1293 -0.8158 0.5637
vn 0.0737 0.3598 0.9301
vn -0.7584 0.2416 -0.6053
vn 0.5348 0.0783 -0.8413
vn -0.7584 0.2416 0.6053
vn 0.5348 0.0783 0.8413
vn 0.7229 0.6910 -0.0000
vn -0.9525 0.1348 -0.2731
vn -0.2921 -0.1276 0.9478
vn -0.3071 -0.2399 0.9209
vn -0.9301 0.2736 -0.2451
vn 0.2398 0.1348 -0.9614
vn 0.2524 0.2759 -0.9275
vn 0.9669 -0.1276 0.2209
vn 0.9510 -0.2420 0.1925
vn -0.9479 -0.0714 -0.3106
vn -0.3259 0.0629 0.9433
vn 0.2049 -0.0714 -0.9762
vn 0.9799 0.0629 0.1895
vn -0.8902 -0.3922 -0.2319
vn -0.4114 0.3465 0.8430
vn 0.2442 -0.3922 -0.8869
vn 0.9358 0.3465 0.0653
vn -0.8149 -0.2841 0.5052
vn -0.5129 0.8406 0.1741
vn 0.4534 0.7938 -0.4053
vn 0.8387 -0.3327 -0.4311
vn -0.9753 -0.1962 -0.1011
vn -0.1678 0.2581 0.9514
vn 0.9093 0.2559 0.3281
vn 0.4014 -0.1964 -0.8946
vn -0.9595 0.2807 0.0229
vn -0.2068 -0.4958 0.8434
vn 0.8349 -0.4995 0.2312
vn 0.4943 0.2903 -0.8194
vn -0.8389 0.4323 0.3306
vn -0.7279 -0.6763 -0.1131
vn 0.2649 -0.6658 -0.6975
vn 0.7055 0.4393 -0.5562
vn -0.1161 0.9732 -0.1984
vn -0.4236 -0.8158 0.3938
vn -0.8423 0.3598 0.4012
vn 0.5527 -0.8158 -0.1700
vn 0.7686 0.3598 -0.5289
vn -0.1450 0.2416 0.9595
vn -0.9960 0.0783 -0.0425
vn 0.9034 0.2416 0.3542
vn 0.4612 0.0783 -0.8838
vn -0.3614 0.6910 -0.6260
vn 0.9525 0.1348 0.2731
vn 0.2922 -0.1276 -0.9478
vn 0.3071 -0.2399 -0.9209
vn 0.9301 0.2736 0.2451
vn -0.2398 0.1348 0.9614
vn -0.2524 0.2759 0.9275
vn -0.9669 -0.1276 -0.2209
vn -0.9510 -0.2420 -0.1925
vn 0.9478 -0.0714 0.3107
vn 0.3259 0.0629 -0.9433
vn -0.2050 -0.0715 0.9762
vn -0.9799 0.0629 -0.1894
vn 0.8902 -0.3922 0.2319
vn 0.4115 0.3464 -0.8430
vn -0.2442 -0.3922 0.8869
vn -0.9358 0.3465 -0.0653
vn 0.8149 -0.2841 -0.5052
vn 0.5129 0.8406 -0.1741
vn -0.4534 0.7938 0.4053
vn -0.8387 -0.3327 0.4311
vn 0.9753 -0.1962 0.1011
vn 0.1678 0.2581 -0.9514
vn -0.9093 0.2559 -0.3281
vn -0.4014 -0.1965 0.8946
vn 0.9595 0.2807 -0.0229
vn 0.2068 -0.4958 -0.8434
vn -0.8349 -0.4995 -0.2312
vn -0.4943 0.2903 0.8194
vn 0.8389 0.4323 -0.3306
vn 0.7279 -0.6763 0.1131
vn -0.2649 -0.6658 0.6975
vn -0.7055 0.4393 0.5562
vn 0.1161 0.9732 0.1984
vn 0.4236 -0.8158 -0.3938
vn 0.8423 0.3598 -0.4012
vn -0.5528 -0.8158 0.1699
vn -0.7686 0.3598 0.5289
vn 0.1450 0.2416 -0.9595
vn 0.9960 0.0783 0.0425
vn -0.9034 0.2417 -0.3541
vn -0.4612 0.0783 0.8838
vn 0.3614 0.6910 0.6260
# 252 vertex normals

vt 0.8896 0.7847 0.0000
vt 0.8828 0.7826 0.0000
vt 0.8904 0.6689 0.0000
vt 0.8962 0.6729 0.0000
vt 0.8970 0.7852 0.0000
vt 0.9044 0.6736 0.0000
vt 0.9038 0.7839 0.0000
vt 0.9099 0.6709 0.0000
vt 0.9107 0.7843 0.0000
vt 0.9164 0.6711 0.0000
vt 0.8861 0.8436 0.0000
vt 0.8787 0.8442 0.0000
vt 0.8933 0.8440 0.0000
vt 0.9005 0.8454 0.0000
vt 0.9074 0.8459 0.0000
vt 0.8837 0.8870 0.0000
vt 0.8783 0.8923 0.0000
vt 0.8915 0.8872 0.0000
vt 0.8962 0.8927 0.0000
vt 0.9028 0.8938 0.0000
vt 0.8952 0.6466 20.8399
vt 0.9002 0.6467 0.0000
vt 0.9047 0.6472 0.0000
vt 0.9098 0.6483 0.0000
vt 0.9172 0.6485 0.0000
vt 0.8966 0.6315 0.0000
vt 0.9012 0.6331 0.0000
vt 0.9069 0.6333 0.0000
vt 0.9112 0.6328 0.0000
vt 0.9180 0.6332 0.0000
vt 0.8985 0.6211 0.0000
vt 0.9036 0.6205 0.0000
vt 0.9073 0.6207 0.0000
vt 0.9119 0.6224 0.0000
vt 0.9193 0.6222 0.0000
vt 0.9007 0.6116 0.0000
vt 0.9052 0.6157 0.0000
vt 0.9072 0.6158 0.0000
vt 0.9118 0.6138 0.0000
vt 0.9196 0.6116 0.0000
vt 0.9094 0.6008 0.0000
vt 0.8852 0.9046 0.0000
vt 0.8809 0.9053 0.0000
vt 0.8891 0.9041 0.0000
vt 0.8933 0.9048 -20.8399
vt 0.8996 0.9061 0.0000
vt 0.8859 0.9137 0.0000
vt 0.8829 0.9136 0.0000
vt 0.8884 0.9134 0.0000
vt 0.8909 0.9132 0.0000
vt 0.8962 0.9156 0.0000
vt 0.8879 0.9232 0.0000
vt 0.9517 0.4172 0.0000
vt 0.9449 0.4151 0.0000
vt 0.9525 0.3013 0.0000
vt 0.9582 0.3053 0.0000
vt 0.9591 0.4176 0.0000
vt 0.9664 0.3061 0.0000
vt 0.9659 0.4164 0.0000
vt 0.9720 0.3033 0.0000
vt 0.9727 0.4167 0.0000
vt 0.9784 0.3036 0.0000
vt 0.9481 0.4760 0.0000
vt 0.9408 0.4766 0.0000
vt 0.9553 0.4764 0.0000
vt 0.9626 0.4778 0.0000
vt 0.9695 0.4783 0.0000
vt 0.9457 0.5194 0.0000
vt 0.9403 0.5247 0.0000
vt 0.9536 0.5197 0.0000
vt 0.9583 0.5251 0.0000
vt 0.9649 0.5263 0.0000
vt 0.9573 0.2791 20.8400
vt 0.9623 0.2791 0.0000
vt 0.9667 0.2796 0.0000
vt 0.9719 0.2807 0.0000
vt 0.9793 0.2810 0.0000
vt 0.9587 0.2639 0.0000
vt 0.9633 0.2655 0.0000
vt 0.9690 0.2658 0.0000
vt 0.9732 0.2653 0.0000
vt 0.9800 0.2656 0.0000
vt 0.9606 0.2535 0.0000
vt 0.9656 0.2529 0.0000
vt 0.9694 0.2531 0.0000
vt 0.9740 0.2548 0.0000
vt 0.9814 0.2546 0.0000
vt 0.9628 0.2440 0.0000
vt 0.9672 0.2482 0.0000
vt 0.9692 0.2483 0.0000
vt 0.9739 0.2463 0.0000
vt 0.9816 0.2441 0.0000
vt 0.9715 0.2332 0.0000
vt 0.9472 0.5370 0.0000
vt 0.9429 0.5377 0.0000
vt 0.9512 0.5365 0.0000
vt 0.9554 0.5373 -20.8400
vt 0.9616 0.5385 0.0000
vt 0.9480 0.5461 0.0000
vt 0.9450 0.5461 0.0000
vt 0.9505 0.5458 0.0000
vt 0.9530 0.5456 0.0000
vt 0.9582 0.5480 0.0000
vt 0.9500 0.5556 0.0000
vt 0.8896 0.4506 0.0000
vt 0.8828 0.4485 0.0000
vt 0.8904 0.3347 0.0000
vt 0.8962 0.3387 0.0000
vt 0.8970 0.4510 0.0000
vt 0.9044 0.3395 0.0000
vt 0.9038 0.4498 0.0000
vt 0.9099 0.3367 0.0000
vt 0.9107 0.4501 0.0000
vt 0.9164 0.3370 0.0000
vt 0.8861 0.5094 0.0000
vt 0.8787 0.5100 0.0000
vt 0.8933 0.5099 0.0000
vt 0.9005 0.5113 0.0000
vt 0.9074 0.5117 0.0000
vt 0.8837 0.5528 0.0000
vt 0.8783 0.5581 0.0000
vt 0.8915 0.5531 0.0000
vt 0.8962 0.5585 0.0000
vt 0.9028 0.5597 0.0000
vt 0.8952 0.3125 20.8400
vt 0.9002 0.3125 0.0000
vt 0.9047 0.3131 0.0000
vt 0.9098 0.3141 0.0000
vt 0.9172 0.3144 0.0000
vt 0.8966 0.2974 0.0000
vt 0.9012 0.2989 0.0000
vt 0.9069 0.2992 0.0000
vt 0.9112 0.2987 0.0000
vt 0.9180 0.2990 0.0000
vt 0.8985 0.2870 0.0000
vt 0.9036 0.2863 0.0000
vt 0.9073 0.2865 0.0000
vt 0.9119 0.2882 0.0000
vt 0.9193 0.2880 0.0000
vt 0.9007 0.2774 0.0000
vt 0.9052 0.2816 0.0000
vt 0.9072 0.2817 0.0000
vt 0.9118 0.2797 0.0000
vt 0.9196 0.2775 0.0000
vt 0.9094 0.2667 0.0000
vt 0.8852 0.5704 0.0000
vt 0.8809 0.5711 0.0000
vt 0.8891 0.5699 0.0000
vt 0.8933 0.5707 -20.8400
vt 0.8996 0.5719 0.0000
vt 0.8859 0.5796 0.0000
vt 0.8829 0.5795 0.0000
vt 0.8884 0.5793 0.0000
vt 0.8909 0.5790 0.0000
vt 0.8962 0.5815 0.0000
vt 0.8879 0.5891 0.0000
vt 0.9517 0.7513 0.0000
vt 0.9449 0.7492 0.0000
vt 0.9525 0.6355 0.0000
vt 0.9582 0.6395 0.0000
vt 0.9591 0.7518 0.0000
vt 0.9664 0.6402 0.0000
vt 0.9659 0.7505 0.0000
vt 0.9720 0.6375 0.0000
vt 0.9727 0.7509 0.0000
vt 0.9784 0.6377 0.0000
vt 0.9481 0.8101 0.0000
vt 0.9408 0.8107 0.0000
vt 0.9553 0.8106 0.0000
vt 0.9626 0.8120 0.0000
vt 0.9695 0.8125 0.0000
vt 0.9457 0.8535 0.0000
vt 0.9403 0.8589 0.0000
vt 0.9536 0.8538 0.0000
vt 0.9583 0.8593 0.0000
vt 0.9649 0.8604 0.0000
vt 0.9573 0.6132 20.8400
vt 0.9623 0.6133 0.0000
vt 0.9667 0.6138 0.0000
vt 0.9719 0.6149 0.0000
vt 0.9793 0.6151 0.0000
vt 0.9587 0.5981 0.0000
vt 0.9633 0.5997 0.0000
vt 0.9690 0.5999 0.0000
vt 0.9732 0.5994 0.0000
vt 0.9800 0.5998 0.0000
vt 0.9606 0.5877 0.0000
vt 0.9656 0.5870 0.0000
vt 0.9694 0.5873 0.0000
vt 0.9740 0.5890 0.0000
vt 0.9814 0.5888 0.0000
vt 0.9628 0.5782 0.0000
vt 0.9672 0.5823 0.0000
vt 0.9692 0.5824 0.0000
vt 0.9739 0.5804 0.0000
vt 0.9816 0.5782 0.0000
vt 0.9714 0.5674 0.0000
vt 0.9472 0.8711 0.0000
vt 0.9429 0.8718 0.0000
vt 0.9512 0.8707 0.0000
vt 0.9554 0.8714 -20.8400
vt 0.9616 0.8727 0.0000
vt 0.9480 0.8803 0.0000
vt 0.9450 0.8802 0.0000
vt 0.9505 0.8800 0.0000
vt 0.9530 0.8798 0.0000
vt 0.9582 0.8822 0.0000
vt 0.9500 0.8898 0.0000
vt 0.8276 0.5986 0.0000
vt 0.8207 0.5965 0.0000
vt 0.8284 0.4827 0.0000
vt 0.8341 0.4867 0.0000
vt 0.8350 0.5990 0.0000
vt 0.8423 0.4875 0.0000
vt 0.8418 0.5978 0.0000
vt 0.8478 0.4847 0.0000
vt 0.8486 0.5981 0.0000
vt 0.8543 0.4850 0.0000
vt 0.8240 0.6574 0.0000
vt 0.8166 0.6580 0.0000
vt 0.8312 0.6578 0.0000
vt 0.8384 0.6592 0.0000
vt 0.8454 0.6597 0.0000
vt 0.8216 0.7008 0.0000
vt 0.8162 0.7061 0.0000
vt 0.8295 0.7010 0.0000
vt 0.8342 0.7065 0.0000
vt 0.8408 0.7077 0.0000
vt 0.8332 0.4605 20.8400
vt 0.8382 0.4605 0.0000
vt 0.8426 0.4610 0.0000
vt 0.8478 0.4621 0.0000
vt 0.8552 0.4624 0.0000
vt 0.8346 0.4453 0.0000
vt 0.8392 0.4469 0.0000
vt 0.8449 0.4472 0.0000
vt 0.8491 0.4467 0.0000
vt 0.8559 0.4470 0.0000
vt 0.8365 0.4349 0.0000
vt 0.8415 0.4343 0.0000
vt 0.8453 0.4345 0.0000
vt 0.8498 0.4362 0.0000
vt 0.8573 0.4360 0.0000
vt 0.8387 0.4254 0.0000
vt 0.8431 0.4295 0.0000
vt 0.8451 0.4297 0.0000
vt 0.8498 0.4277 0.0000
vt 0.8575 0.4255 0.0000
vt 0.8473 0.4146 0.0000
vt 0.8231 0.7184 0.0000
vt 0.8188 0.7191 0.0000
vt 0.8271 0.7179 0.0000
vt 0.8313 0.7186 -20.8400
vt 0.8375 0.7199 0.0000
vt 0.8238 0.7275 0.0000
vt 0.8209 0.7274 0.0000
vt 0.8264 0.7272 0.0000
vt 0.8289 0.7270 0.0000
vt 0.8341 0.7294 0.0000
vt 0.8259 0.7370 0.0000
vt 0.7655 0.6367 0.0000
vt 0.7587 0.6346 0.0000
vt 0.7663 0.5209 0.0000
vt 0.7721 0.5249 0.0000
vt 0.7729 0.6372 0.0000
vt 0.7803 0.5257 0.0000
vt 0.7797 0.6360 0.0000
vt 0.7858 0.5229 0.0000
vt 0.7866 0.6363 0.0000
vt 0.7923 0.5232 0.0000
vt 0.7620 0.6956 0.0000
vt 0.7546 0.6962 0.0000
vt 0.7692 0.6960 0.0000
vt 0.7764 0.6974 0.0000
vt 0.7833 0.6979 0.0000
vt 0.7596 0.7390 0.0000
vt 0.7542 0.7443 0.0000
vt 0.7674 0.7392 0.0000
vt 0.7721 0.7447 0.0000
vt 0.7787 0.7458 0.0000
vt 0.7711 0.4987 20.8399
vt 0.7761 0.4987 0.0000
vt 0.7806 0.4992 0.0000
vt 0.7857 0.5003 0.0000
vt 0.7931 0.5006 0.0000
vt 0.7725 0.4835 0.0000
vt 0.7771 0.4851 0.0000
vt 0.7828 0.4853 0.0000
vt 0.7871 0.4848 0.0000
vt 0.7939 0.4852 0.0000
vt 0.7744 0.4731 0.0000
vt 0.7795 0.4725 0.0000
vt 0.7832 0.4727 0.0000
vt 0.7878 0.4744 0.0000
vt 0.7952 0.4742 0.0000
vt 0.7766 0.4636 0.0000
vt 0.7811 0.4677 0.0000
vt 0.7830 0.4679 0.0000
vt 0.7877 0.4659 0.0000
vt 0.7955 0.4636 0.0000
vt 0.7853 0.4528 0.0000
vt 0.7611 0.7566 0.0000
vt 0.7567 0.7573 0.0000
vt 0.7650 0.7561 0.0000
vt 0.7692 0.7568 -20.8399
vt 0.7754 0.7581 0.0000
vt 0.7618 0.7657 0.0000
vt 0.7588 0.7656 0.0000
vt 0.7643 0.7654 0.0000
vt 0.7668 0.7652 0.0000
vt 0.7720 0.7676 0.0000
vt 0.7638 0.7752 0.0000
# 312 texture coords

o lanternCurls_LOW
g lanternCurls_LOW
usemtl wire_087225198
s off
f 1/1/1 2/2/2 3/3/3 4/4/4 
f 5/5/5 1/1/1 4/4/4 6/6/6 
f 7/7/7 5/5/5 6/6/6 8/8/8 
f 2/9/2 7/7/7 8/8/8 3/10/3 
f 9/11/9 10/12/10 2/2/2 1/1/1 
f 11/13/11 9/11/9 1/1/1 5/5/5 
f 12/14/12 11/13/11 5/5/5 7/7/7 
f 10/15/10 12/14/12 7/7/7 2/9/2 
f 13/16/13 14/17/14 10/12/10 9/11/9 
f 15/18/15 13/16/13 9/11/9 11/13/11 
f 16/19/16 15/18/15 11/13/11 12/14/12 
f 14/20/14 16/19/16 12/14/12 10/15/10 
f 3/3/3 17/21/17 18/22/18 4/4/4 
f 4/4/4 18/22/18 19/23/19 6/6/6 
f 6/6/6 19/23/19 20/24/20 8/8/8 
f 8/8/8 20/24/20 17/25/17 3/10/3 
f 17/21/17 21/26/21 22/27/22 18/22/18 
f 18/22/18 22/27/22 23/28/23 19/23/19 
f 19/23/19 23/28/23 24/29/24 20/24/20 
f 20/24/20 24/29/24 21/30/21 17/25/17 
f 21/26/21 25/31/25 26/32/26 22/27/22 
f 22/27/22 26/32/26 27/33/27 23/28/23 
f 23/28/23 27/33/27 28/34/28 24/29/24 
f 24/29/24 28/34/28 25/35/25 21/30/21 
f 25/31/25 29/36/29 30/37/30 26/32/26 
f 26/32/26 30/37/30 31/38/31 27/33/27 
f 27/33/27 31/38/31 32/39/32 28/34/28 
f 28/34/28 32/39/32 29/40/29 25/35/25 
f 29/36/29 33/41/33 30/37/30 
f 30/37/30 33/41/33 31/38/31 
f 31/38/31 33/41/33 32/39/32 
f 32/39/32 33/41/33 29/40/29 
f 13/16/13 34/42/34 35/43/35 14/17/14 
f 15/18/15 36/44/36 34/42/34 13/16/13 
f 16/19/16 37/45/37 36/44/36 15/18/15 
f 14/20/14 35/46/35 37/45/37 16/19/16 
f 34/42/34 38/47/38 39/48/39 35/43/35 
f 36/44/36 40/49/40 38/47/38 34/42/34 
f 37/45/37 41/50/41 40/49/40 36/44/36 
f 35/46/35 39/51/39 41/50/41 37/45/37 
f 38/47/38 42/52/42 39/48/39 
f 40/49/40 42/52/42 38/47/38 
f 41/50/41 42/52/42 40/49/40 
f 39/51/39 42/52/42 41/50/41 
f 43/53/43 44/54/44 45/55/45 46/56/46 
f 47/57/47 43/53/43 46/56/46 48/58/48 
f 49/59/49 47/57/47 48/58/48 50/60/50 
f 44/61/44 49/59/49 50/60/50 45/62/45 
f 51/63/51 52/64/52 44/54/44 43/53/43 
f 53/65/53 51/63/51 43/53/43 47/57/47 
f 54/66/54 53/65/53 47/57/47 49/59/49 
f 52/67/52 54/66/54 49/59/49 44/61/44 
f 55/68/55 56/69/56 52/64/52 51/63/51 
f 57/70/57 55/68/55 51/63/51 53/65/53 
f 58/71/58 57/70/57 53/65/53 54/66/54 
f 56/72/56 58/71/58 54/66/54 52/67/52 
f 45/55/45 59/73/59 60/74/60 46/56/46 
f 46/56/46 60/74/60 61/75/61 48/58/48 
f 48/58/48 61/75/61 62/76/62 50/60/50 
f 50/60/50 62/76/62 59/77/59 45/62/45 
f 59/73/59 63/78/63 64/79/64 60/74/60 
f 60/74/60 64/79/64 65/80/65 61/75/61 
f 61/75/61 65/80/65 66/81/66 62/76/62 
f 62/76/62 66/81/66 63/82/63 59/77/59 
f 63/78/63 67/83/67 68/84/68 64/79/64 
f 64/79/64 68/84/68 69/85/69 65/80/65 
f 65/80/65 69/85/69 70/86/70 66/81/66 
f 66/81/66 70/86/70 67/87/67 63/82/63 
f 67/83/67 71/88/71 72/89/72 68/84/68 
f 68/84/68 72/89/72 73/90/73 69/85/69 
f 69/85/69 73/90/73 74/91/74 70/86/70 
f 70/86/70 74/91/74 71/92/71 67/87/67 
f 71/88/71 75/93/75 72/89/72 
f 72/89/72 75/93/75 73/90/73 
f 73/90/73 75/93/75 74/91/74 
f 74/91/74 75/93/75 71/92/71 
f 55/68/55 76/94/76 77/95/77 56/69/56 
f 57/70/57 78/96/78 76/94/76 55/68/55 
f 58/71/58 79/97/79 78/96/78 57/70/57 
f 56/72/56 77/98/77 79/97/79 58/71/58 
f 76/94/76 80/99/80 81/100/81 77/95/77 
f 78/96/78 82/101/82 80/99/80 76/94/76 
f 79/97/79 83/102/83 82/101/82 78/96/78 
f 77/98/77 81/103/81 83/102/83 79/97/79 
f 80/99/80 84/104/84 81/100/81 
f 82/101/82 84/104/84 80/99/80 
f 83/102/83 84/104/84 82/101/82 
f 81/103/81 84/104/84 83/102/83 
f 85/105/85 86/106/86 87/107/87 88/108/88 
f 89/109/89 85/105/85 88/108/88 90/110/90 
f 91/111/91 89/109/89 90/110/90 92/112/92 
f 86/113/86 91/111/91 92/112/92 87/114/87 
f 93/115/93 94/116/94 86/106/86 85/105/85 
f 95/117/95 93/115/93 85/105/85 89/109/89 
f 96/118/96 95/117/95 89/109/89 91/111/91 
f 94/119/94 96/118/96 91/111/91 86/113/86 
f 97/120/97 98/121/98 94/116/94 93/115/93 
f 99/122/99 97/120/97 93/115/93 95/117/95 
f 100/123/100 99/122/99 95/117/95 96/118/96 
f 98/124/98 100/123/100 96/118/96 94/119/94 
f 87/107/87 101/125/101 102/126/102 88/108/88 
f 88/108/88 102/126/102 103/127/103 90/110/90 
f 90/110/90 103/127/103 104/128/104 92/112/92 
f 92/112/92 104/128/104 101/129/101 87/114/87 
f 101/125/101 105/130/105 106/131/106 102/126/102 
f 102/126/102 106/131/106 107/132/107 103/127/103 
f 103/127/103 107/132/107 108/133/108 104/128/104 
f 104/128/104 108/133/108 105/134/105 101/129/101 
f 105/130/105 109/135/109 110/136/110 106/131/106 
f 106/131/106 110/136/110 111/137/111 107/132/107 
f 107/132/107 111/137/111 112/138/112 108/133/108 
f 108/133/108 112/138/112 109/139/109 105/134/105 
f 109/135/109 113/140/113 114/141/114 110/136/110 
f 110/136/110 114/141/114 115/142/115 111/137/111 
f 111/137/111 115/142/115 116/143/116 112/138/112 
f 112/138/112 116/143/116 113/144/113 109/139/109 
f 113/140/113 117/145/117 114/141/114 
f 114/141/114 117/145/117 115/142/115 
f 115/142/115 117/145/117 116/143/116 
f 116/143/116 117/145/117 113/144/113 
f 97/120/97 118/146/118 119/147/119 98/121/98 
f 99/122/99 120/148/120 118/146/118 97/120/97 
f 100/123/100 121/149/121 120/148/120 99/122/99 
f 98/124/98 119/150/119 121/149/121 100/123/100 
f 118/146/118 122/151/122 123/152/123 119/147/119 
f 120/148/120 124/153/124 122/151/122 118/146/118 
f 121/149/121 125/154/125 124/153/124 120/148/120 
f 119/150/119 123/155/123 125/154/125 121/149/121 
f 122/151/122 126/156/126 123/152/123 
f 124/153/124 126/156/126 122/151/122 
f 125/154/125 126/156/126 124/153/124 
f 123/155/123 126/156/126 125/154/125 
f 127/157/127 128/158/128 129/159/129 130/160/130 
f 131/161/131 127/157/127 130/160/130 132/162/132 
f 133/163/133 131/161/131 132/162/132 134/164/134 
f 128/165/128 133/163/133 134/164/134 129/166/129 
f 135/167/135 136/168/136 128/158/128 127/157/127 
f 137/169/137 135/167/135 127/157/127 131/161/131 
f 138/170/138 137/169/137 131/161/131 133/163/133 
f 136/171/136 138/170/138 133/163/133 128/165/128 
f 139/172/139 140/173/140 136/168/136 135/167/135 
f 141/174/141 139/172/139 135/167/135 137/169/137 
f 142/175/142 141/174/141 137/169/137 138/170/138 
f 140/176/140 142/175/142 138/170/138 136/171/136 
f 129/159/129 143/177/143 144/178/144 130/160/130 
f 130/160/130 144/178/144 145/179/145 132/162/132 
f 132/162/132 145/179/145 146/180/146 134/164/134 
f 134/164/134 146/180/146 143/181/143 129/166/129 
f 143/177/143 147/182/147 148/183/148 144/178/144 
f 144/178/144 148/183/148 149/184/149 145/179/145 
f 145/179/145 149/184/149 150/185/150 146/180/146 
f 146/180/146 150/185/150 147/186/147 143/181/143 
f 147/182/147 151/187/151 152/188/152 148/183/148 
f 148/183/148 152/188/152 153/189/153 149/184/149 
f 149/184/149 153/189/153 154/190/154 150/185/150 
f 150/185/150 154/190/154 151/191/151 147/186/147 
f 151/187/151 155/192/155 156/193/156 152/188/152 
f 152/188/152 156/193/156 157/194/157 153/189/153 
f 153/189/153 157/194/157 158/195/158 154/190/154 
f 154/190/154 158/195/158 155/196/155 151/191/151 
f 155/192/155 159/197/159 156/193/156 
f 156/193/156 159/197/159 157/194/157 
f 157/194/157 159/197/159 158/195/158 
f 158/195/158 159/197/159 155/196/155 
f 139/172/139 160/198/160 161/199/161 140/173/140 
f 141/174/141 162/200/162 160/198/160 139/172/139 
f 142/175/142 163/201/163 162/200/162 141/174/141 
f 140/176/140 161/202/161 163/201/163 142/175/142 
f 160/198/160 164/203/164 165/204/165 161/199/161 
f 162/200/162 166/205/166 164/203/164 160/198/160 
f 163/201/163 167/206/167 166/205/166 162/200/162 
f 161/202/161 165/207/165 167/206/167 163/201/163 
f 164/203/164 168/208/168 165/204/165 
f 166/205/166 168/208/168 164/203/164 
f 167/206/167 168/208/168 166/205/166 
f 165/207/165 168/208/168 167/206/167 
f 169/209/169 170/210/170 171/211/171 172/212/172 
f 173/213/173 169/209/169 172/212/172 174/214/174 
f 175/215/175 173/213/173 174/214/174 176/216/176 
f 170/217/170 175/215/175 176/216/176 171/218/171 
f 177/219/177 178/220/178 170/210/170 169/209/169 
f 179/221/179 177/219/177 169/209/169 173/213/173 
f 180/222/180 179/221/179 173/213/173 175/215/175 
f 178/223/178 180/222/180 175/215/175 170/217/170 
f 181/224/181 182/225/182 178/220/178 177/219/177 
f 183/226/183 181/224/181 177/219/177 179/221/179 
f 184/227/184 183/226/183 179/221/179 180/222/180 
f 182/228/182 184/227/184 180/222/180 178/223/178 
f 171/211/171 185/229/185 186/230/186 172/212/172 
f 172/212/172 186/230/186 187/231/187 174/214/174 
f 174/214/174 187/231/187 188/232/188 176/216/176 
f 176/216/176 188/232/188 185/233/185 171/218/171 
f 185/229/185 189/234/189 190/235/190 186/230/186 
f 186/230/186 190/235/190 191/236/191 187/231/187 
f 187/231/187 191/236/191 192/237/192 188/232/188 
f 188/232/188 192/237/192 189/238/189 185/233/185 
f 189/234/189 193/239/193 194/240/194 190/235/190 
f 190/235/190 194/240/194 195/241/195 191/236/191 
f 191/236/191 195/241/195 196/242/196 192/237/192 
f 192/237/192 196/242/196 193/243/193 189/238/189 
f 193/239/193 197/244/197 198/245/198 194/240/194 
f 194/240/194 198/245/198 199/246/199 195/241/195 
f 195/241/195 199/246/199 200/247/200 196/242/196 
f 196/242/196 200/247/200 197/248/197 193/243/193 
f 197/244/197 201/249/201 198/245/198 
f 198/245/198 201/249/201 199/246/199 
f 199/246/199 201/249/201 200/247/200 
f 200/247/200 201/249/201 197/248/197 
f 181/224/181 202/250/202 203/251/203 182/225/182 
f 183/226/183 204/252/204 202/250/202 181/224/181 
f 184/227/184 205/253/205 204/252/204 183/226/183 
f 182/228/182 203/254/203 205/253/205 184/227/184 
f 202/250/202 206/255/206 207/256/207 203/251/203 
f 204/252/204 208/257/208 206/255/206 202/250/202 
f 205/253/205 209/258/209 208/257/208 204/252/204 
f 203/254/203 207/259/207 209/258/209 205/253/205 
f 206/255/206 210/260/210 207/256/207 
f 208/257/208 210/260/210 206/255/206 
f 209/258/209 210/260/210 208/257/208 
f 207/259/207 210/260/210 209/258/209 
f 211/261/211 212/262/212 213/263/213 214/264/214 
f 215/265/215 211/261/211 214/264/214 216/266/216 
f 217/267/217 215/265/215 216/266/216 218/268/218 
f 212/269/212 217/267/217 218/268/218 213/270/213 
f 219/271/219 220/272/220 212/262/212 211/261/211 
f 221/273/221 219/271/219 211/261/211 215/265/215 
f 222/274/222 221/273/221 215/265/215 217/267/217 
f 220/275/220 222/274/222 217/267/217 212/269/212 
f 223/276/223 224/277/224 220/272/220 219/271/219 
f 225/278/225 223/276/223 219/271/219 221/273/221 
f 226/279/226 225/278/225 221/273/221 222/274/222 
f 224/280/224 226/279/226 222/274/222 220/275/220 
f 213/263/213 227/281/227 228/282/228 214/264/214 
f 214/264/214 228/282/228 229/283/229 216/266/216 
f 216/266/216 229/283/229 230/284/230 218/268/218 
f 218/268/218 230/284/230 227/285/227 213/270/213 
f 227/281/227 231/286/231 232/287/232 228/282/228 
f 228/282/228 232/287/232 233/288/233 229/283/229 
f 229/283/229 233/288/233 234/289/234 230/284/230 
f 230/284/230 234/289/234 231/290/231 227/285/227 
f 231/286/231 235/291/235 236/292/236 232/287/232 
f 232/287/232 236/292/236 237/293/237 233/288/233 
f 233/288/233 237/293/237 238/294/238 234/289/234 
f 234/289/234 238/294/238 235/295/235 231/290/231 
f 235/291/235 239/296/239 240/297/240 236/292/236 
f 236/292/236 240/297/240 241/298/241 237/293/237 
f 237/293/237 241/298/241 242/299/242 238/294/238 
f 238/294/238 242/299/242 239/300/239 235/295/235 
f 239/296/239 243/301/243 240/297/240 
f 240/297/240 243/301/243 241/298/241 
f 241/298/241 243/301/243 242/299/242 
f 242/299/242 243/301/243 239/300/239 
f 223/276/223 244/302/244 245/303/245 224/277/224 
f 225/278/225 246/304/246 244/302/244 223/276/223 
f 226/279/226 247/305/247 246/304/246 225/278/225 
f 224/280/224 245/306/245 247/305/247 226/279/226 
f 244/302/244 248/307/248 249/308/249 245/303/245 
f 246/304/246 250/309/250 248/307/248 244/302/244 
f 247/305/247 251/310/251 250/309/250 246/304/246 
f 245/306/245 249/311/249 251/310/251 247/305/247 
f 248/307/248 252/312/252 249/308/249 
f 250/309/250 252/312/252 248/307/248 
f 251/310/251 252/312/252 250/309/250 
f 249/311/249 252/312/252 251/310/251 
# 216 polygons - 48 triangles

#
# object lanternHook_LOW
#

v  1.2540 39.5850 0.3496
v  1.6090 39.9375 0.0006
v  -0.4755 41.1319 0.0000
v  -0.4329 40.6444 0.3421
v  -2.6788 38.6658 0.0000
v  -2.1967 38.5807 0.3418
v  -1.0872 36.0710 0.0000
v  -0.7407 36.4172 0.3413
v  1.0107 36.0711 0.0000
v  0.6349 36.4683 0.3412
v  2.2629 37.9989 0.0000
v  0.9036 39.2332 0.0013
v  -0.3903 40.1574 0.0000
v  -1.7149 38.4956 0.0000
v  -0.3946 36.7634 0.0000
v  0.2614 36.7823 0.0000
v  1.2567 39.5851 -0.3537
v  -0.4329 40.6444 -0.3421
v  -2.1967 38.5807 -0.3418
v  -0.7407 36.4172 -0.3413
v  0.6349 36.4683 -0.3412
v  1.2716 39.5731 0.8159
v  0.7189 39.0204 0.0008
v  0.9599 38.7801 -0.0010
v  1.5110 39.3313 0.8190
v  1.2706 39.5721 -0.8159
v  1.5124 39.3326 -0.8190
v  1.8233 40.1248 -0.0008
v  2.0635 39.8838 0.0010
# 29 vertices

vn -0.6496 0.5108 0.5631
vn -0.5174 0.8558 0.0002
vn -0.1397 0.9902 -0.0000
vn -0.0765 0.2322 0.9697
vn -0.9942 0.1080 -0.0000
vn -0.1965 -0.0312 0.9800
vn -0.5498 -0.8353 -0.0000
vn -0.0600 -0.1801 0.9818
vn 0.5377 -0.8431 0.0000
vn 0.0690 -0.0634 0.9956
vn 0.6401 0.7683 0.0000
vn -0.9514 0.3079 -0.0006
vn 0.2171 -0.9762 -0.0005
vn 0.9963 0.0862 -0.0000
vn 0.4052 0.9142 0.0000
vn -0.2575 0.9663 0.0000
vn -0.6527 0.5141 -0.5565
vn -0.0778 0.2320 -0.9696
vn -0.1965 -0.0312 -0.9800
vn -0.0600 -0.1801 -0.9818
vn 0.0690 -0.0634 -0.9956
vn -0.3891 0.4124 0.8237
vn -0.9790 -0.2036 0.0027
vn -0.1589 -0.9873 -0.0026
vn 0.3937 -0.4186 0.8184
vn -0.3936 0.4100 -0.8228
vn 0.3979 -0.4150 -0.8182
vn 0.1826 0.9832 -0.0024
vn 0.9835 0.1808 0.0030
# 29 vertex normals

vt 0.0606 0.3854 0.0000
vt 0.0513 0.3856 0.0000
vt 0.0655 0.3632 0.0000
vt 0.0688 0.3649 0.0000
vt 0.0750 0.3483 0.0000
vt 0.0776 0.3496 0.0000
vt 0.0828 0.3361 0.0000
vt 0.0855 0.3368 0.0000
vt 0.0890 0.3265 0.0000
vt 0.0914 0.3293 0.0000
vt 0.0967 0.3144 0.0000
vt 0.0680 0.3837 0.0000
vt 0.0721 0.3661 0.0000
vt 0.0804 0.3508 0.0000
vt 0.0893 0.3373 0.0000
vt 0.0935 0.3329 0.0000
vt 0.0475 0.3772 0.0000
vt 0.0626 0.3609 0.0000
vt 0.0727 0.3465 0.0000
vt 0.0811 0.3339 0.0000
vt 0.0854 0.3255 0.0000
vt 0.0459 0.3691 0.0000
vt 0.0601 0.3583 0.0000
vt 0.0705 0.3444 0.0000
vt 0.0790 0.3307 0.0000
vt 0.0812 0.3250 0.0000
vt 0.0610 0.3886 0.0000
vt 0.0722 0.3847 0.0000
vt 0.0737 0.3890 0.0000
vt 0.0619 0.3932 0.0000
vt 0.0429 0.3650 0.0000
vt 0.0444 0.3782 0.0000
vt 0.0389 0.3808 0.0000
vt 0.0366 0.3656 0.0000
vt 0.0496 0.3885 0.0000
vt 0.0475 0.3936 0.0000
vt 0.0238 0.3741 0.0000
vt 0.0261 0.3893 0.0000
# 38 texture coords

o lanternHook_LOW
g lanternHook_LOW
usemtl wire_087225198
s off
f 253/313/253 254/314/254 255/315/255 256/316/256 
f 256/316/256 255/315/255 257/317/257 258/318/258 
f 258/318/258 257/317/257 259/319/259 260/320/260 
f 260/320/260 259/319/259 261/321/261 262/322/262 
f 262/322/262 261/321/261 263/323/263 
f 264/324/264 253/313/253 256/316/256 265/325/265 
f 265/325/265 256/316/256 258/318/258 266/326/266 
f 266/326/266 258/318/258 260/320/260 267/327/267 
f 267/327/267 260/320/260 262/322/262 268/328/268 
f 268/328/268 262/322/262 263/323/263 
f 269/329/269 270/330/270 255/315/255 254/314/254 
f 270/330/270 271/331/271 257/317/257 255/315/255 
f 271/331/271 272/332/272 259/319/259 257/317/257 
f 272/332/272 273/333/273 261/321/261 259/319/259 
f 273/333/273 263/323/263 261/321/261 
f 264/334/264 265/335/265 270/330/270 269/329/269 
f 265/335/265 266/336/266 271/331/271 270/330/270 
f 266/336/266 267/337/267 272/332/272 271/331/271 
f 267/337/267 268/338/268 273/333/273 272/332/272 
f 268/338/268 263/323/263 273/333/273 
f 274/339/274 275/340/275 276/341/276 277/342/277 
f 275/343/275 278/344/278 279/345/279 276/346/276 
f 278/344/278 280/347/280 281/348/281 279/345/279 
f 280/347/280 274/339/274 277/342/277 281/348/281 
f 253/313/253 264/324/264 275/340/275 274/339/274 
f 264/334/264 269/329/269 278/344/278 275/343/275 
f 269/329/269 254/314/254 280/347/280 278/344/278 
f 254/314/254 253/313/253 274/339/274 280/347/280 
f 277/349/277 276/346/276 279/345/279 281/350/281 
# 25 polygons - 4 triangles

#
# object lanternTopBottom_LOW
#

v  7.1122 30.1886 12.3158
v  -7.1117 30.1880 12.3165
v  -14.2201 30.1890 -0.0007
v  14.2196 30.1895 -0.0013
v  7.1117 30.1880 -12.3165
v  2.6335 36.0515 -4.5629
v  5.2688 36.0506 -0.0007
v  -7.1106 30.1880 -12.3172
v  -2.6348 36.0515 -4.5621
v  -5.2688 36.0506 0.0007
v  -2.6335 36.0515 4.5629
v  2.6348 36.0515 4.5621
v  4.0818 2.7572 7.0671
v  -4.0810 2.7555 7.0673
v  -8.1602 2.7584 -0.0006
v  8.1606 2.7599 -0.0012
v  4.0810 2.7555 -7.0673
v  4.0802 5.6242 -7.0687
v  8.1609 5.6215 -0.0006
v  -4.0800 2.7555 -7.0679
v  -4.0816 5.6242 -7.0679
v  -8.1609 5.6215 0.0006
v  -4.0802 5.6242 7.0687
v  4.0816 5.6242 7.0679
# 24 vertices

vn 0.4814 -0.2711 0.8335
vn -0.4813 -0.2712 0.8335
vn -0.9625 -0.2711 -0.0001
vn 0.9626 -0.2711 -0.0000
vn 0.4814 -0.2712 -0.8335
vn 0.2156 0.9022 -0.3735
vn 0.4314 0.9022 -0.0001
vn -0.4813 -0.2712 -0.8336
vn -0.2158 0.9022 -0.3734
vn -0.4314 0.9022 0.0001
vn -0.2156 0.9022 0.3735
vn 0.2158 0.9022 0.3734
vn 0.3964 -0.6101 0.6861
vn -0.3962 -0.6104 0.6859
vn -0.7924 -0.6100 -0.0001
vn 0.7925 -0.6099 -0.0001
vn 0.3963 -0.6104 -0.6858
vn 0.3961 0.6101 -0.6862
vn 0.7925 0.6099 0.0000
vn -0.3961 -0.6103 -0.6861
vn -0.3964 0.6101 -0.6860
vn -0.7925 0.6098 0.0002
vn -0.3961 0.6101 0.6862
vn 0.3963 0.6101 0.6861
# 24 vertex normals

vt 0.6873 0.2532 0.0000
vt 0.7846 0.1965 0.0000
vt 0.8823 0.2524 0.0000
vt 0.6878 0.3658 0.0000
vt 0.8828 0.0280 0.0000
vt 0.9804 0.0839 0.0000
vt 0.9176 0.1203 0.0000
vt 0.8827 0.1006 0.0000
vt 0.9803 0.1964 0.0000
vt 0.9172 0.1605 0.0000
vt 0.8823 0.1798 0.0000
vt 0.8474 0.1602 0.0000
vt 0.7847 0.0840 0.0000
vt 0.8478 0.1200 0.0000
vt 0.8827 0.3650 0.0000
vt 0.7855 0.4216 0.0000
vt 0.0293 0.5761 0.0000
vt 0.0866 0.5438 0.0000
vt 0.1432 0.5773 0.0000
vt 0.0286 0.6419 0.0000
vt 0.1451 0.3801 0.0000
vt 0.1456 0.3144 0.0000
vt 0.1566 0.3145 0.0000
vt 0.1560 0.3802 0.0000
vt 0.1418 0.7089 0.0000
vt 0.1425 0.6431 0.0000
vt 0.1534 0.6432 0.0000
vt 0.1527 0.7090 0.0000
vt 0.1541 0.5774 0.0000
vt 0.1438 0.5116 0.0000
vt 0.1548 0.5117 0.0000
vt 0.1445 0.4458 0.0000
vt 0.1554 0.4459 0.0000
vt 0.2674 0.6444 0.0000
vt 0.2101 0.6767 0.0000
vt 0.2114 0.5451 0.0000
vt 0.2680 0.5786 0.0000
vt 0.0852 0.6754 0.0000
# 38 texture coords

o lanternTopBottom_LOW
g lanternTopBottom_LOW
usemtl wire_087225198
s off
f 282/351/282 283/352/283 284/353/284 285/354/285 
f 285/355/285 286/356/286 287/357/287 288/358/288 
f 286/356/286 289/359/289 290/360/290 287/357/287 
f 289/359/289 284/353/284 291/361/291 290/360/290 
f 284/353/284 283/352/283 292/362/292 291/361/291 
f 283/352/283 282/363/282 293/364/293 292/362/292 
f 282/363/282 285/355/285 288/358/288 293/364/293 
f 288/358/288 287/357/287 290/360/290 291/361/291 
f 284/353/284 289/365/289 286/366/286 285/354/285 
f 291/361/291 292/362/292 293/364/293 288/358/288 
f 294/367/294 295/368/295 296/369/296 297/370/297 
f 297/371/297 298/372/298 299/373/299 300/374/300 
f 298/375/298 301/376/301 302/377/302 299/378/299 
f 301/376/301 296/369/296 303/379/303 302/377/302 
f 296/369/296 295/380/295 304/381/304 303/379/303 
f 295/380/295 294/382/294 305/383/305 304/381/304 
f 294/382/294 297/371/297 300/374/300 305/383/305 
f 300/384/300 299/385/299 302/377/302 303/379/303 
f 303/379/303 304/386/304 305/387/305 300/384/300 
f 296/369/296 301/376/301 298/388/298 297/370/297 
# 20 polygons

#
# object lanternGlass_LOW
#

v  7.5060 5.6402 0.0000
v  3.7530 5.6402 -6.5004
v  3.2102 10.1162 -5.5603
v  6.4205 10.1162 0.0000
v  -3.7530 5.6402 -6.5004
v  -3.2102 10.1162 -5.5603
v  -7.5060 5.6402 0.0000
v  -6.4205 10.1162 0.0000
v  -3.7530 5.6402 6.5004
v  -3.2102 10.1162 5.5603
v  3.7530 5.6402 6.5004
v  3.2102 10.1162 5.5603
v  3.6186 16.3240 -6.2675
v  7.2371 16.3240 0.0000
v  -3.6186 16.3240 -6.2675
v  -7.2371 16.3240 0.0000
v  -3.6186 16.3240 6.2675
v  3.6186 16.3240 6.2675
v  6.0517 30.1837 -10.4819
v  12.1034 30.1837 -0.0000
v  -6.0517 30.1837 -10.4819
v  -12.1034 30.1837 0.0000
v  -6.0517 30.1837 10.4819
v  6.0517 30.1837 10.4819
# 24 vertices

vn 0.9822 0.1877 0.0000
vn 0.4911 0.1877 -0.8506
vn 0.4995 0.0449 -0.8652
vn 0.9990 0.0449 -0.0000
vn -0.4911 0.1877 -0.8506
vn -0.4995 0.0449 -0.8652
vn -0.9822 0.1877 0.0000
vn -0.9990 0.0449 0.0000
vn -0.4911 0.1877 0.8506
vn -0.4995 0.0449 0.8652
vn 0.4911 0.1877 0.8506
vn 0.4995 0.0449 0.8652
vn 0.4908 -0.1905 -0.8502
vn 0.9817 -0.1905 0.0000
vn -0.4908 -0.1905 -0.8502
vn -0.9817 -0.1905 0.0000
vn -0.4908 -0.1905 0.8502
vn 0.4908 -0.1905 0.8502
vn 0.4819 -0.2666 -0.8347
vn 0.9638 -0.2666 -0.0000
vn -0.4819 -0.2666 -0.8347
vn -0.9638 -0.2666 -0.0000
vn -0.4819 -0.2666 0.8347
vn 0.4819 -0.2666 0.8347
# 24 vertex normals

vt 0.3137 0.7427 0.0000
vt 0.3612 0.7405 0.0000
vt 0.3629 0.7798 0.0000
vt 0.3138 0.7842 0.0000
vt 0.4078 0.7383 0.0000
vt 0.4074 0.7738 0.0000
vt 0.1113 0.7249 0.0000
vt 0.1642 0.7304 0.0000
vt 0.1578 0.7736 0.0000
vt 0.1109 0.7659 0.0000
vt 0.2153 0.7375 0.0000
vt 0.2096 0.7809 0.0000
vt 0.2650 0.7419 0.0000
vt 0.2622 0.7848 0.0000
vt 0.3741 0.8378 0.0000
vt 0.3199 0.8470 0.0000
vt 0.4213 0.8225 0.0000
vt 0.1463 0.8352 0.0000
vt 0.0946 0.8179 0.0000
vt 0.2034 0.8459 0.0000
vt 0.2622 0.8498 0.0000
vt 0.4180 0.9552 0.0000
vt 0.3454 0.9767 0.0000
vt 0.4847 0.9215 0.0000
vt 0.1048 0.9680 0.0000
vt 0.0238 0.9316 0.0000
vt 0.1873 0.9848 0.0000
vt 0.2681 0.9869 0.0000
# 28 texture coords

o lanternGlass_LOW
g lanternGlass_LOW
usemtl wire_087225198
s off
f 306/389/306 307/390/307 308/391/308 309/392/309 
f 307/390/307 310/393/310 311/394/311 308/391/308 
f 310/395/310 312/396/312 313/397/313 311/398/311 
f 312/396/312 314/399/314 315/400/315 313/397/313 
f 314/399/314 316/401/316 317/402/317 315/400/315 
f 316/401/316 306/389/306 309/392/309 317/402/317 
f 308/391/308 318/403/318 319/404/319 309/392/309 
f 311/394/311 320/405/320 318/403/318 308/391/308 
f 313/397/313 321/406/321 320/407/320 311/398/311 
f 315/400/315 322/408/322 321/406/321 313/397/313 
f 317/402/317 323/409/323 322/408/322 315/400/315 
f 309/392/309 319/404/319 323/409/323 317/402/317 
f 318/403/318 324/410/324 325/411/325 319/404/319 
f 320/405/320 326/412/326 324/410/324 318/403/318 
f 321/406/321 327/413/327 326/414/326 320/407/320 
f 322/408/322 328/415/328 327/413/327 321/406/321 
f 323/409/323 329/416/329 328/415/328 322/408/322 
f 319/404/319 325/411/325 329/416/329 323/409/323 
# 18 polygons

#
# object lanternBase_LOW
#

v  6.7486 1.1601 0.0000
v  6.6190 1.1601 -1.3166
v  6.6190 2.7426 -1.3166
v  6.7486 2.7426 0.0000
v  5.6113 1.1601 -3.7493
v  5.6113 2.7426 -3.7493
v  3.7493 1.1601 -5.6113
v  3.7493 2.7426 -5.6113
v  1.3166 1.1601 -6.6190
v  1.3166 2.7426 -6.6190
v  -1.3166 1.1601 -6.6190
v  -1.3166 2.7426 -6.6190
v  -3.7493 1.1601 -5.6113
v  -3.7493 2.7426 -5.6113
v  -5.6113 1.1601 -3.7493
v  -5.6113 2.7426 -3.7493
v  -6.6190 1.1601 -1.3166
v  -6.6190 2.7426 -1.3166
v  -6.7486 1.1601 0.0000
v  -6.7486 2.7426 0.0000
v  -6.2349 1.1601 2.5826
v  -6.2349 2.7426 2.5826
v  -4.7720 1.1601 4.7720
v  -4.7720 2.7426 4.7720
v  -2.5826 1.1601 6.2349
v  -2.5826 2.7426 6.2349
v  0.0000 1.1601 6.7486
v  0.0000 2.7426 6.7486
v  2.5826 1.1601 6.2349
v  2.5826 2.7426 6.2349
v  4.7720 1.1601 4.7720
v  4.7720 2.7426 4.7720
v  6.2349 1.1601 2.5826
v  6.2349 2.7426 2.5826
v  6.6190 1.1601 1.3166
v  6.6190 2.7426 1.3166
v  -6.6307 0.9781 0.0000
v  -6.5032 0.9781 -1.2936
v  -5.6228 0.9781 -3.6325
v  -6.2234 0.9781 2.4657
v  -3.7609 0.9781 -5.4944
v  -4.7605 0.9781 4.6552
v  -1.3281 0.9781 -6.5021
v  -2.5711 0.9781 6.1181
v  1.3051 0.9781 -6.5021
v  0.0115 0.9781 6.6318
v  3.7378 0.9781 -5.4944
v  2.5941 0.9781 6.1181
v  5.5998 0.9781 -3.6325
v  4.7835 0.9781 4.6551
v  6.6075 0.9781 -1.1997
v  6.2464 0.9781 2.4657
v  6.5032 0.9781 1.2936
v  6.6307 0.9781 0.0000
# 54 vertices

vn 0.9730 -0.2306 -0.0000
vn 0.9608 -0.0931 -0.2610
vn 0.9700 0.0000 -0.2430
vn 1.0000 0.0000 -0.0000
vn 0.8097 -0.1595 -0.5648
vn 0.8315 0.0000 -0.5556
vn 0.5342 -0.2063 -0.8198
vn 0.5556 0.0000 -0.8315
vn 0.1878 -0.2258 -0.9559
vn 0.1951 0.0000 -0.9808
vn -0.1837 -0.2194 -0.9582
vn -0.1951 0.0000 -0.9808
vn -0.5327 -0.1864 -0.8255
vn -0.5556 -0.0000 -0.8315
vn -0.8116 -0.1255 -0.5706
vn -0.8315 -0.0000 -0.5555
vn -0.9445 -0.2289 -0.2357
vn -0.9700 0.0000 -0.2430
vn -0.9723 -0.2288 0.0469
vn -0.9988 -0.0000 0.0491
vn -0.9073 -0.1255 0.4013
vn -0.9239 -0.0000 0.3827
vn -0.6835 -0.1864 0.7057
vn -0.7071 0.0000 0.7071
vn -0.3671 -0.2193 0.9040
vn -0.3827 -0.0000 0.9239
vn -0.0023 -0.2258 0.9742
vn 0.0000 -0.0000 1.0000
vn 0.3640 -0.2063 0.9083
vn 0.3827 0.0000 0.9239
vn 0.6839 -0.1594 0.7119
vn 0.7071 -0.0000 0.7071
vn 0.8915 -0.0931 0.4434
vn 0.9040 0.0000 0.4276
vn 0.9543 -0.2306 0.1898
vn 0.9808 0.0000 0.1951
vn -0.5521 -0.8335 0.0188
vn -0.5379 -0.8335 -0.1262
vn -0.5905 -0.7348 -0.3339
vn -0.6443 -0.7348 0.2122
vn -0.3596 -0.7907 -0.4955
vn -0.4493 -0.7907 0.4158
vn -0.1223 -0.8176 -0.5626
vn -0.2297 -0.8176 0.5279
vn 0.1142 -0.8229 -0.5566
vn 0.0034 -0.8229 0.5682
vn 0.3421 -0.8070 -0.4814
vn 0.2416 -0.8070 0.5389
vn 0.5480 -0.7686 -0.3300
vn 0.4731 -0.7686 0.4306
vn 0.6936 -0.7125 -0.1062
vn 0.6595 -0.7125 0.2395
vn 0.5296 -0.8441 0.0834
vn 0.5357 -0.8441 0.0215
# 54 vertex normals

vt 0.3442 0.1468 0.0000
vt 0.3514 0.1406 0.0000
vt 0.3564 0.1461 0.0000
vt 0.3490 0.1526 0.0000
vt 0.3647 0.1280 0.0000
vt 0.3700 0.1328 0.0000
vt 0.3763 0.1141 0.0000
vt 0.3817 0.1187 0.0000
vt 0.0836 0.1219 0.0000
vt 0.1015 0.1400 0.0000
vt 0.0951 0.1475 0.0000
vt 0.0763 0.1293 0.0000
vt 0.1203 0.1546 0.0000
vt 0.1151 0.1625 0.0000
vt 0.1403 0.1663 0.0000
vt 0.1362 0.1747 0.0000
vt 0.1615 0.1754 0.0000
vt 0.1584 0.1841 0.0000
vt 0.1834 0.1824 0.0000
vt 0.1812 0.1911 0.0000
vt 0.1941 0.1848 0.0000
vt 0.1927 0.1935 0.0000
vt 0.2158 0.1877 0.0000
vt 0.2151 0.1963 0.0000
vt 0.2369 0.1887 0.0000
vt 0.2371 0.1970 0.0000
vt 0.2571 0.1872 0.0000
vt 0.2583 0.1952 0.0000
vt 0.2765 0.1833 0.0000
vt 0.2787 0.1910 0.0000
vt 0.2950 0.1771 0.0000
vt 0.2980 0.1843 0.0000
vt 0.3123 0.1688 0.0000
vt 0.3161 0.1755 0.0000
vt 0.3287 0.1584 0.0000
vt 0.3330 0.1647 0.0000
vt 0.3367 0.1527 0.0000
vt 0.3413 0.1588 0.0000
vt 0.1971 0.1774 0.0000
vt 0.1893 0.1704 0.0000
vt 0.1783 0.1535 0.0000
vt 0.2151 0.1866 0.0000
vt 0.1750 0.1325 0.0000
vt 0.2363 0.1875 0.0000
vt 0.1801 0.1119 0.0000
vt 0.2563 0.1803 0.0000
vt 0.1927 0.0947 0.0000
vt 0.2720 0.1659 0.0000
vt 0.2109 0.0837 0.0000
vt 0.2810 0.1467 0.0000
vt 0.2319 0.0805 0.0000
vt 0.2819 0.1254 0.0000
vt 0.2525 0.0856 0.0000
vt 0.2747 0.1054 0.0000
vt 0.2683 0.0982 0.0000
vt 0.2605 0.0911 0.0000
vt 0.3434 0.1459 0.0000
vt 0.3502 0.1405 0.0000
vt 0.3636 0.1278 0.0000
vt 0.3751 0.1139 0.0000
vt 0.0845 0.1206 0.0000
vt 0.1024 0.1387 0.0000
vt 0.1214 0.1536 0.0000
vt 0.1415 0.1655 0.0000
vt 0.1628 0.1746 0.0000
vt 0.1837 0.1810 0.0000
vt 0.1944 0.1835 0.0000
vt 0.2566 0.1860 0.0000
vt 0.2763 0.1821 0.0000
vt 0.2950 0.1759 0.0000
vt 0.3124 0.1676 0.0000
vt 0.3288 0.1571 0.0000
vt 0.3359 0.1517 0.0000
# 73 texture coords

o lanternBase_LOW
g lanternBase_LOW
usemtl wire_087225198
s off
f 330/417/330 331/418/331 332/419/332 333/420/333 
f 331/418/331 334/421/334 335/422/335 332/419/332 
f 334/421/334 336/423/336 337/424/337 335/422/335 
f 336/425/336 338/426/338 339/427/339 337/428/337 
f 338/426/338 340/429/340 341/430/341 339/427/339 
f 340/429/340 342/431/342 343/432/343 341/430/341 
f 342/431/342 344/433/344 345/434/345 343/432/343 
f 344/433/344 346/435/346 347/436/347 345/434/345 
f 346/435/346 348/437/348 349/438/349 347/436/347 
f 348/437/348 350/439/350 351/440/351 349/438/349 
f 350/439/350 352/441/352 353/442/353 351/440/351 
f 352/441/352 354/443/354 355/444/355 353/442/353 
f 354/443/354 356/445/356 357/446/357 355/444/355 
f 356/445/356 358/447/358 359/448/359 357/446/357 
f 358/447/358 360/449/360 361/450/361 359/448/359 
f 360/449/360 362/451/362 363/452/363 361/450/361 
f 362/451/362 364/453/364 365/454/365 363/452/363 
f 364/453/364 330/417/330 333/420/333 365/454/365 
f 366/455/366 367/456/367 368/457/368 369/458/369 
f 369/458/369 368/457/368 370/459/370 371/460/371 
f 371/460/371 370/459/370 372/461/372 373/462/373 
f 373/462/373 372/461/372 374/463/374 375/464/375 
f 375/464/375 374/463/374 376/465/376 377/466/377 
f 377/466/377 376/465/376 378/467/378 379/468/379 
f 379/468/379 378/467/378 380/469/380 381/470/381 
f 382/471/382 381/470/381 380/469/380 383/472/383 
f 330/417/330 383/473/383 380/474/380 331/418/331 
f 331/418/331 380/474/380 378/475/378 334/421/334 
f 334/421/334 378/475/378 376/476/376 336/423/336 
f 336/425/336 376/477/376 374/478/374 338/426/338 
f 338/426/338 374/478/374 372/479/372 340/429/340 
f 340/429/340 372/479/372 370/480/370 342/431/342 
f 342/431/342 370/480/370 368/481/368 344/433/344 
f 344/433/344 368/481/368 367/482/367 346/435/346 
f 346/435/346 367/482/367 366/483/366 348/437/348 
f 348/437/348 366/483/366 369/458/369 350/439/350 
f 350/439/350 369/458/369 371/460/371 352/441/352 
f 352/441/352 371/460/371 373/484/373 354/443/354 
f 354/443/354 373/484/373 375/485/375 356/445/356 
f 356/445/356 375/485/375 377/486/377 358/447/358 
f 358/447/358 377/486/377 379/487/379 360/449/360 
f 360/449/360 379/487/379 381/488/381 362/451/362 
f 362/451/362 381/488/381 382/489/382 364/453/364 
f 364/453/364 382/489/382 383/473/383 330/417/330 
# 44 polygons

#
# object lanternCandle_LOW
#

v  2.4544 5.5026 0.0000
v  1.7355 5.5026 -1.7355
v  1.7355 7.5685 -1.7355
v  2.4544 7.5685 0.0000
v  -0.0000 5.5026 -2.4544
v  -0.0000 7.5685 -2.4544
v  -1.7355 5.5026 -1.7355
v  -1.7355 7.5685 -1.7355
v  -2.4544 5.5026 -0.0000
v  -2.4544 7.5685 -0.0000
v  -1.7355 5.5026 1.7355
v  -1.7355 7.5685 1.7355
v  0.0000 5.5026 2.4544
v  0.0000 7.5685 2.4544
v  1.7355 5.5026 1.7355
v  1.7355 7.5685 1.7355
# 16 vertices

vn 1.0000 0.0000 0.0000
vn 0.7071 0.0000 -0.7071
vn 0.5489 0.6303 -0.5490
vn 0.7763 0.6303 0.0000
vn -0.0000 0.0000 -1.0000
vn -0.0000 0.6303 -0.7764
vn -0.7071 0.0000 -0.7071
vn -0.5490 0.6303 -0.5490
vn -1.0000 0.0000 -0.0000
vn -0.7764 0.6303 -0.0000
vn -0.7071 0.0000 0.7071
vn -0.5490 0.6303 0.5490
vn 0.0000 0.0000 1.0000
vn 0.0000 0.6303 0.7764
vn 0.7071 0.0000 0.7071
vn 0.5490 0.6303 0.5490
# 16 vertex normals

vt 0.4134 0.4672 0.0000
vt 0.4308 0.4672 0.0000
vt 0.4308 0.4786 0.0000
vt 0.4134 0.4786 0.0000
vt 0.2911 0.4672 0.0000
vt 0.3086 0.4672 0.0000
vt 0.3086 0.4786 0.0000
vt 0.2911 0.4786 0.0000
vt 0.3261 0.4672 0.0000
vt 0.3261 0.4786 0.0000
vt 0.3435 0.4672 0.0000
vt 0.3435 0.4786 0.0000
vt 0.3610 0.4672 0.0000
vt 0.3610 0.4786 0.0000
vt 0.3784 0.4672 0.0000
vt 0.3784 0.4786 0.0000
vt 0.3959 0.4672 0.0000
vt 0.3959 0.4786 0.0000
vt 0.3908 0.4910 0.0000
vt 0.3908 0.5084 0.0000
vt 0.3784 0.5208 0.0000
vt 0.3610 0.5208 0.0000
vt 0.3486 0.4910 0.0000
vt 0.3486 0.5084 0.0000
# 24 texture coords

o lanternCandle_LOW
g lanternCandle_LOW
usemtl wire_087225198
s off
f 384/490/384 385/491/385 386/492/386 387/493/387 
f 385/494/385 388/495/388 389/496/389 386/497/386 
f 388/495/388 390/498/390 391/499/391 389/496/389 
f 390/498/390 392/500/392 393/501/393 391/499/391 
f 392/500/392 394/502/394 395/503/395 393/501/393 
f 394/502/394 396/504/396 397/505/397 395/503/395 
f 396/504/396 398/506/398 399/507/399 397/505/397 
f 398/506/398 384/490/384 387/493/387 399/507/399 
f 397/505/397 399/508/399 387/509/387 386/510/386 
f 395/503/395 397/505/397 386/510/386 389/511/389 
f 393/512/393 395/503/395 389/511/389 391/513/391 
# 11 polygons

