# 3ds Max Wavefront OBJ Exporter v0.97b - (c)2007 guruware
# File Created: 12.11.2018 15:44:58

mtllib windowPlane_LOW.mtl

#
# object windowPlaneWall_LOW
#

v  -54.0769 0.0000 4.9213
v  54.1730 0.0000 4.9213
v  29.2904 54.8427 4.9213
v  -31.2468 54.8427 4.9213
v  54.1730 177.1654 4.9213
v  29.2904 150.0162 4.9213
v  -54.0769 177.1654 4.9213
v  -31.2468 150.0162 4.9213
# 8 vertices

vn -0.0000 -0.0000 1.0000
vn 0.0000 -0.0000 1.0000
vn 0.0000 0.0000 1.0000
# 3 vertex normals

vt 0.5743 0.0618 0.0000
vt 0.8635 0.0618 0.0000
vt 0.7970 0.1849 0.0000
vt 0.6353 0.1849 0.0000
vt 0.8635 0.4596 0.0000
vt 0.7970 0.3986 0.0000
vt 0.5743 0.4596 0.0000
vt 0.6353 0.3986 0.0000
# 8 texture coords

o windowPlaneWall_LOW
g windowPlaneWall_LOW
usemtl wire_088177027
s off
f 1/1/1 2/2/2 3/3/2 4/4/1 
f 2/2/2 5/5/2 6/6/3 3/3/2 
f 5/5/2 7/7/2 8/8/2 6/6/3 
f 7/7/2 1/1/1 4/4/1 8/8/2 
# 4 polygons

#
# object windowPlaneFrame_LOW
#

v  38.9273 52.3927 2.7921
v  38.9273 52.3927 6.8100
v  -38.9273 52.3927 6.8100
v  -38.9273 52.3927 2.7921
v  34.1274 96.0248 3.6319
v  34.1274 110.5688 3.6319
v  34.1274 110.5688 5.9703
v  34.1274 96.0248 5.9703
v  -38.9273 154.2009 2.7922
v  -38.9273 154.2009 6.8100
v  38.9273 154.2009 6.8100
v  38.9273 154.2009 2.7922
v  -34.1274 110.5688 3.6319
v  -34.1274 96.0248 3.6319
v  -34.1274 96.0248 5.9703
v  -34.1274 110.5688 5.9703
v  25.9751 63.7569 6.4700
v  -25.9751 63.7569 6.4700
v  23.9411 108.9454 5.9634
v  23.9411 97.6483 5.9634
v  -25.9751 142.8367 6.4700
v  25.9751 142.8367 6.4700
v  -23.9411 97.6482 5.9634
v  -23.9411 108.9454 5.9634
v  25.9751 142.8367 -6.4700
v  -25.9751 142.8367 -6.4700
v  23.9411 108.9454 -5.9634
v  23.9411 97.6483 -5.9634
v  -25.9751 63.7569 -6.4700
v  25.9751 63.7569 -6.4700
v  -23.9411 97.6483 -5.9634
v  -23.9411 108.9454 -5.9634
v  36.5273 139.6569 3.2120
v  36.5273 139.6569 6.3902
v  34.9274 125.1129 3.4919
v  34.9274 125.1129 6.1103
v  36.5273 66.9367 6.3902
v  36.5273 66.9367 3.2120
v  34.9274 81.4808 6.1103
v  34.9274 81.4808 3.4919
v  -36.5273 66.9367 3.2120
v  -36.5273 66.9367 6.3902
v  -34.9274 81.4808 3.4919
v  -34.9274 81.4808 6.1103
v  -36.5273 139.6569 6.3902
v  -36.5273 139.6569 3.2120
v  -34.9274 125.1129 6.1103
v  -34.9274 125.1129 3.4919
v  24.9581 131.5396 6.2167
v  24.2801 120.2425 6.0478
v  24.9581 75.0540 6.2167
v  24.2801 86.3511 6.0478
v  -24.9581 75.0540 6.2167
v  -24.2801 86.3511 6.0478
v  -24.9581 131.5396 6.2167
v  -24.2801 120.2425 6.0478
v  24.9581 75.0540 -6.2167
v  24.2801 86.3511 -6.0478
v  24.9581 131.5396 -6.2167
v  24.2801 120.2425 -6.0478
v  -24.9581 131.5396 -6.2167
v  -24.2801 120.2425 -6.0478
v  -24.9581 75.0540 -6.2167
v  -24.2801 86.3511 -6.0478
# 64 vertices

vn 0.7656 -0.6433 -0.0000
vn 0.6336 -0.5168 0.5758
vn -0.6336 -0.5168 0.5758
vn -0.7656 -0.6433 -0.0000
vn 0.9995 0.0328 -0.0000
vn 0.9995 -0.0328 -0.0000
vn 0.7002 -0.0265 0.7134
vn 0.7002 0.0265 0.7134
vn -0.7656 0.6433 -0.0000
vn -0.6336 0.5168 0.5758
vn 0.6336 0.5168 0.5758
vn 0.7656 0.6433 -0.0000
vn -0.9995 -0.0328 -0.0000
vn -0.9995 0.0328 -0.0000
vn -0.7002 0.0265 0.7134
vn -0.7002 -0.0265 0.7134
vn -0.2940 0.2881 0.9113
vn 0.2940 0.2881 0.9113
vn -0.7118 0.0105 0.7023
vn -0.7118 -0.0105 0.7023
vn 0.2940 -0.2881 0.9113
vn -0.2940 -0.2881 0.9113
vn 0.7118 -0.0105 0.7023
vn 0.7118 0.0105 0.7023
vn -0.7388 -0.6739 -0.0000
vn 0.7388 -0.6739 -0.0000
vn -0.9998 0.0179 -0.0000
vn -0.9998 -0.0179 0.0000
vn 0.7388 0.6739 0.0000
vn -0.7388 0.6739 0.0000
vn 0.9998 -0.0179 -0.0000
vn 0.9998 0.0179 0.0000
vn 0.9868 -0.1618 -0.0000
vn 0.6913 -0.1308 0.7107
vn 0.9952 -0.0979 -0.0000
vn 0.6972 -0.0792 0.7125
vn 0.6913 0.1308 0.7107
vn 0.9868 0.1618 -0.0000
vn 0.6972 0.0792 0.7125
vn 0.9952 0.0979 0.0000
vn -0.9868 0.1618 -0.0000
vn -0.6913 0.1308 0.7107
vn -0.9952 0.0979 0.0000
vn -0.6972 0.0792 0.7125
vn -0.6913 -0.1308 0.7107
vn -0.9868 -0.1618 -0.0000
vn -0.6972 -0.0792 0.7125
vn -0.9952 -0.0979 -0.0000
vn -0.7103 0.0522 0.7019
vn -0.7113 0.0314 0.7021
vn -0.7103 -0.0522 0.7019
vn -0.7113 -0.0314 0.7021
vn 0.7103 -0.0522 0.7019
vn 0.7113 -0.0314 0.7021
vn 0.7103 0.0522 0.7019
vn 0.7113 0.0314 0.7021
vn -0.9960 -0.0891 -0.0000
vn -0.9986 -0.0536 -0.0000
vn -0.9960 0.0891 0.0000
vn -0.9986 0.0536 0.0000
vn 0.9960 0.0891 0.0000
vn 0.9986 0.0536 0.0000
vn 0.9960 -0.0891 -0.0000
vn 0.9986 -0.0536 -0.0000
# 64 vertex normals

vt 0.6424 0.7088 0.0000
vt 0.6424 0.7172 0.0000
vt 0.4350 0.7183 0.0000
vt 0.4349 0.7099 0.0000
vt 0.6354 0.8162 0.0000
vt 0.6354 0.8488 0.0000
vt 0.6305 0.8489 0.0000
vt 0.6305 0.8160 0.0000
vt 0.4348 0.9558 0.0000
vt 0.4349 0.9474 0.0000
vt 0.6424 0.9476 0.0000
vt 0.6424 0.9560 0.0000
vt 0.4424 0.8489 0.0000
vt 0.4424 0.8166 0.0000
vt 0.4473 0.8164 0.0000
vt 0.4472 0.8491 0.0000
vt 0.6081 0.7431 0.0000
vt 0.4694 0.7438 0.0000
vt 0.6030 0.8453 0.0000
vt 0.6032 0.8196 0.0000
vt 0.4693 0.9217 0.0000
vt 0.6081 0.9218 0.0000
vt 0.4746 0.8200 0.0000
vt 0.4744 0.8455 0.0000
vt 0.1370 0.3873 0.0000
vt 0.1098 0.3873 0.0000
vt 0.1097 0.2485 0.0000
vt 0.1370 0.2485 0.0000
vt 0.1360 0.4636 0.0000
vt 0.1360 0.4890 0.0000
vt 0.1109 0.4890 0.0000
vt 0.1109 0.4636 0.0000
vt 0.1372 0.7041 0.0000
vt 0.1100 0.7041 0.0000
vt 0.1099 0.5653 0.0000
vt 0.1372 0.5653 0.0000
vt 0.1359 0.1468 0.0000
vt 0.1359 0.1722 0.0000
vt 0.1108 0.1722 0.0000
vt 0.1108 0.1468 0.0000
vt 0.6431 0.9138 0.0000
vt 0.6505 0.9459 0.0000
vt 0.6366 0.9150 0.0000
vt 0.6380 0.8814 0.0000
vt 0.6326 0.8820 0.0000
vt 0.6367 0.7500 0.0000
vt 0.6507 0.7189 0.0000
vt 0.6433 0.7511 0.0000
vt 0.6326 0.7830 0.0000
vt 0.6381 0.7836 0.0000
vt 0.4345 0.7520 0.0000
vt 0.4269 0.7200 0.0000
vt 0.4410 0.7508 0.0000
vt 0.4397 0.7842 0.0000
vt 0.4452 0.7836 0.0000
vt 0.4409 0.9147 0.0000
vt 0.4266 0.9457 0.0000
vt 0.4343 0.9136 0.0000
vt 0.4450 0.8819 0.0000
vt 0.4396 0.8812 0.0000
vt 0.6057 0.8963 0.0000
vt 0.6040 0.8709 0.0000
vt 0.6058 0.7687 0.0000
vt 0.6041 0.7941 0.0000
vt 0.4719 0.7693 0.0000
vt 0.4736 0.7946 0.0000
vt 0.4717 0.8962 0.0000
vt 0.4734 0.8709 0.0000
vt 0.1366 0.5398 0.0000
vt 0.1104 0.5398 0.0000
vt 0.1362 0.5144 0.0000
vt 0.1108 0.5144 0.0000
vt 0.1103 0.4128 0.0000
vt 0.1365 0.4128 0.0000
vt 0.1107 0.4383 0.0000
vt 0.1362 0.4382 0.0000
vt 0.1364 0.2230 0.0000
vt 0.1103 0.2230 0.0000
vt 0.1361 0.1976 0.0000
vt 0.1106 0.1976 0.0000
vt 0.1102 0.0960 0.0000
vt 0.1097 0.0705 0.0000
vt 0.1369 0.0705 0.0000
vt 0.1364 0.0960 0.0000
vt 0.1106 0.1214 0.0000
vt 0.1360 0.1214 0.0000
# 86 texture coords

o windowPlaneFrame_LOW
g windowPlaneFrame_LOW
usemtl wire_088177027
s off
f 9/9/4 10/10/5 11/11/6 12/12/7 
f 13/13/8 14/14/9 15/15/10 16/16/11 
f 17/17/12 18/18/13 19/19/14 20/20/15 
f 21/21/16 22/22/17 23/23/18 24/24/19 
f 10/10/5 25/25/20 26/26/21 11/11/6 
f 16/16/11 15/15/10 27/27/22 28/28/23 
f 18/18/13 29/29/24 30/30/25 19/19/14 
f 24/24/19 23/23/18 31/31/26 32/32/27 
f 33/33/28 30/34/25 29/35/24 34/36/29 
f 35/37/30 36/38/31 28/39/23 27/40/22 
f 37/41/32 26/42/21 25/43/20 38/44/33 
f 39/45/34 40/46/35 32/47/27 31/48/26 
f 41/49/36 20/50/15 19/19/14 42/51/37 
f 43/52/38 41/49/36 42/51/37 44/53/39 
f 14/14/9 43/52/38 44/53/39 15/15/10 
f 45/54/40 10/10/5 9/55/4 46/56/41 
f 47/57/42 45/54/40 46/56/41 48/58/43 
f 16/16/11 47/57/42 48/58/43 13/13/8 
f 49/59/44 12/60/7 11/11/6 50/61/45 
f 51/62/46 49/59/44 50/61/45 52/63/47 
f 22/22/17 51/62/46 52/63/47 23/23/18 
f 53/64/48 18/18/13 17/65/12 54/66/49 
f 55/67/50 53/64/48 54/66/49 56/68/51 
f 24/24/19 55/67/50 56/68/51 21/21/16 
f 42/51/37 19/19/14 30/30/25 57/69/52 
f 44/53/39 42/51/37 57/69/52 58/70/53 
f 15/15/10 44/53/39 58/70/53 27/27/22 
f 59/71/54 25/25/20 10/10/5 45/54/40 
f 60/72/55 59/71/54 45/54/40 47/57/42 
f 28/28/23 60/72/55 47/57/42 16/16/11 
f 50/61/45 11/11/6 26/26/21 61/73/56 
f 52/63/47 50/61/45 61/73/56 62/74/57 
f 23/23/18 52/63/47 62/74/57 31/31/26 
f 63/75/58 29/29/24 18/18/13 53/64/48 
f 64/76/59 63/75/58 53/64/48 55/67/50 
f 32/32/27 64/76/59 55/67/50 24/24/19 
f 65/77/60 38/44/33 25/43/20 59/78/54 
f 66/79/61 65/77/60 59/78/54 60/80/55 
f 36/38/31 66/79/61 60/80/55 28/39/23 
f 57/81/52 30/34/25 33/33/28 67/82/62 
f 58/83/53 57/81/52 67/82/62 68/84/63 
f 27/40/22 58/83/53 68/84/63 35/37/30 
f 69/85/64 34/36/29 29/35/24 63/86/58 
f 70/87/65 69/85/64 63/86/58 64/88/59 
f 40/46/35 70/87/65 64/88/59 32/47/27 
f 61/89/56 26/90/21 37/91/32 71/92/66 
f 62/93/57 61/89/56 71/92/66 72/94/67 
f 31/48/26 62/93/57 72/94/67 39/45/34 
# 48 polygons

#
# object windowPlanePane_LOW
#

v  26.8596 109.5128 0.0000
v  -26.8596 109.5128 0.0000
v  -26.8596 97.0808 0.0000
v  26.8596 97.0808 0.0000
v  28.2409 72.2167 -0.0000
v  -28.2409 72.2167 -0.0000
v  -29.6221 59.7846 -0.0000
v  29.6221 59.7846 -0.0000
v  27.3201 84.6487 0.0000
v  -27.3201 84.6487 0.0000
v  -28.2409 134.3769 0.0000
v  28.2409 134.3769 0.0000
v  29.6221 146.8090 0.0000
v  -29.6221 146.8090 0.0000
v  -27.3201 121.9449 0.0000
v  27.3201 121.9449 0.0000
# 16 vertices

vn 0.0000 -0.0000 1.0000
# 1 vertex normals

vt 0.8031 0.5580 0.0000
vt 0.9466 0.5580 0.0000
vt 0.9466 0.5860 0.0000
vt 0.8031 0.5860 0.0000
vt 0.7994 0.6418 0.0000
vt 0.9503 0.6418 0.0000
vt 0.9540 0.6697 0.0000
vt 0.7957 0.6697 0.0000
vt 0.8019 0.6139 0.0000
vt 0.9479 0.6139 0.0000
vt 0.9503 0.5022 0.0000
vt 0.7994 0.5022 0.0000
vt 0.7957 0.4743 0.0000
vt 0.9540 0.4743 0.0000
vt 0.9479 0.5301 0.0000
vt 0.8019 0.5301 0.0000
# 16 texture coords

o windowPlanePane_LOW
g windowPlanePane_LOW
usemtl wire_088177027
s off
f 73/95/68 74/96/68 75/97/68 76/98/68 
f 77/99/68 78/100/68 79/101/68 80/102/68 
f 81/103/68 82/104/68 78/100/68 77/99/68 
f 76/98/68 75/97/68 82/104/68 81/103/68 
f 83/105/68 84/106/68 85/107/68 86/108/68 
f 87/109/68 88/110/68 84/106/68 83/105/68 
f 74/96/68 73/95/68 88/110/68 87/109/68 
# 7 polygons

#
# object windowPlaneBars_LOW
#

v  24.5765 100.8896 1.6383
v  24.5765 105.7041 1.6383
v  -24.5765 105.7041 1.6383
v  -24.5765 100.8896 1.6383
v  24.5765 100.8896 -1.6383
v  -24.5765 100.8896 -1.6383
v  -24.5765 105.7041 -1.6383
v  24.5765 105.7041 -1.6383
v  2.0192 144.0387 0.9752
v  -2.0192 144.0387 0.9752
v  -2.0192 62.5550 0.9752
v  2.0192 62.5550 0.9752
v  2.0192 144.0387 -0.9752
v  2.0192 62.5550 -0.9752
v  -2.0192 62.5550 -0.9752
v  -2.0192 144.0387 -0.9752
# 16 vertices

vn 0.0000 -0.7071 0.7071
vn 0.0000 0.7071 0.7071
vn 0.0000 -1.0000 -0.0000
vn 0.0000 1.0000 0.0000
vn 0.7071 0.0000 0.7071
vn -0.7071 -0.0000 0.7071
vn 1.0000 0.0000 0.0000
vn 1.0000 0.0000 -0.0000
vn -1.0000 -0.0000 0.0000
vn -1.0000 -0.0000 -0.0000
# 10 vertex normals

vt 0.6794 0.1958 0.0000
vt 0.6902 0.1958 0.0000
vt 0.6902 0.3272 0.0000
vt 0.6794 0.3272 0.0000
vt 0.6725 0.1958 0.0000
vt 0.6725 0.3272 0.0000
vt 0.6971 0.3272 0.0000
vt 0.6971 0.1958 0.0000
vt 0.9061 0.8700 0.0000
vt 0.8954 0.8700 0.0000
vt 0.8954 0.6871 0.0000
vt 0.9061 0.6871 0.0000
vt 0.9102 0.8700 0.0000
vt 0.9102 0.6871 0.0000
vt 0.8912 0.6871 0.0000
vt 0.8912 0.8700 0.0000
# 16 texture coords

o windowPlaneBars_LOW
g windowPlaneBars_LOW
usemtl wire_088177027
s off
f 89/111/69 90/112/70 91/113/70 92/114/69 
f 93/115/71 89/111/69 92/114/69 94/116/71 
f 95/117/72 91/113/70 90/112/70 96/118/72 
f 97/119/73 98/120/74 99/121/74 100/122/73 
f 101/123/75 97/119/73 100/122/73 102/124/76 
f 103/125/77 99/121/74 98/120/74 104/126/78 
# 6 polygons

