# 3ds Max Wavefront OBJ Exporter v0.97b - (c)2007 guruware
# File Created: 01.11.2018 20:17:29

mtllib BentGravestone.mtl

#
# object bentGravestone
#

v  -3.6393 0.1839 -0.8052
v  -4.0397 1.7482 -1.2010
v  -3.5234 1.7486 -1.2013
v  -3.1708 0.1839 -0.8052
v  -3.6393 0.1839 1.3270
v  -3.1708 0.1839 1.3270
v  -3.5209 1.7499 0.9283
v  -4.0373 1.7492 0.9295
v  -3.1254 0.1839 -0.6938
v  -3.4734 1.7488 -1.0901
v  -3.4728 1.7492 -0.4937
v  -3.1254 0.1839 -0.0967
v  -4.0790 1.7482 -1.1134
v  -3.6750 0.1839 -0.7176
v  -3.6750 0.1839 1.2394
v  -4.0767 1.7491 0.8421
v  -4.7165 3.5449 -1.5731
v  -4.1524 3.5464 -1.5780
v  -4.1433 3.5527 0.5397
v  -4.7076 3.5514 0.5459
v  -3.4711 1.7499 0.8169
v  -3.4719 1.7497 0.2207
v  -4.0918 3.5513 -0.1651
v  -4.0892 3.5526 0.4283
v  -4.7509 3.5511 0.4592
v  -4.7591 3.5451 -1.4858
v  -5.4579 6.0155 -1.8782
v  -4.8163 6.0159 -1.8921
v  -4.7929 6.0310 0.2076
v  -5.4350 6.0315 0.2236
v  -4.7379 6.0271 -0.4931
v  -4.7319 6.0303 0.0960
v  -5.4848 6.0310 0.1382
v  -5.5057 6.0162 -1.7909
v  -6.1991 8.3695 -1.9537
v  -5.3919 8.3672 -1.9825
v  -5.3499 8.3908 0.1017
v  -6.1587 8.3950 0.1337
v  -5.2839 8.3840 -0.5961
v  -5.2735 8.3891 -0.0107
v  -6.2217 8.3943 0.0501
v  -6.2588 8.3707 -1.8659
v  -7.0645 10.5227 -2.0962
v  -6.0943 10.5215 -2.1443
v  -6.0352 10.5552 -0.0691
v  -7.0085 10.5591 -0.0167
v  -5.9592 10.5455 -0.7653
v  -5.9439 10.5529 -0.1829
v  -7.0846 10.5578 -0.0985
v  -7.1364 10.5242 -2.0070
v  -7.1240 10.6147 -2.0920
v  -6.5406 13.7328 -2.0880
v  -6.4524 13.7948 -2.0909
v  -5.4266 13.4082 -0.0562
v  -6.3745 13.8340 -0.0165
v  -5.3669 13.3592 -0.7472
v  -5.3448 13.3674 -0.1677
v  -8.5942 11.2180 -1.9752
v  -8.5436 11.2579 -0.0394
v  -8.0628 14.0088 -0.0149
v  -8.1263 13.9686 -1.8905
v  -5.5069 13.3734 -2.1261
v  -5.1700 15.8487 -1.9254
v  -4.4028 15.2515 -2.0840
v  -4.4365 14.7110 -0.0403
v  -5.2033 15.3088 0.1195
v  -4.3508 14.8322 -0.7343
v  -4.3607 14.6806 -0.1619
v  -6.5177 13.8261 -2.0028
v  -6.4461 13.8627 -0.0986
v  -5.2617 15.3768 0.0484
v  -5.2309 15.8720 -1.8290
v  -3.6851 17.4450 -1.7752
v  -2.9243 16.8265 -1.9362
v  -2.9703 16.2843 0.1084
v  -3.7309 16.9035 0.2705
v  -2.8815 16.4035 -0.5862
v  -2.8945 16.2516 -0.0138
v  -3.7882 16.9730 0.1991
v  -3.7458 17.4700 -1.6788
v  -1.7156 19.1788 -1.3779
v  -0.9620 18.5500 -1.5846
v  -1.0686 17.8302 0.4161
v  -1.8203 18.4590 0.6228
v  -0.9604 18.0074 -0.2689
v  -0.9907 17.8060 0.2918
v  -1.8751 18.5366 0.5568
v  -1.7780 19.1974 -1.2799
v  0.0165 20.3579 -0.7927
v  0.7593 19.7134 -0.9964
v  0.6402 18.9946 1.0058
v  -0.1012 19.6390 1.2095
v  0.7501 19.1704 0.3217
v  0.7163 18.9691 0.8826
v  -0.1556 19.7181 1.1440
v  -0.0460 20.3778 -0.6946
v  2.6628 22.0982 0.2356
v  2.4492 20.8529 -0.2394
v  2.3230 20.1343 1.7638
v  2.5365 21.3796 2.2389
v  2.3488 20.2690 1.0580
v  2.3134 20.0678 1.6190
v  2.5549 21.4906 2.1875
v  2.6709 22.1500 0.3487
v  -8.4975 11.1518 -0.0536
v  -8.5478 11.1144 -1.9672
v  -7.0676 10.6515 -0.0125
v  -6.4633 13.7724 -0.0134
v  -7.9646 14.0163 0.0827
v  -8.4804 11.2460 0.0341
v  -8.0137 14.0665 -1.9119
v  -7.9483 14.1071 -0.0011
v  -8.5355 11.2050 -2.0509
v  -8.0354 13.9724 -1.9990
v  -3.1254 0.1839 1.2156
v  -4.0974 3.5470 -1.4680
v  -4.7530 6.0168 -1.7841
v  -5.3114 8.3682 -1.8768
v  -5.9978 10.5230 -2.0403
v  -5.4175 13.3362 -2.0206
v  -4.3301 15.1645 -1.9924
v  -2.8529 16.7372 -1.8450
v  -0.8942 18.4506 -1.5003
v  0.8250 19.6127 -0.9115
v  2.4265 20.7112 -0.1751
v  -3.1254 0.1839 0.6186
v  -4.0949 3.5492 -0.8755
v  -4.7459 6.0220 -1.1973
v  -5.2981 8.3762 -1.2952
v  -5.9802 10.5343 -1.4604
v  -5.3943 13.3469 -1.4413
v  -4.3396 15.0131 -1.4200
v  -2.8652 16.5853 -1.2729
v  -0.9226 18.2489 -0.9414
v  0.7912 19.4114 -0.3507
v  2.3912 20.5100 0.3859
v  2.6814 0.1839 -0.8052
v  2.2129 0.1839 -0.8052
v  2.2643 1.7461 -1.2056
v  2.7810 1.7457 -1.2051
v  2.6814 0.1839 1.3270
v  2.7806 1.7448 0.9213
v  2.2644 1.7454 0.9205
v  2.2129 0.1839 1.3270
v  2.1675 0.1839 -0.6938
v  2.1675 0.1839 -0.0967
v  2.2139 1.7459 -0.4994
v  2.2142 1.7461 -1.0946
v  2.8202 1.7456 -1.1177
v  2.8198 1.7447 0.8340
v  2.7171 0.1839 1.2394
v  2.7171 0.1839 -0.7176
v  2.5120 3.5105 -1.6023
v  3.0752 3.5068 -1.6000
v  3.0805 3.5028 0.5131
v  2.5180 3.5073 0.5103
v  2.2143 1.7455 0.8093
v  2.4632 3.5079 0.3995
v  2.4612 3.5086 -0.1928
v  2.2140 1.7456 0.2139
v  3.1182 3.5063 -1.5131
v  3.1231 3.5026 0.4264
v  3.1597 5.8585 -1.9496
v  3.7917 5.8462 -1.9424
v  3.8107 5.8338 0.1522
v  3.1798 5.8479 0.1440
v  3.1178 5.8498 0.0335
v  3.1124 5.8521 -0.5542
v  3.8406 5.8446 -1.8560
v  3.8580 5.8332 0.0665
v  4.4915 7.9905 -2.0624
v  5.2644 7.9695 -2.0433
v  5.2997 7.9437 0.0386
v  4.5290 7.9670 0.0174
v  4.4528 7.9704 -0.0938
v  4.4434 7.9756 -0.6783
v  5.3247 7.9668 -1.9565
v  5.3571 7.9429 -0.0457
v  5.8626 9.8794 -2.2389
v  6.7514 9.8571 -2.2029
v  6.8002 9.8155 -0.1266
v  5.9150 9.8400 -0.1657
v  5.8269 9.8444 -0.2782
v  5.8130 9.8533 -0.8601
v  6.8208 9.8537 -2.1146
v  6.8658 9.8154 -0.2092
v  6.1566 12.4036 -2.2196
v  7.0894 12.4703 -2.2002
v  6.8747 9.8946 -0.1236
v  7.2129 12.3615 -0.1223
v  7.1590 12.4189 -0.1239
v  6.1403 12.3293 -0.2576
v  6.1201 12.3414 -0.8378
v  8.2831 9.8502 -2.1025
v  8.5385 12.2206 -2.0260
v  8.5942 12.1718 -0.1503
v  8.3278 9.8073 -0.1709
v  5.9249 14.1450 -2.1576
v  6.7698 14.5867 -2.0113
v  6.7285 14.0286 0.0347
v  5.8842 13.5871 -0.1128
v  6.2292 12.3551 -0.1474
v  5.8030 13.5733 -0.2334
v  5.8146 13.7295 -0.8061
v  7.1587 12.4912 -2.1132
v  6.8326 14.5984 -1.9158
v  6.7944 14.0857 -0.0375
v  7.2225 12.4435 -0.2072
v  5.4155 15.7383 -1.9823
v  6.2630 16.1655 -1.8317
v  6.2112 15.6098 0.2154
v  5.3644 15.1828 0.0635
v  5.2835 15.1707 -0.0578
v  5.2978 15.3262 -0.6306
v  6.3258 16.1758 -1.7360
v  6.2780 15.6661 0.1431
v  4.6860 17.6753 -1.6019
v  5.5342 18.0711 -1.4018
v  5.4270 17.3505 0.5993
v  4.5777 16.9548 0.3991
v  4.4993 16.9543 0.2754
v  4.5301 17.1561 -0.2854
v  5.5950 18.0721 -1.3042
v  5.4959 17.4111 0.5327
v  3.8732 19.1857 -0.9998
v  4.7261 19.5686 -0.7992
v  4.6076 18.8492 1.2032
v  3.7537 18.4665 1.0025
v  3.6739 18.4675 0.8794
v  3.7079 18.6687 0.3185
v  4.7863 19.5688 -0.7013
v  4.6761 18.9090 1.1373
v  2.8773 20.7652 -0.2479
v  3.1059 22.0094 0.2282
v  2.9798 21.2916 2.2318
v  2.7513 20.0474 1.7558
v  2.7366 19.9814 1.6106
v  2.7719 20.1824 1.0496
v  3.1162 22.0610 0.3413
v  3.0004 21.4021 2.1803
v  8.2212 9.7585 -2.0934
v  8.2640 9.7152 -0.1841
v  8.2719 9.7935 -0.0969
v  8.5210 12.1739 -0.0512
v  8.5287 12.2555 -0.1349
v  8.4713 12.3050 -2.0460
v  7.1439 12.4130 -2.1987
v  8.4588 12.2274 -2.1332
v  8.2249 9.8408 -2.1774
v  6.8256 9.9368 -2.1999
v  2.1675 0.1839 1.2156
v  2.4577 3.5107 -1.4923
v  3.0997 5.8591 -1.8412
v  4.4189 7.9913 -1.9560
v  5.7789 9.8795 -2.1338
v  6.0745 12.3730 -2.1126
v  5.8396 14.0732 -2.0648
v  5.3295 15.6680 -1.8901
v  4.5973 17.5992 -1.5170
v  3.7830 19.1110 -0.9147
v  2.8495 20.6243 -0.1837
v  2.1675 0.1839 0.6186
v  2.4591 3.5096 -0.9015
v  3.1056 5.8556 -1.2565
v  4.4306 7.9835 -1.3758
v  5.7942 9.8666 -1.5545
v  6.0954 12.3584 -1.5327
v  5.8283 13.9170 -1.4922
v  5.3158 15.5124 -1.3176
v  4.5684 17.3971 -0.9579
v  3.7490 18.9098 -0.3538
v  2.8142 20.4232 0.3773
v  -3.3472 0.1839 0.2609
v  2.3893 0.1839 0.2609
# 274 vertices

vn -0.3683 -0.7241 -0.5832
vn -0.4844 -0.3372 -0.8072
vn 0.5555 -0.0272 -0.8311
vn 0.5124 -0.6162 -0.5981
vn -0.3811 -0.5582 0.7371
vn 0.4995 -0.4774 0.7229
vn 0.5216 0.3329 0.7855
vn -0.5345 0.0354 0.8444
vn 0.7906 -0.5989 -0.1276
vn 0.9528 0.2195 -0.2096
vn 0.6941 0.0254 -0.7194
vn 0.2437 -0.9139 -0.3247
vn -0.9191 -0.3404 -0.1984
vn -0.6322 -0.7673 -0.1079
vn -0.6614 -0.7340 0.1544
vn -0.9457 -0.2520 0.2052
vn -0.4981 -0.2975 -0.8145
vn 0.5069 0.0055 -0.8620
vn 0.4978 0.2975 0.8147
vn -0.5315 -0.0385 0.8462
vn 0.9331 0.3043 0.1918
vn 0.6428 0.3446 0.6841
vn 0.6659 0.3103 0.6785
vn 0.9263 0.3159 0.2052
vn -0.9355 -0.2758 0.2209
vn -0.9151 -0.3438 -0.2108
vn -0.4900 -0.2118 -0.8456
vn 0.4752 0.0461 -0.8787
vn 0.5071 0.2043 0.8373
vn -0.4855 -0.0751 0.8710
vn 0.6813 0.2233 0.6972
vn 0.9409 0.2511 0.2273
vn -0.9306 -0.2633 0.2543
vn -0.9227 -0.3051 -0.2358
vn -0.4584 -0.2062 -0.8645
vn 0.4329 0.0760 -0.8982
vn 0.4777 0.1848 0.8589
vn -0.4091 -0.0899 0.9080
vn 0.6825 0.2310 0.6934
vn 0.9248 0.2639 0.2741
vn -0.8971 -0.3027 0.3220
vn -0.9014 -0.3430 -0.2644
vn -0.4073 -0.2086 -0.8892
vn 0.3114 -0.0183 -0.9501
vn 0.4042 0.0531 0.9131
vn -0.3386 -0.1562 0.9279
vn 0.7579 0.0545 0.6501
vn 0.9432 0.0580 0.3271
vn -0.6662 -0.6122 0.4259
vn -0.6809 -0.6291 -0.3749
vn -0.2330 -0.2549 -0.9385
vn -0.0932 0.2930 -0.9516
vn -0.2909 0.2865 -0.9129
vn 0.3575 -0.1727 0.9178
vn -0.2671 0.2455 0.9319
vn 0.6971 -0.3004 0.6510
vn 0.8558 -0.3910 0.3388
vn -0.9487 -0.1109 -0.2962
vn -0.9320 -0.1147 0.3438
vn -0.8339 0.4377 0.3361
vn -0.8549 0.4400 -0.2749
vn 0.3293 -0.1143 -0.9373
vn -0.4125 0.3915 -0.8225
vn 0.2132 -0.1096 -0.9709
vn 0.3984 -0.3755 0.8368
vn -0.2455 0.1196 0.9620
vn 0.5893 -0.5018 0.6331
vn 0.7468 -0.6346 0.1992
vn -0.3983 0.7945 -0.4584
vn -0.3547 0.8240 0.4418
vn -0.6861 0.5346 0.4934
vn -0.7659 0.6093 -0.2055
vn -0.3305 0.4706 -0.8181
vn 0.2353 -0.0998 -0.9668
vn 0.3226 -0.4606 0.8269
vn -0.2545 0.1244 0.9590
vn 0.5075 -0.6120 0.6066
vn 0.6585 -0.7308 0.1799
vn -0.6351 0.5940 0.4938
vn -0.6697 0.7168 -0.1940
vn -0.2553 0.5953 -0.7619
vn 0.2603 0.0000 -0.9655
vn 0.2528 -0.6005 0.7586
vn -0.2719 0.0293 0.9619
vn 0.4286 -0.7098 0.5590
vn 0.5788 -0.8103 0.0922
vn -0.5913 0.5960 0.5433
vn -0.5896 0.7979 -0.1258
vn -0.1730 0.6556 -0.7350
vn 0.3414 0.0434 -0.9389
vn 0.1673 -0.6717 0.7217
vn -0.3228 -0.0332 0.9459
vn 0.3669 -0.7957 0.4820
vn 0.5389 -0.8379 0.0864
vn -0.5924 0.5841 0.5549
vn -0.5276 0.8437 -0.0991
vn -0.0776 0.7431 -0.6647
vn 0.1774 0.0422 -0.9832
vn -0.0757 -0.5934 0.8014
vn -0.2257 0.1374 0.9645
vn 0.1400 -0.9532 0.2680
vn 0.2060 -0.9734 0.0999
vn -0.2148 0.7490 0.6267
vn -0.1638 0.9864 -0.0142
vn -0.6218 -0.6959 0.3593
vn -0.6393 -0.7004 -0.3174
vn -0.1489 -0.2658 0.9524
vn 0.0013 0.2861 0.9582
vn -0.2762 0.3773 0.8839
vn -0.4379 -0.2226 0.8710
vn -0.2588 0.8989 -0.3536
vn -0.2203 0.9048 0.3643
vn -0.4793 -0.2008 -0.8544
vn -0.3606 0.4008 -0.8422
vn 0.8059 -0.5649 0.1772
vn 0.9401 0.2476 -0.2341
vn 0.9385 0.2122 -0.2722
vn 0.9172 0.2354 -0.3214
vn 0.9116 0.0362 -0.4094
vn 0.8605 -0.3266 -0.3910
vn 0.7015 -0.5056 -0.5023
vn 0.6306 -0.5806 -0.5150
vn 0.5902 -0.5706 -0.5710
vn 0.6103 -0.5687 -0.5515
vn 0.3016 -0.7063 -0.6405
vn 0.3848 -0.8433 0.3752
vn 0.7046 0.1026 -0.7021
vn 0.6969 0.1185 -0.7073
vn 0.6629 0.1354 -0.7364
vn 0.7510 0.0185 -0.6601
vn 0.6777 -0.2722 -0.6831
vn 0.5499 -0.3877 -0.7398
vn 0.4887 -0.4112 -0.7695
vn 0.4660 -0.3768 -0.8005
vn 0.4951 -0.2633 -0.8280
vn 0.2365 -0.4416 -0.8655
vn 0.4255 -0.6891 -0.5866
vn -0.4551 -0.6672 -0.5897
vn -0.5540 -0.1444 -0.8199
vn 0.5127 -0.2575 -0.8190
vn 0.4290 -0.5283 0.7327
vn 0.5342 0.1471 0.8325
vn -0.5455 0.2431 0.8021
vn -0.4533 -0.5117 0.7298
vn -0.7320 -0.6706 -0.1199
vn -0.2412 -0.9282 -0.2834
vn -0.7027 -0.1166 -0.7019
vn -0.9769 0.0306 -0.2114
vn 0.9640 -0.1650 -0.2086
vn 0.9757 -0.0652 0.2093
vn 0.7249 -0.6685 0.1661
vn 0.6998 -0.7049 -0.1160
vn -0.5389 -0.0402 -0.8414
vn 0.4813 -0.2661 -0.8352
vn 0.5189 0.0449 0.8537
vn -0.5254 0.2701 0.8069
vn -0.9702 0.1313 0.2038
vn -0.9475 0.2373 0.2145
vn -0.6514 0.2738 0.7076
vn -0.6802 0.2331 0.6950
vn 0.9361 -0.2683 -0.2275
vn 0.9565 -0.1928 0.2190
vn -0.5088 0.1492 -0.8478
vn 0.4205 -0.2769 -0.8640
vn 0.4537 -0.1207 0.8829
vn -0.4972 0.3230 0.8052
vn -0.8839 0.4089 0.2270
vn -0.5825 0.3339 0.7410
vn 0.8553 -0.4549 -0.2481
vn 0.8773 -0.4254 0.2223
vn -0.4254 0.2312 -0.8750
vn 0.3980 -0.3504 -0.8478
vn 0.4014 -0.2314 0.8862
vn -0.4130 0.3498 0.8409
vn -0.7892 0.5532 0.2668
vn -0.5581 0.4380 0.7048
vn 0.7633 -0.5902 -0.2627
vn 0.7799 -0.5760 0.2449
vn -0.3418 0.0739 -0.9369
vn 0.3731 -0.3263 -0.8685
vn 0.3558 -0.2882 0.8890
vn -0.3847 0.1895 0.9034
vn -0.8654 0.3772 0.3298
vn -0.6812 0.2848 0.6744
vn 0.4123 -0.8197 -0.3977
vn 0.4166 -0.8384 0.3514
vn -0.4023 0.0105 -0.9154
vn 0.3223 0.1821 -0.9290
vn 0.0598 -0.2969 0.9530
vn 0.0997 0.3023 0.9480
vn 0.3269 0.1444 0.9340
vn -0.9291 -0.0604 0.3650
vn -0.7256 -0.0452 0.6867
vn 0.8977 -0.3123 -0.3108
vn 0.9280 0.2451 -0.2806
vn 0.9355 0.2312 0.2672
vn 0.9056 -0.3300 0.2664
vn -0.2895 -0.0049 -0.9572
vn 0.5082 0.2040 -0.8367
vn 0.3292 -0.0047 0.9442
vn -0.4944 -0.2046 0.8448
vn -0.3910 -0.0518 0.9189
vn -0.9266 -0.2902 0.2392
vn -0.7073 -0.2323 0.6677
vn 0.6323 0.6215 -0.4625
vn 0.9356 0.2522 -0.2472
vn 0.8773 0.2105 0.4312
vn 0.6186 0.6580 0.4295
vn -0.3187 0.0319 -0.9473
vn 0.4593 0.3044 -0.8345
vn 0.3445 -0.0247 0.9384
vn -0.4568 -0.2980 0.8382
vn -0.9003 -0.3742 0.2223
vn -0.6902 -0.3438 0.6367
vn 0.9025 0.3599 -0.2368
vn 0.8617 0.2579 0.4370
vn -0.2993 0.1383 -0.9441
vn 0.4488 0.4461 -0.7743
vn 0.3328 -0.1231 0.9349
vn -0.4500 -0.4446 0.7745
vn -0.8746 -0.4667 0.1315
vn -0.6727 -0.4628 0.5773
vn 0.8760 0.4541 -0.1628
vn 0.8332 0.2614 0.4873
vn -0.3408 0.2022 -0.9181
vn 0.4065 0.5450 -0.7333
vn 0.3489 -0.1677 0.9220
vn -0.3861 -0.5511 0.7397
vn -0.8348 -0.5377 0.1185
vn -0.6545 -0.5807 0.4842
vn 0.8301 0.5462 -0.1123
vn 0.8115 0.2841 0.5106
vn -0.1897 0.1103 -0.9756
vn 0.3489 0.6607 -0.6646
vn 0.2978 0.0389 0.9538
vn -0.1258 -0.5836 0.8022
vn -0.5761 -0.8112 0.1002
vn -0.4967 -0.8223 0.2778
vn 0.5301 0.8477 -0.0191
vn 0.5009 0.6086 0.6154
vn 0.3814 -0.8622 -0.3334
vn 0.3771 -0.8800 0.2887
vn 0.3735 -0.4056 0.8342
vn 0.4134 0.2808 0.8662
vn 0.4588 0.8150 0.3540
vn 0.4743 0.8193 -0.3221
vn 0.1748 0.2900 -0.9409
vn 0.4537 0.3071 -0.8366
vn 0.3804 -0.3674 -0.8487
vn 0.1230 -0.2881 -0.9497
vn -0.7544 -0.6339 0.1708
vn -0.9616 0.1519 -0.2284
vn -0.9029 0.3593 -0.2361
vn -0.8151 0.5243 -0.2465
vn -0.8809 0.3476 -0.3214
vn -0.9499 0.0036 -0.3124
vn -0.8819 -0.1713 -0.4392
vn -0.8598 -0.2331 -0.4543
vn -0.8263 -0.2274 -0.5153
vn -0.8217 -0.2472 -0.5136
vn -0.5870 -0.5236 -0.6175
vn -0.3734 -0.8718 0.3171
vn -0.7025 0.0080 -0.7116
vn -0.6472 0.2093 -0.7330
vn -0.6027 0.3449 -0.7195
vn -0.7259 0.2717 -0.6319
vn -0.7524 -0.0069 -0.6587
vn -0.6887 -0.1203 -0.7150
vn -0.6550 -0.1299 -0.7444
vn -0.6329 -0.0941 -0.7685
vn -0.6020 -0.0096 -0.7984
vn -0.4204 -0.3055 -0.8544
vn 0.0000 -1.0000 -0.0000
vn -0.0000 -1.0000 -0.0000
# 274 vertex normals

vt 0.9351 0.0000 0.0000
vt 0.9351 1.0000 0.0000
vt 0.0825 1.0000 0.0000
vt 0.0825 0.0000 0.0000
vt 0.1683 -1.3904 0.0000
vt 0.1330 -1.3846 0.0000
vt 0.1119 -1.3207 0.0000
vt 0.1510 -1.3272 0.0000
vt 0.0000 0.0522 0.0000
vt 1.0000 0.0522 0.0000
vt 1.0000 0.3323 0.0000
vt 0.0000 0.3323 0.0000
vt 2.2249 1.5257 0.0000
vt 2.2673 1.5885 0.0000
vt 2.2074 1.6545 0.0000
vt 2.1651 1.5916 0.0000
vt 0.1125 -1.2494 0.0000
vt 0.1558 -1.2564 0.0000
vt 0.0949 -1.3210 0.0000
vt 0.0239 -1.3257 0.0000
vt 0.0247 -1.2543 0.0000
vt 0.0952 -1.2496 0.0000
vt 2.1119 1.5199 0.0000
vt 2.1715 1.4544 0.0000
vt 0.1219 -1.1471 0.0000
vt 0.1723 -1.1550 0.0000
vt 0.0344 -1.1521 0.0000
vt 0.1041 -1.1473 0.0000
vt 2.0345 1.4300 0.0000
vt 2.0938 1.3651 0.0000
vt 0.1513 -1.0473 0.0000
vt 0.2161 -1.0570 0.0000
vt 0.0632 -1.0523 0.0000
vt 0.1322 -1.0473 0.0000
vt 1.9537 1.3513 0.0000
vt 2.0127 1.2870 0.0000
vt 0.1826 -0.9586 0.0000
vt 0.2622 -0.9701 0.0000
vt 0.0940 -0.9635 0.0000
vt 0.1622 -0.9584 0.0000
vt 1.8798 1.2749 0.0000
vt 1.9387 1.2110 0.0000
vt 1.0000 1.0000 0.0000
vt 0.9383 1.0000 0.0000
vt 0.1383 -0.8209 0.0000
vt 0.2145 -0.8130 0.0000
vt 0.0515 -0.8278 0.0000
vt 0.1189 -0.8226 0.0000
vt 2.4110 0.6648 0.0000
vt 2.9614 0.6648 0.0000
vt 2.9614 1.5160 0.0000
vt 2.4110 1.5160 0.0000
vt 0.0784 1.0000 0.0000
vt 0.9345 1.0000 0.0000
vt 0.0832 1.0000 0.0000
vt 0.0656 -0.7491 0.0000
vt 0.1424 -0.7301 0.0000
vt -0.0236 -0.7479 0.0000
vt 0.0454 -0.7505 0.0000
vt 1.7323 1.0254 0.0000
vt 1.6728 1.0885 0.0000
vt 1.6024 1.0363 0.0000
vt 1.6446 0.9586 0.0000
vt -0.0272 -0.6579 0.0000
vt 0.0494 -0.6379 0.0000
vt -0.1167 -0.6569 0.0000
vt -0.0475 -0.6595 0.0000
vt 1.5222 0.9780 0.0000
vt 1.5641 0.9000 0.0000
vt -0.1339 -0.5614 0.0000
vt -0.0526 -0.5405 0.0000
vt -0.2237 -0.5574 0.0000
vt -0.1546 -0.5625 0.0000
vt 1.4242 0.9204 0.0000
vt 1.4601 0.8390 0.0000
vt -0.1925 -0.4824 0.0000
vt -0.1123 -0.4607 0.0000
vt -0.2822 -0.4785 0.0000
vt -0.2129 -0.4836 0.0000
vt 1.3328 0.8834 0.0000
vt 1.3683 0.8017 0.0000
vt 0.9428 1.0000 0.0000
vt 0.0733 1.0000 0.0000
vt -0.2290 -0.4036 0.0000
vt -0.1885 -0.3404 0.0000
vt -0.3150 -0.4027 0.0000
vt -0.2456 -0.4079 0.0000
vt 1.1869 0.8313 0.0000
vt 1.2222 0.7495 0.0000
vt 2.4110 0.1835 0.0000
vt 3.0044 0.2198 0.0000
vt 3.0044 0.6271 0.0000
vt 2.4110 0.6271 0.0000
vt 3.4495 0.6648 0.0000
vt 3.4495 1.5570 0.0000
vt 2.9944 1.5570 0.0000
vt 3.0044 0.6648 0.0000
vt 2.9614 2.0148 0.0000
vt 2.4110 1.9953 0.0000
vt 2.4110 1.5570 0.0000
vt 2.9614 1.5570 0.0000
vt 0.4974 -0.4665 0.0000
vt 0.0000 0.0411 0.0000
vt 0.0000 0.0000 0.0000
vt 0.0398 0.0442 0.0000
vt 0.2672 -0.9666 0.0000
vt 0.2582 -0.9717 0.0000
vt -0.0316 0.0369 0.0000
vt 0.2215 -0.8168 0.0000
vt 0.2101 -0.8132 0.0000
vt 0.9849 -0.0349 0.0000
vt 1.0000 0.0411 0.0000
vt -0.0151 -0.0349 0.0000
vt 0.1435 -1.3283 0.0000
vt 0.1606 -1.3916 0.0000
vt 0.0000 0.0649 0.0000
vt 0.1488 -1.2576 0.0000
vt 0.1658 -1.1563 0.0000
vt 0.2109 -1.0584 0.0000
vt 0.0000 0.0617 0.0000
vt 0.0000 0.0655 0.0000
vt 0.1383 -0.7283 0.0000
vt 0.0452 -0.6360 0.0000
vt -0.0564 -0.5381 0.0000
vt -0.1160 -0.4583 0.0000
vt 0.0000 0.0572 0.0000
vt -0.1961 -0.3356 0.0000
vt 3.4495 0.6271 0.0000
vt 2.9944 2.0125 0.0000
vt 1.0355 -0.0418 0.0000
vt 0.0355 -0.0418 0.0000
vt 0.1163 -1.3849 0.0000
vt 0.0489 1.0000 0.0000
vt 0.0489 1.0001 0.0000
vt 0.0490 1.0001 0.0000
vt 0.0490 0.9998 0.0000
vt 0.0488 0.9998 0.0000
vt 0.0488 1.0000 0.0000
vt 0.0489 1.0003 0.0000
vt 0.0492 1.0003 0.0000
vt 0.0452 -1.3896 0.0000
vt -0.3081 -1.3118 0.0000
vt -0.3639 -1.2426 0.0000
vt -0.3251 -1.2490 0.0000
vt -0.2728 -1.3176 0.0000
vt 1.7498 1.8373 0.0000
vt 1.8185 1.7809 0.0000
vt 1.8779 1.8242 0.0000
vt 1.8091 1.8808 0.0000
vt -0.4351 -1.1620 0.0000
vt -0.3930 -1.1688 0.0000
vt -0.3345 -1.2505 0.0000
vt -0.4021 -1.1703 0.0000
vt -0.4725 -1.1750 0.0000
vt -0.4054 -1.2552 0.0000
vt 1.6843 1.7859 0.0000
vt 1.7526 1.7299 0.0000
vt -0.5331 -1.0495 0.0000
vt -0.4865 -1.0568 0.0000
vt -0.4950 -1.0583 0.0000
vt -0.5646 -1.0629 0.0000
vt 1.6015 1.7097 0.0000
vt 1.6693 1.6543 0.0000
vt -0.6589 -0.9357 0.0000
vt -0.6033 -0.9444 0.0000
vt -0.6108 -0.9461 0.0000
vt -0.6797 -0.9506 0.0000
vt 1.5234 1.6212 0.0000
vt 1.5909 1.5662 0.0000
vt -0.7917 -0.8330 0.0000
vt -0.7296 -0.8432 0.0000
vt -0.7363 -0.8450 0.0000
vt -0.8046 -0.8494 0.0000
vt 1.4486 1.5407 0.0000
vt 1.5160 1.4860 0.0000
vt -0.7969 -0.8285 0.0000
vt -0.8222 -0.7118 0.0000
vt -0.8184 -0.7099 0.0000
vt -0.7575 -0.7277 0.0000
vt -0.8251 -0.7320 0.0000
vt 3.0343 -2.2438 0.0000
vt 3.2913 -1.6985 0.0000
vt 2.8659 -1.4966 0.0000
vt 2.6008 -2.0328 0.0000
vt -0.7670 -0.6407 0.0000
vt -0.7210 -0.6724 0.0000
vt -0.7511 -0.7246 0.0000
vt -0.7292 -0.6750 0.0000
vt -0.7983 -0.6723 0.0000
vt 1.2939 1.3537 0.0000
vt 1.2378 1.2740 0.0000
vt 1.3177 1.2357 0.0000
vt 1.3617 1.2995 0.0000
vt -0.7065 -0.5736 0.0000
vt -0.6608 -0.6048 0.0000
vt -0.6691 -0.6073 0.0000
vt -0.7384 -0.6046 0.0000
vt 1.1958 1.2108 0.0000
vt 1.2757 1.1723 0.0000
vt -0.6017 -0.5010 0.0000
vt -0.5615 -0.5312 0.0000
vt -0.5704 -0.5332 0.0000
vt -0.6395 -0.5280 0.0000
vt 1.1522 1.1269 0.0000
vt 1.2346 1.0935 0.0000
vt -0.4680 -0.4382 0.0000
vt -0.4275 -0.4678 0.0000
vt -0.4362 -0.4697 0.0000
vt -0.5056 -0.4645 0.0000
vt 1.1256 1.0491 0.0000
vt 1.2081 1.0154 0.0000
vt 0.0734 1.0000 0.0000
vt 0.9427 1.0000 0.0000
vt -0.2228 -0.3390 0.0000
vt -0.2623 -0.4023 0.0000
vt -0.2785 -0.4066 0.0000
vt -0.3479 -0.4014 0.0000
vt 1.0809 0.9116 0.0000
vt 1.1633 0.8777 0.0000
vt 2.0433 -2.3445 0.0000
vt 2.3670 -2.4827 0.0000
vt 2.5727 -2.0502 0.0000
vt 2.2479 -1.9125 0.0000
vt 2.2595 -1.8853 0.0000
vt 2.5809 -2.0237 0.0000
vt 2.8380 -1.4830 0.0000
vt 2.5438 -1.3292 0.0000
vt 3.7692 -1.3622 0.0000
vt 3.4698 -1.2457 0.0000
vt 3.3200 -1.7010 0.0000
vt 3.6286 -1.8270 0.0000
vt 3.6194 -1.8557 0.0000
vt 3.3145 -1.7222 0.0000
vt 3.0488 -2.2558 0.0000
vt 3.3545 -2.4238 0.0000
vt 2.5921 -2.0602 0.0000
vt 3.0266 -2.2728 0.0000
vt -0.8064 -0.8329 0.0000
vt -0.8331 -0.7087 0.0000
vt -0.3212 -1.3120 0.0000
vt -0.3772 -1.2428 0.0000
vt -0.4486 -1.1621 0.0000
vt -0.5469 -1.0496 0.0000
vt -0.6733 -0.9357 0.0000
vt -0.7806 -0.6378 0.0000
vt -0.7202 -0.5708 0.0000
vt -0.6148 -0.4979 0.0000
vt -0.4810 -0.4351 0.0000
vt 0.0000 0.0573 0.0000
vt -0.2305 -0.3341 0.0000
vt 3.3379 -2.4492 0.0000
vt 3.7800 -1.3291 0.0000
vt 3.4696 -1.2183 0.0000
vt 3.4318 -1.2421 0.0000
vt -0.2826 -1.3191 0.0000
vt -0.3537 -1.3238 0.0000
vt 0.6444 -0.4648 0.0000
vt 0.5107 -0.5283 0.0000
vt 0.9266 -0.5577 0.0000
vt 0.8678 -0.4787 0.0000
vt 0.5106 -0.5252 0.0000
vt 0.6445 -0.4618 0.0000
vt 0.8678 -0.4757 0.0000
vt 0.9263 -0.5546 0.0000
vt 0.4116 -0.6077 0.0000
vt 1.0335 -0.6603 0.0000
vt 0.4116 -0.6018 0.0000
vt 1.0334 -0.6541 0.0000
vt 0.3521 -0.6754 0.0000
vt 1.1271 -0.7514 0.0000
vt 0.3517 -0.6695 0.0000
vt 1.1265 -0.7452 0.0000
vt 0.3272 -0.7435 0.0000
vt 1.2041 -0.8406 0.0000
vt 0.3249 -0.7292 0.0000
vt 1.2015 -0.8250 0.0000
vt 0.3454 -0.8466 0.0000
vt 1.2440 -0.9608 0.0000
vt 0.3473 -0.8609 0.0000
vt 1.2460 -0.9763 0.0000
vt 0.4713 -0.9623 0.0000
vt 1.2142 -1.0648 0.0000
vt 0.4703 -0.9478 0.0000
vt 1.2132 -1.0495 0.0000
vt 0.5854 -1.0748 0.0000
vt 1.1843 -1.1645 0.0000
vt 0.5854 -1.0601 0.0000
vt 1.1844 -1.1494 0.0000
vt 0.6764 -1.1870 0.0000
vt 1.1735 -1.2665 0.0000
vt 0.6775 -1.1722 0.0000
vt 1.1747 -1.2516 0.0000
vt 0.7428 -1.2673 0.0000
vt 1.1721 -1.3378 0.0000
vt 0.7446 -1.2524 0.0000
vt 1.1740 -1.3229 0.0000
vt 0.7943 -1.3359 0.0000
vt 1.1932 -1.4017 0.0000
vt 0.7963 -1.3210 0.0000
vt 1.1952 -1.3868 0.0000
vt 0.8021 -0.3987 0.0000
vt 0.8350 -0.3999 0.0000
vt 0.8349 -0.4029 0.0000
vt 0.8020 -0.4017 0.0000
vt 1.1556 0.8585 0.0000
vt 1.0732 0.8924 0.0000
vt -0.0800 0.0893 0.0000
vt -0.0797 0.1052 0.0000
vt 0.8037 0.0524 0.0000
vt 0.8036 0.3324 0.0000
vt -0.2474 1.2100 0.0000
vt 0.6118 1.2174 0.0000
vt -0.0079 1.0876 0.0000
vt 0.0157 1.0884 0.0000
vt -0.0000 0.6733 0.0000
vt 0.0000 0.2359 0.0000
vt 0.0000 0.6733 0.0000
vt 0.5088 0.0000 0.0000
vt 0.9175 0.0000 0.0000
vt 0.0649 0.0000 0.0000
vt 0.4912 0.0000 0.0000
vt 0.0118 0.1142 0.0000
vt 1.0000 0.9589 0.0000
vt 1.0028 0.4994 0.0000
vt 1.0265 1.0325 0.0000
vt 0.0000 0.9478 0.0000
vt -0.0211 1.0449 0.0000
vt -0.0070 0.8868 0.0000
vt 0.0000 0.6677 0.0000
vt 0.4975 0.5347 0.0000
vt 0.0000 0.9589 0.0000
vt 0.0000 0.5122 0.0000
# 332 texture coords

o bentGravestone
g bentGravestone
usemtl 08___Default
s 1
f 1/1/1 2/2/2 3/3/3 4/4/4 
f 5/5/5 6/6/6 7/7/7 8/8/8 
s 2
f 9/9/9 10/10/10 11/11/11 12/12/12 
f 13/13/13 14/14/14 15/15/15 16/16/16 
s 1
f 3/3/3 2/2/2 17/2/17 18/3/18 
f 8/8/8 7/7/7 19/17/19 20/18/20 
s 2
f 21/19/21 22/20/22 23/21/23 24/22/24 
f 13/13/13 16/16/16 25/23/25 26/24/26 
s 1
f 18/3/18 17/2/17 27/2/27 28/3/28 
f 20/18/20 19/17/19 29/25/29 30/26/30 
s 2
f 24/22/24 23/21/23 31/27/31 32/28/32 
f 26/24/26 25/23/25 33/29/33 34/30/34 
s 1
f 28/3/28 27/2/27 35/2/35 36/3/36 
f 30/26/30 29/25/29 37/31/37 38/32/38 
s 2
f 32/28/32 31/27/31 39/33/39 40/34/40 
f 34/30/34 33/29/33 41/35/41 42/36/42 
s 1
f 36/3/36 35/2/35 43/2/43 44/3/44 
f 38/32/38 37/31/37 45/37/45 46/38/46 
s 2
f 40/34/40 39/33/39 47/39/47 48/40/48 
f 42/36/42 41/35/41 49/41/49 50/42/50 
s 1
f 43/2/43 51/43/51 52/43/52 53/44/53 
f 46/38/46 45/37/45 54/45/54 55/46/55 
s 2
f 48/40/48 47/39/47 56/47/56 57/48/57 
s 1
f 58/49/58 59/50/59 60/51/60 61/52/61 
f 62/53/62 53/44/53 63/54/63 64/55/64 
f 55/46/55 54/45/54 65/56/65 66/57/66 
s 2
f 57/48/57 56/47/56 67/58/67 68/59/68 
s 1
f 69/60/69 70/61/70 71/62/71 72/63/72 
f 64/55/64 63/54/63 73/54/73 74/55/74 
f 66/57/66 65/56/65 75/64/75 76/65/76 
s 2
f 68/59/68 67/58/67 77/66/77 78/67/78 
s 1
f 72/63/72 71/62/71 79/68/79 80/69/80 
f 74/55/74 73/54/73 81/54/81 82/55/82 
f 76/65/76 75/64/75 83/70/83 84/71/84 
s 2
f 78/67/78 77/66/77 85/72/85 86/73/86 
s 1
f 80/69/80 79/68/79 87/74/87 88/75/88 
f 82/55/82 81/54/81 89/54/89 90/55/90 
f 84/71/84 83/70/83 91/76/91 92/77/92 
s 2
f 86/73/86 85/72/85 93/78/93 94/79/94 
s 1
f 88/75/88 87/74/87 95/80/95 96/81/96 
f 90/55/90 89/54/89 97/82/97 98/83/98 
f 92/77/92 91/76/91 99/84/99 100/85/100 
s 2
f 94/79/94 93/78/93 101/86/101 102/87/102 
s 1
f 96/81/96 95/80/95 103/88/103 104/89/104 
f 50/90/50 49/91/49 105/92/105 106/93/106 
f 107/94/107 108/95/108 109/96/109 110/97/110 
s 2
f 70/98/70 69/99/69 111/100/111 112/101/112 
s 1
f 52/102/52 51/102/51 113/102/113 114/102/114 
s 4
f 58/49/58 106/93/106 105/92/105 59/50/59 
s 8
f 114/102/114 61/102/61 111/102/111 
s 2
f 50/103/50 51/104/51 43/105/43 
f 46/38/46 107/106/107 49/107/49 
s 4
f 52/104/52 69/103/69 53/108/53 
f 108/109/108 55/46/55 70/110/70 
s 16
f 106/102/106 58/102/58 113/102/113 
s 8
f 110/97/110 59/50/59 105/92/105 
s 2
f 1/111/1 14/112/14 13/103/13 2/113/2 
f 8/8/8 16/114/16 15/115/15 5/5/5 
f 2/116/2 13/103/13 26/103/26 17/116/17 
f 16/114/16 8/8/8 20/18/20 25/117/25 
f 17/116/17 26/103/26 34/103/34 27/116/27 
f 25/117/25 20/18/20 30/26/30 33/118/33 
f 27/116/27 34/103/34 42/103/42 35/116/35 
f 33/118/33 30/26/30 38/32/38 41/119/41 
f 35/116/35 42/103/42 50/103/50 43/116/43 
f 41/119/41 38/32/38 46/38/46 49/107/49 
s 4
f 53/120/53 69/103/69 72/103/72 63/121/63 
f 70/110/70 55/46/55 66/57/66 71/122/71 
f 63/121/63 72/103/72 80/103/80 73/121/73 
f 71/122/71 66/57/66 76/65/76 79/123/79 
f 73/121/73 80/103/80 88/103/88 81/121/81 
f 79/123/79 76/65/76 84/71/84 87/124/87 
f 81/121/81 88/103/88 96/103/96 89/121/89 
f 87/124/87 84/71/84 92/77/92 95/125/95 
f 89/121/89 96/103/96 104/103/104 97/126/97 
f 95/125/95 92/77/92 100/85/100 103/127/103 
s 2
f 51/102/51 50/102/50 106/102/106 113/102/113 
f 49/128/49 107/94/107 110/97/110 105/92/105 
s 8
f 108/129/108 70/98/70 112/101/112 109/96/109 
s 16
f 69/102/69 52/102/52 114/102/114 111/102/111 
s 4
f 60/51/60 109/96/109 112/101/112 
s 16
f 60/51/60 59/50/59 110/97/110 109/96/109 
s 32
f 61/52/61 60/51/60 112/101/112 111/100/111 
s 8
f 114/102/114 113/102/113 58/102/58 61/102/61 
s 2
f 3/130/3 10/10/10 9/9/9 4/131/4 
f 6/6/6 115/132/115 21/19/21 7/7/7 
f 10/133/10 3/3/3 18/3/18 116/133/116 
f 7/7/7 21/19/21 24/22/24 19/17/19 
f 116/133/116 18/3/18 28/3/28 117/133/117 
f 19/17/19 24/22/24 32/28/32 29/25/29 
f 117/133/117 28/3/28 36/3/36 118/133/118 
f 29/25/29 32/28/32 40/34/40 37/31/37 
f 118/133/118 36/3/36 44/3/44 119/133/119 
f 37/31/37 40/34/40 48/40/48 45/37/45 
f 119/134/119 44/3/44 62/53/62 120/135/120 
f 45/37/45 48/40/48 57/48/57 54/45/54 
f 120/136/120 62/53/62 64/55/64 121/137/121 
f 54/45/54 57/48/57 68/59/68 65/56/65 
f 121/138/121 64/55/64 74/55/74 122/138/122 
f 65/56/65 68/59/68 78/67/78 75/64/75 
f 122/138/122 74/55/74 82/55/82 123/138/123 
f 75/64/75 78/67/78 86/73/86 83/70/83 
f 123/138/123 82/55/82 90/55/90 124/138/124 
f 83/70/83 86/73/86 94/79/94 91/76/91 
f 124/139/124 90/55/90 98/83/98 125/140/125 
f 91/76/91 94/79/94 102/87/102 99/84/99 
f 22/20/22 21/19/21 115/132/115 126/141/126 
f 11/11/11 10/10/10 116/10/116 127/11/127 
f 127/11/127 116/10/116 117/10/117 128/11/128 
f 128/11/128 117/10/117 118/10/118 129/11/129 
f 129/11/129 118/10/118 119/10/119 130/11/130 
f 130/11/130 119/10/119 120/10/120 131/11/131 
f 131/11/131 120/10/120 121/10/121 132/11/132 
f 132/11/132 121/10/121 122/10/122 133/11/133 
f 133/11/133 122/10/122 123/10/123 134/11/134 
f 134/11/134 123/10/123 124/10/124 135/11/135 
f 135/11/135 124/10/124 125/10/125 136/11/136 
s 1
f 137/1/137 138/4/138 139/3/139 140/2/140 
f 141/142/141 142/143/142 143/144/143 144/145/144 
s 2
f 145/9/145 146/12/146 147/11/147 148/10/148 
f 149/146/149 150/147/150 151/148/151 152/149/152 
s 1
f 139/3/139 153/3/153 154/2/154 140/2/140 
f 142/143/142 155/150/155 156/151/156 143/144/143 
s 2
f 157/152/157 158/153/158 159/154/159 160/155/160 
f 149/146/149 161/156/161 162/157/162 150/147/150 
s 1
f 153/3/153 163/3/163 164/2/164 154/2/154 
f 155/150/155 165/158/165 166/159/166 156/151/156 
s 2
f 158/153/158 167/160/167 168/161/168 159/154/159 
f 161/156/161 169/162/169 170/163/170 162/157/162 
s 1
f 163/3/163 171/3/171 172/2/172 164/2/164 
f 165/158/165 173/164/173 174/165/174 166/159/166 
s 2
f 167/160/167 175/166/175 176/167/176 168/161/168 
f 169/162/169 177/168/177 178/169/178 170/163/170 
s 1
f 171/3/171 179/3/179 180/2/180 172/2/172 
f 173/164/173 181/170/181 182/171/182 174/165/174 
s 2
f 175/166/175 183/172/183 184/173/184 176/167/176 
f 177/168/177 185/174/185 186/175/186 178/169/178 
s 1
f 179/3/179 187/53/187 188/44/188 180/2/180 
f 189/176/189 190/177/190 191/178/191 181/170/181 
s 2
f 183/172/183 192/179/192 193/180/193 184/173/184 
f 194/181/194 195/182/195 196/183/196 197/184/197 
s 1
f 187/53/187 198/55/198 199/54/199 188/44/188 
f 191/178/191 200/185/200 201/186/201 202/187/202 
s 2
f 192/179/192 203/188/203 204/189/204 193/180/193 
s 1
f 205/190/205 206/191/206 207/192/207 208/193/208 
f 198/55/198 209/55/209 210/54/210 199/54/199 
f 200/185/200 211/194/211 212/195/212 201/186/201 
s 2
f 203/188/203 213/196/213 214/197/214 204/189/204 
s 1
f 206/191/206 215/198/215 216/199/216 207/192/207 
f 209/55/209 217/55/217 218/54/218 210/54/210 
f 211/194/211 219/200/219 220/201/220 212/195/212 
s 2
f 213/196/213 221/202/221 222/203/222 214/197/214 
s 1
f 215/198/215 223/204/223 224/205/224 216/199/216 
f 217/55/217 225/55/225 226/54/226 218/54/218 
f 219/200/219 227/206/227 228/207/228 220/201/220 
s 2
f 221/202/221 229/208/229 230/209/230 222/203/222 
s 1
f 223/204/223 231/210/231 232/211/232 224/205/224 
f 225/55/225 233/212/233 234/213/234 226/54/226 
f 227/206/227 235/214/235 236/215/236 228/207/228 
s 2
f 229/208/229 237/216/237 238/217/238 230/209/230 
s 1
f 231/210/231 239/218/239 240/219/240 232/211/232 
f 185/220/185 241/221/241 242/222/242 186/223/186 
f 189/224/189 243/225/243 244/226/244 190/227/190 
s 2
f 208/228/208 245/229/245 246/230/246 205/231/205 
s 1
f 247/232/247 248/233/248 249/234/249 250/235/250 
s 2
f 194/181/194 197/184/197 242/236/242 241/237/241 
s 4
f 248/233/248 246/230/246 195/182/195 
s 2
f 185/103/185 180/105/180 250/104/250 
f 181/170/181 186/238/186 189/176/189 
s 8
f 247/104/247 188/108/188 205/103/205 
s 4
f 190/177/190 208/239/208 191/178/191 
s 2
f 241/237/241 249/234/249 194/181/194 
f 243/225/243 242/222/242 197/184/197 
f 137/111/137 140/113/140 149/103/149 152/112/152 
f 142/143/142 141/142/141 151/240/151 150/241/150 
f 140/116/140 154/116/154 161/103/161 149/103/149 
f 150/241/150 162/242/162 155/150/155 142/143/142 
f 154/116/154 164/116/164 169/103/169 161/103/161 
f 162/242/162 170/243/170 165/158/165 155/150/155 
f 164/116/164 172/116/172 177/103/177 169/103/169 
f 170/243/170 178/244/178 173/164/173 165/158/165 
f 172/116/172 180/116/180 185/103/185 177/103/177 
f 178/244/178 186/238/186 181/170/181 173/164/173 
s 8
f 188/120/188 199/121/199 206/103/206 205/103/205 
s 4
f 208/239/208 207/245/207 200/185/200 191/178/191 
s 8
f 199/121/199 210/121/210 215/103/215 206/103/206 
s 4
f 207/245/207 216/246/216 211/194/211 200/185/200 
s 8
f 210/121/210 218/121/218 223/103/223 215/103/215 
s 4
f 216/246/216 224/247/224 219/200/219 211/194/211 
s 8
f 218/121/218 226/121/226 231/103/231 223/103/223 
s 4
f 224/247/224 232/248/232 227/206/227 219/200/219 
s 8
f 226/121/226 234/249/234 239/103/239 231/103/231 
s 4
f 232/248/232 240/250/240 235/214/235 227/206/227 
f 250/235/250 249/234/249 241/237/241 185/251/185 
f 186/223/186 242/222/242 243/225/243 189/224/189 
s 8
f 190/252/190 244/253/244 245/229/245 208/228/208 
f 205/231/205 246/230/246 248/233/248 247/232/247 
s 4
f 196/254/196 245/229/245 244/253/244 
s 2
f 196/183/196 244/226/244 243/225/243 197/184/197 
s 1
f 195/182/195 246/230/246 245/229/245 196/254/196 
s 2
f 248/233/248 195/182/195 194/181/194 249/234/249 
f 139/130/139 138/131/138 145/9/145 148/10/148 
f 144/145/144 143/144/143 157/152/157 251/255/251 
f 148/133/148 252/133/252 153/3/153 139/3/139 
f 143/144/143 156/151/156 158/153/158 157/152/157 
f 252/133/252 253/133/253 163/3/163 153/3/153 
f 156/151/156 166/159/166 167/160/167 158/153/158 
f 253/133/253 254/133/254 171/3/171 163/3/163 
f 166/159/166 174/165/174 175/166/175 167/160/167 
f 254/133/254 255/133/255 179/3/179 171/3/171 
f 174/165/174 182/171/182 183/172/183 175/166/175 
f 255/134/255 256/135/256 187/53/187 179/3/179 
f 182/171/182 202/187/202 192/179/192 183/172/183 
f 256/136/256 257/137/257 198/55/198 187/53/187 
f 202/187/202 201/186/201 203/188/203 192/179/192 
f 257/138/257 258/138/258 209/55/209 198/55/198 
f 201/186/201 212/195/212 213/196/213 203/188/203 
f 258/138/258 259/138/259 217/55/217 209/55/209 
f 212/195/212 220/201/220 221/202/221 213/196/213 
f 259/138/259 260/138/260 225/55/225 217/55/217 
f 220/201/220 228/207/228 229/208/229 221/202/221 
f 260/139/260 261/140/261 233/212/233 225/55/225 
f 228/207/228 236/215/236 237/216/237 229/208/229 
f 160/155/160 262/256/262 251/255/251 157/152/157 
f 147/11/147 263/11/263 252/10/252 148/10/148 
f 263/11/263 264/11/264 253/10/253 252/10/252 
f 264/11/264 265/11/265 254/10/254 253/10/253 
f 265/11/265 266/11/266 255/10/255 254/10/254 
f 266/11/266 267/11/267 256/10/256 255/10/255 
f 267/11/267 268/11/268 257/10/257 256/10/256 
f 268/11/268 269/11/269 258/10/258 257/10/257 
f 269/11/269 270/11/270 259/10/259 258/10/258 
f 270/11/270 271/11/271 260/10/260 259/10/259 
f 271/11/271 272/11/272 261/10/261 260/10/260 
s 1
f 271/257/271 270/258/270 134/259/134 135/260/135 
f 222/261/222 230/262/230 93/263/93 85/264/85 
f 270/258/270 269/265/269 133/266/133 134/259/134 
f 214/267/214 222/261/222 85/264/85 77/268/77 
f 269/265/269 268/269/268 132/270/132 133/266/133 
f 204/271/204 214/267/214 77/268/77 67/272/67 
f 268/269/268 267/273/267 131/274/131 132/270/132 
f 193/275/193 204/271/204 67/272/67 56/276/56 
f 184/277/184 193/275/193 56/276/56 47/278/47 
f 267/273/267 266/279/266 130/280/130 131/274/131 
f 266/279/266 265/281/265 129/282/129 130/280/130 
f 176/283/176 184/277/184 47/278/47 39/284/39 
f 265/281/265 264/285/264 128/286/128 129/282/129 
f 168/287/168 176/283/176 39/284/39 31/288/31 
f 264/285/264 263/289/263 127/290/127 128/286/128 
f 159/291/159 168/287/168 31/288/31 23/292/23 
f 263/289/263 147/293/147 11/294/11 127/290/127 
f 160/295/160 159/291/159 23/292/23 22/296/22 
f 147/293/147 146/297/146 12/298/12 11/294/11 
f 262/299/262 160/295/160 22/296/22 126/300/126 
f 93/263/93 230/262/230 238/301/238 101/302/101 
f 136/303/136 272/304/272 271/257/271 135/260/135 
f 99/84/99 236/215/236 235/214/235 100/85/100 
s 2
f 103/305/103 240/219/240 239/218/239 104/306/104 
s 16
f 104/307/104 239/103/239 234/249/234 97/308/97 
s 8
f 100/85/100 235/214/235 240/250/240 103/127/103 
s 4
f 102/87/102 237/216/237 236/215/236 99/84/99 
f 125/309/125 261/10/261 272/11/272 136/310/136 
s 1
f 233/311/233 98/83/98 97/82/97 234/312/234 
s 8
f 237/216/237 102/87/102 101/86/101 238/217/238 
f 261/313/261 125/140/125 98/83/98 233/314/233 
s 1
f 191/178/191 202/187/202 182/171/182 181/170/181 
f 55/46/55 108/109/108 107/106/107 46/38/46 
f 53/44/53 62/53/62 44/3/44 43/2/43 
f 188/44/188 247/43/247 250/43/250 180/2/180 
s 4
f 262/315/262 126/316/126 12/316/12 146/317/146 
s off
f 1/1/1 4/4/4 273/318/273 
f 6/319/6 5/320/5 273/321/273 
f 9/9/9 12/12/12 273/322/273 
f 15/323/15 14/112/14 273/324/273 
f 14/112/14 1/111/1 273/324/273 
f 5/325/5 15/323/15 273/324/273 
f 4/131/4 9/9/9 273/322/273 
f 115/326/115 6/327/6 273/328/273 
f 126/329/126 115/326/115 273/328/273 
f 12/325/12 126/108/126 273/330/273 
f 138/4/138 137/1/137 274/318/274 
f 141/320/141 144/319/144 274/321/274 
f 146/12/146 145/9/145 274/322/274 
f 152/112/152 151/323/151 274/324/274 
f 137/111/137 152/112/152 274/324/274 
f 151/323/151 141/325/141 274/324/274 
f 145/9/145 138/131/138 274/322/274 
f 144/327/144 251/326/251 274/328/274 
f 251/326/251 262/329/262 274/328/274 
f 262/331/262 146/121/146 274/332/274 
# 254 polygons - 36 triangles

