# 3ds Max Wavefront OBJ Exporter v0.97b - (c)2007 guruware
# File Created: 01.11.2018 20:32:24

mtllib Building_Door.mtl

#
# object Door
#

v  -5.0216 0.2045 1.2608
v  -5.0216 0.2045 -1.2608
v  -3.5812 0.1125 -1.2608
v  -3.5812 0.1125 1.2608
v  -7.7768 17.8439 1.2608
v  -6.0390 19.7709 1.2608
v  -6.0390 19.7709 -1.2608
v  -7.7768 17.8439 -1.2608
v  -4.7750 0.4891 1.2608
v  -3.5812 0.4891 1.2608
v  -4.6268 10.1576 1.2608
v  -6.1641 10.1424 1.2608
v  5.0216 0.2045 1.2608
v  5.0216 0.2045 -1.2608
v  6.5361 10.0835 -1.2608
v  6.5361 10.0835 1.2608
v  4.7750 0.4891 -1.2608
v  3.5812 0.4891 -1.2608
v  4.6268 10.1576 -1.2608
v  6.1641 10.1424 -1.2608
v  -6.5361 10.0835 1.2608
v  -6.5361 10.0835 -1.2608
v  0.0000 0.1125 -1.2608
v  1.1937 0.1125 -1.2608
v  1.1937 0.1125 1.2608
v  0.0000 0.1125 1.2608
v  0.2197 22.8545 1.2608
v  2.1026 21.5083 1.2608
v  2.1026 21.5083 -1.2608
v  0.2197 22.8545 -1.2608
v  0.0000 1.8037 0.4670
v  1.1937 1.8037 0.4670
v  1.3511 8.8567 0.4670
v  0.0000 8.8645 0.4670
v  0.0000 0.4891 -1.2608
v  -1.1937 0.4891 -1.2608
v  -1.5452 10.1702 -1.2608
v  0.0000 10.1792 -1.2608
v  2.3875 0.4891 -1.2608
v  1.1937 0.4891 -1.2608
v  1.5452 10.1702 -1.2608
v  3.0905 10.1623 -1.2608
v  2.3875 0.1125 -1.2608
v  3.5812 0.1125 -1.2608
v  3.5812 0.1125 1.2608
v  2.3875 0.1125 1.2608
v  3.9364 20.4349 1.2608
v  5.6778 19.9887 1.2608
v  5.6778 19.9887 -1.2608
v  3.9364 20.4349 -1.2608
v  2.3875 1.8037 0.4670
v  2.4264 1.8037 0.4670
v  3.2097 6.8587 0.4670
v  2.6087 8.0170 0.4670
v  -2.3875 0.1125 -1.2608
v  -1.1937 0.1125 -1.2608
v  -1.1937 0.1125 1.2608
v  -2.3875 0.1125 1.2608
v  -3.9364 20.4349 1.2608
v  -2.1026 21.5083 1.2608
v  -2.1026 21.5083 -1.2608
v  -3.9364 20.4349 -1.2608
v  -2.3875 1.8037 0.4670
v  -1.1937 1.8037 0.4670
v  -1.3510 8.8567 0.4670
v  -2.6087 8.0170 0.4670
v  -2.3875 0.4891 -1.2608
v  -3.5812 0.4891 -1.2608
v  -4.6268 10.1576 -1.2608
v  -3.0905 10.1623 -1.2608
v  -0.2197 22.8545 1.2608
v  -0.2197 22.8545 -1.2608
v  -5.6778 19.9887 1.2608
v  -5.6778 19.9887 -1.2608
v  -2.4264 1.8037 0.4670
v  -3.2097 6.8587 0.4670
v  -4.7750 0.4891 -1.2608
v  -6.1641 10.1424 -1.2608
v  6.0390 19.7709 1.2608
v  7.7768 17.8439 1.2608
v  7.7768 17.8439 -1.2608
v  6.0390 19.7709 -1.2608
v  3.5812 0.4891 1.2608
v  4.7750 0.4891 1.2608
v  6.1641 10.1424 1.2608
v  4.6268 10.1576 1.2608
v  0.0000 22.4437 1.2608
v  0.1033 22.4964 1.2608
v  -0.1033 22.4964 1.2608
v  0.0000 22.4437 -1.2608
v  -0.1033 22.4964 -1.2608
v  0.1033 22.4964 -1.2608
v  -5.7996 19.4802 1.2608
v  -5.6723 19.4390 1.2608
v  -5.5323 19.6414 1.2608
v  -5.7996 19.4802 -1.2608
v  -5.5323 19.6414 -1.2608
v  -5.6723 19.4390 -1.2608
v  5.7996 19.4802 -1.2608
v  5.6723 19.4390 -1.2608
v  5.5323 19.6414 -1.2608
v  5.7996 19.4802 1.2608
v  5.5323 19.6414 1.2608
v  5.6723 19.4390 1.2608
v  7.9296 17.3159 1.2608
v  7.9296 17.3159 -1.2608
v  -7.9296 17.3159 -1.2608
v  -7.9296 17.3159 1.2608
v  -5.1496 14.1835 1.2608
v  -6.8587 14.1670 1.2608
v  7.2282 14.0942 -1.2608
v  7.2282 14.0942 1.2608
v  5.1496 14.1835 -1.2608
v  6.8587 14.1670 -1.2608
v  -7.2282 14.0942 1.2608
v  -7.2282 14.0942 -1.2608
v  0.5401 11.2263 0.2106
v  0.6713 14.2331 0.2106
v  0.0000 14.2067 0.2106
v  0.0000 11.2294 0.2106
v  -1.7210 14.1970 -1.2608
v  0.0000 14.2067 -1.2608
v  1.7210 14.1970 -1.2608
v  3.4420 14.1885 -1.2608
v  5.1496 14.1835 1.2608
v  3.4420 14.1885 1.2608
v  3.0905 10.1623 1.2608
v  -1.5452 10.1702 1.2608
v  -1.7210 14.1970 1.2608
v  -3.4420 14.1885 1.2608
v  -3.0905 10.1623 1.2608
v  -5.1496 14.1835 -1.2608
v  -3.4420 14.1885 -1.2608
v  -0.6713 14.2331 0.2106
v  -0.5401 11.2263 0.2106
v  1.7210 14.1970 1.2608
v  1.5452 10.1702 1.2608
v  -6.8587 14.1670 -1.2608
v  6.8587 14.1670 1.2608
v  -7.4483 17.6598 1.2608
v  -7.5533 17.3030 1.2608
v  7.4483 17.6598 -1.2608
v  7.5533 17.3030 -1.2608
v  0.8330 20.6677 0.2106
v  0.0065 21.2684 0.2106
v  0.0000 21.2651 0.2106
v  -1.8967 21.1929 -1.2608
v  1.8967 21.1929 -1.2608
v  3.7935 20.0865 -1.2608
v  3.7935 20.0865 1.2608
v  -1.8967 21.1929 1.2608
v  -3.7935 20.0865 1.2608
v  -3.7935 20.0865 -1.2608
v  -0.0065 21.2684 0.2106
v  -0.8330 20.6677 0.2106
v  1.8967 21.1929 1.2608
v  -7.5533 17.3030 -1.2608
v  -7.4483 17.6598 -1.2608
v  7.5533 17.3030 1.2608
v  7.4483 17.6598 1.2608
v  1.6950 21.0933 1.4962
v  0.0850 22.2635 1.4962
v  0.0649 22.0094 1.4962
v  1.4749 20.9847 1.4962
v  0.0000 22.2202 1.4962
v  0.0000 21.9763 1.4962
v  -0.0850 22.2635 1.4962
v  -0.0649 22.0094 1.4962
v  -1.6950 21.0933 1.4962
v  -1.4749 20.9847 1.4962
v  -1.5219 14.2039 1.4962
v  -1.3047 14.2113 1.4962
v  -1.3546 10.3705 1.4962
v  -1.1466 10.5890 1.4962
v  0.0000 10.3783 1.4962
v  0.0000 10.5956 1.4962
v  1.3546 10.3705 1.4962
v  1.1466 10.5890 1.4962
v  1.5219 14.2039 1.4962
v  1.3047 14.2113 1.4962
v  1.2731 20.8851 1.2608
v  0.0466 21.7765 1.2608
v  0.0000 21.7528 1.2608
v  -0.0466 21.7765 1.2608
v  -1.2731 20.8851 1.2608
v  -1.1057 14.2182 1.2608
v  -0.9560 10.7893 1.2608
v  0.0000 10.7948 1.2608
v  0.9560 10.7893 1.2608
v  1.1057 14.2182 1.2608
v  0.0000 10.1792 1.2608
v  -1.1937 0.4891 1.2608
v  0.0000 0.4891 1.2608
v  0.0000 1.1810 1.2608
v  -1.1937 1.1810 1.2608
v  1.1937 0.4891 1.2608
v  1.1937 1.1810 1.2608
v  2.3875 0.4891 1.2608
v  2.3875 1.1810 1.2608
v  2.9601 1.1810 1.2608
v  3.8563 6.9646 1.2608
v  3.0877 8.4460 1.2608
v  1.5415 9.4783 1.2608
v  0.0000 9.4872 1.2608
v  -1.5415 9.4783 1.2608
v  -3.0877 8.4460 1.2608
v  -3.8563 6.9646 1.2608
v  -2.9601 1.1810 1.2608
v  -2.3875 0.4891 1.2608
v  -2.3875 1.1810 1.2608
v  -1.1937 1.2834 1.4018
v  0.0000 1.2834 1.4018
v  0.0000 1.4452 1.4018
v  -1.1937 1.4452 1.4018
v  1.1937 1.2834 1.4018
v  1.1937 1.4452 1.4018
v  2.3875 1.2834 1.4018
v  2.3875 1.4452 1.4018
v  2.8723 1.2834 1.4018
v  2.7337 1.4452 1.4018
v  3.7499 6.9472 1.4018
v  3.5819 6.9197 1.4018
v  3.0089 8.3755 1.4018
v  2.8844 8.2640 1.4018
v  1.5101 9.3761 1.4018
v  1.4607 9.2146 1.4018
v  0.0000 9.3848 1.4018
v  0.0000 9.2230 1.4018
v  -1.5101 9.3761 1.4018
v  -1.4607 9.2146 1.4018
v  -3.0089 8.3755 1.4018
v  -2.8844 8.2640 1.4018
v  -3.7499 6.9472 1.4018
v  -3.5819 6.9197 1.4018
v  -2.8723 1.2834 1.4018
v  -2.7337 1.4452 1.4018
v  -2.3875 1.2834 1.4018
v  -2.3875 1.4452 1.4018
v  -1.1937 1.5476 1.2608
v  0.0000 1.5476 1.2608
v  1.1937 1.5476 1.2608
v  2.3875 1.5476 1.2608
v  2.6459 1.5476 1.2608
v  3.4756 6.9022 1.2608
v  2.8056 8.1934 1.2608
v  1.4294 9.1123 1.2608
v  0.0000 9.1206 1.2608
v  -1.4294 9.1123 1.2608
v  -2.8056 8.1934 1.2608
v  -3.4756 6.9022 1.2608
v  -2.6459 1.5476 1.2608
v  -2.3875 1.5476 1.2608
v  4.0225 9.8769 1.4451
v  3.9586 10.0720 1.3765
v  4.1647 10.0350 1.2692
v  4.2031 9.8230 1.3929
v  4.4707 10.0350 1.2692
v  4.4323 9.8230 1.3929
v  4.6768 10.0720 1.3765
v  4.6130 9.8769 1.4451
v  3.9586 10.3380 1.3765
v  4.1647 10.3750 1.2692
v  4.4707 10.3750 1.2692
v  4.6768 10.3380 1.3765
v  4.0225 10.5330 1.4451
v  4.2031 10.5870 1.3930
v  4.4323 10.5870 1.3930
v  4.6130 10.5330 1.4451
v  4.0225 9.8769 2.0794
v  4.2031 9.8230 2.1315
v  4.1647 10.0350 2.2552
v  3.9586 10.0720 2.1479
v  4.4323 9.8230 2.1315
v  4.4707 10.0350 2.2552
v  4.6130 9.8769 2.0794
v  4.6768 10.0720 2.1479
v  4.1647 10.3750 2.2552
v  3.9586 10.3380 2.1479
v  4.4707 10.3750 2.2552
v  4.6768 10.3380 2.1479
v  4.2031 10.5870 2.1315
v  4.0225 10.5330 2.0794
v  4.4323 10.5870 2.1315
v  4.6130 10.5330 2.0794
v  4.1685 9.7075 1.6019
v  3.9641 9.8121 1.6356
v  4.4670 9.7075 1.6019
v  4.6713 9.8121 1.6356
v  4.1685 9.7075 1.9225
v  3.9641 9.8121 1.8888
v  4.4670 9.7075 1.9225
v  4.6713 9.8121 1.8888
v  4.8009 10.0260 1.5892
v  4.8009 10.3839 1.5892
v  4.6713 10.5978 1.6356
v  4.8009 10.0260 1.9352
v  4.8009 10.3839 1.9352
v  4.6713 10.5978 1.8888
v  4.4670 10.7024 1.6019
v  4.1685 10.7024 1.6019
v  3.9641 10.5978 1.6356
v  4.4670 10.7024 1.9225
v  4.1685 10.7024 1.9225
v  3.9641 10.5978 1.8888
v  3.8346 10.3839 1.5892
v  3.8346 10.0260 1.5892
v  3.8346 10.3839 1.9352
v  3.8346 10.0260 1.9352
v  4.9005 0.3442 1.4238
v  3.5812 0.3442 1.4238
v  3.5766 0.2574 1.4238
v  4.8960 0.3416 1.4238
v  2.3875 0.3442 1.4238
v  2.3875 0.2574 1.4238
v  1.1937 0.3442 1.4238
v  1.1937 0.2574 1.4238
v  0.0000 0.3442 1.4238
v  0.0000 0.2574 1.4238
v  -1.1937 0.3442 1.4238
v  -1.1937 0.2574 1.4238
v  -2.3875 0.3442 1.4238
v  -2.3875 0.2574 1.4238
v  -3.5812 0.3442 1.4238
v  -3.5766 0.2574 1.4238
v  -4.9005 0.3442 1.4238
v  -4.8960 0.3416 1.4238
v  -6.3072 10.1197 1.4238
v  -6.3931 10.1068 1.4238
v  -7.0009 14.1390 1.4238
v  -7.0860 14.1219 1.4238
v  -7.7028 17.3081 1.4238
v  -7.7803 17.3109 1.4238
v  -7.5780 17.7325 1.4238
v  -7.6469 17.7717 1.4238
v  -5.8927 19.5932 1.4238
v  -5.9458 19.6579 1.4238
v  -5.5889 19.7764 1.4238
v  -5.6212 19.8537 1.4238
v  -3.8490 20.2218 1.4238
v  -3.8808 20.2996 1.4238
v  -1.9760 21.3144 1.4238
v  -2.0237 21.3866 1.4238
v  -0.1504 22.6412 1.4238
v  -0.1732 22.7096 1.4238
v  0.1504 22.6412 1.4238
v  0.1732 22.7096 1.4238
v  1.9760 21.3144 1.4238
v  2.0237 21.3866 1.4238
v  3.8490 20.2218 1.4238
v  3.8808 20.2996 1.4238
v  5.5889 19.7764 1.4238
v  5.6212 19.8537 1.4238
v  5.8927 19.5932 1.4238
v  5.9458 19.6579 1.4238
v  7.5780 17.7325 1.4238
v  7.6469 17.7717 1.4238
v  7.7028 17.3081 1.4238
v  7.7803 17.3108 1.4238
v  7.0009 14.1390 1.4238
v  7.0860 14.1219 1.4238
v  6.3072 10.1197 1.4238
v  6.3931 10.1068 1.4238
# 362 vertices

vn -0.6296 -0.6879 0.3611
vn -0.5454 -0.5958 -0.5896
vn -0.0228 -0.7138 -0.7000
vn -0.0298 -0.9351 0.3531
vn -0.8201 0.4564 0.3451
vn -0.5968 0.7234 0.3472
vn -0.4692 0.5687 -0.6756
vn -0.6565 0.3653 -0.6600
vn 0.3049 0.3519 0.8850
vn 0.0000 0.4097 0.9122
vn 0.0000 0.0000 1.0000
vn 0.4016 0.0635 0.9136
vn 0.6296 -0.6879 0.3611
vn 0.5454 -0.5958 -0.5896
vn 0.6958 -0.1134 -0.7092
vn 0.9223 -0.1503 0.3561
vn 0.0000 0.0000 -1.0000
vn -0.9223 -0.1503 0.3561
vn -0.6958 -0.1134 -0.7092
vn 0.0000 -0.7071 -0.7071
vn 0.0000 -0.9347 0.3554
vn 0.2867 0.8940 0.3444
vn 0.5077 0.7831 0.3591
vn 0.3789 0.5845 -0.7175
vn 0.2335 0.7282 -0.6444
vn 0.0000 0.5886 0.8084
vn -0.1893 -0.6179 0.7631
vn -0.0000 -0.5901 0.8074
vn 0.0228 -0.7138 -0.7000
vn 0.0298 -0.9351 0.3531
vn 0.3536 0.8597 0.3687
vn 0.3624 0.8649 0.3472
vn 0.2848 0.6798 -0.6758
vn 0.2559 0.6223 -0.7398
vn -0.4426 0.5165 0.7330
vn -0.6413 -0.1051 0.7600
vn -0.4767 -0.4270 0.7684
vn -0.3536 0.8597 0.3687
vn -0.5077 0.7832 0.3591
vn -0.3789 0.5845 -0.7175
vn -0.2559 0.6223 -0.7398
vn 0.1893 -0.6179 0.7631
vn 0.4767 -0.4270 0.7684
vn -0.2867 0.8940 0.3444
vn -0.2335 0.7282 -0.6444
vn -0.3624 0.8649 0.3472
vn -0.2848 0.6798 -0.6758
vn 0.4426 0.5165 0.7330
vn 0.6413 -0.1051 0.7600
vn 0.5968 0.7234 0.3472
vn 0.8202 0.4564 0.3451
vn 0.6565 0.3653 -0.6600
vn 0.4692 0.5687 -0.6756
vn -0.3049 0.3519 0.8850
vn -0.4016 0.0635 0.9136
vn 0.0000 0.4845 0.8748
vn -0.1465 -0.1909 0.9706
vn 0.1465 -0.1909 0.9706
vn 0.2783 -0.3380 0.8991
vn 0.1692 -0.4038 0.8991
vn -0.2783 -0.3380 0.8991
vn -0.1692 -0.4038 0.8991
vn 0.9382 0.0316 0.3448
vn 0.7545 0.0254 -0.6558
vn -0.7545 0.0254 -0.6558
vn -0.9382 0.0316 0.3447
vn 0.3968 0.0781 0.9146
vn 0.6891 -0.1344 -0.7121
vn 0.9168 -0.1788 0.3571
vn -0.9168 -0.1788 0.3571
vn -0.6892 -0.1344 -0.7120
vn -0.4408 0.4631 0.7689
vn -0.5576 0.0192 0.8299
vn 0.0000 0.5543 0.8323
vn -0.1263 -0.1327 0.9831
vn -0.4184 -0.0144 0.9081
vn 0.5576 0.0192 0.8299
vn 0.4408 0.4631 0.7689
vn 0.4184 -0.0144 0.9081
vn 0.1263 -0.1327 0.9831
vn -0.3968 0.0781 0.9146
vn 0.3925 -0.2201 0.8931
vn 0.4533 -0.0155 0.8912
vn -0.5688 -0.2808 0.7730
vn -0.0502 -0.6367 0.7695
vn 0.0000 -0.4041 0.9147
vn -0.1430 -0.3484 0.9264
vn -0.0519 -0.2419 0.9689
vn 0.1430 -0.3484 0.9264
vn 0.0502 -0.6367 0.7695
vn 0.5688 -0.2808 0.7730
vn 0.0519 -0.2419 0.9689
vn -0.4533 -0.0155 0.8912
vn -0.3925 -0.2201 0.8931
vn 0.4348 0.2147 0.8745
vn 0.0382 0.4846 0.8739
vn -0.0204 -0.2587 0.9657
vn -0.2530 -0.1249 0.9594
vn -0.0000 0.2864 0.9581
vn -0.0000 -0.4845 0.8748
vn -0.0382 0.4846 0.8739
vn 0.0204 -0.2587 0.9657
vn -0.4348 0.2147 0.8745
vn 0.2530 -0.1249 0.9594
vn -0.4225 -0.0145 0.9062
vn 0.4184 0.0144 0.9081
vn -0.3262 -0.3427 0.8810
vn 0.1263 0.1327 0.9831
vn -0.0000 -0.4195 0.9078
vn 0.0000 0.4220 0.9066
vn 0.3262 -0.3427 0.8810
vn -0.1263 0.1327 0.9831
vn 0.4225 -0.0145 0.9062
vn -0.4184 0.0144 0.9081
vn -0.7250 -0.3579 0.5885
vn -0.0625 -0.7930 0.6061
vn 0.0000 -0.8408 0.5414
vn 0.0625 -0.7930 0.6061
vn 0.7250 -0.3579 0.5885
vn 0.8532 0.0293 0.5208
vn 0.5051 0.5307 0.6806
vn 0.0000 0.8541 0.5201
vn -0.5051 0.5307 0.6806
vn -0.8532 0.0293 0.5208
vn -0.0000 -0.4220 0.9066
vn 0.0000 -0.4540 0.8910
vn -0.0000 -0.4540 0.8910
vn 0.1468 -0.1713 0.9742
vn 0.3613 0.0592 0.9306
vn 0.2878 0.2577 0.9224
vn 0.1095 0.3576 0.9274
vn 0.0000 0.4526 0.8917
vn -0.1095 0.3576 0.9274
vn -0.2878 0.2577 0.9224
vn -0.3613 0.0592 0.9306
vn -0.1468 -0.1713 0.9742
vn 0.0000 0.4540 0.8910
vn 0.3379 -0.3943 0.8546
vn -0.1468 0.1713 0.9742
vn 0.5023 0.0823 0.8608
vn -0.3613 -0.0592 0.9306
vn 0.3730 0.3341 0.8656
vn -0.2878 -0.2577 0.9224
vn 0.1482 0.4838 0.8625
vn -0.1095 -0.3576 0.9274
vn 0.0000 0.4553 0.8903
vn -0.0000 -0.4526 0.8917
vn -0.1482 0.4838 0.8625
vn 0.1095 -0.3576 0.9274
vn -0.3730 0.3341 0.8656
vn 0.2878 -0.2577 0.9224
vn -0.5023 0.0823 0.8608
vn 0.3613 -0.0592 0.9306
vn -0.3379 -0.3943 0.8546
vn 0.1468 0.1713 0.9742
vn 0.0000 0.8915 0.4531
vn -0.5262 0.6140 0.5883
vn -0.8633 -0.1415 0.4845
vn -0.6556 -0.5871 0.4749
vn -0.2568 -0.8385 0.4806
vn -0.0000 -0.8913 0.4533
vn 0.2568 -0.8385 0.4806
vn 0.6556 -0.5871 0.4749
vn 0.8633 -0.1415 0.4845
vn 0.5262 0.6140 0.5883
vn -0.5599 -0.5916 -0.5802
vn -0.6755 -0.1918 -0.7120
vn -0.2508 -0.2730 -0.9288
vn -0.1721 -0.7054 -0.6876
vn 0.2508 -0.2730 -0.9288
vn 0.1721 -0.7054 -0.6876
vn 0.6755 -0.1918 -0.7120
vn 0.5599 -0.5916 -0.5802
vn -0.6755 0.1918 -0.7120
vn -0.2508 0.2730 -0.9288
vn 0.2508 0.2730 -0.9288
vn 0.6755 0.1918 -0.7120
vn -0.5599 0.5916 -0.5802
vn -0.1721 0.7054 -0.6876
vn 0.1721 0.7054 -0.6876
vn 0.5599 0.5916 -0.5802
vn -0.5599 -0.5916 0.5802
vn -0.1721 -0.7054 0.6876
vn -0.2508 -0.2730 0.9288
vn -0.6755 -0.1918 0.7120
vn 0.1721 -0.7054 0.6876
vn 0.2508 -0.2730 0.9288
vn 0.5599 -0.5916 0.5802
vn 0.6755 -0.1918 0.7120
vn -0.2508 0.2730 0.9288
vn -0.6755 0.1918 0.7120
vn 0.2508 0.2730 0.9288
vn 0.6755 0.1918 0.7120
vn -0.1721 0.7054 0.6876
vn -0.5599 0.5916 0.5802
vn 0.1721 0.7054 0.6876
vn 0.5599 0.5916 0.5802
vn -0.2455 -0.9338 -0.2602
vn -0.6672 -0.7215 -0.1851
vn 0.2455 -0.9338 -0.2602
vn 0.6672 -0.7215 -0.1851
vn -0.2455 -0.9338 0.2602
vn -0.6672 -0.7215 0.1851
vn 0.2455 -0.9338 0.2602
vn 0.6672 -0.7215 0.1851
vn 0.9177 -0.2847 -0.2772
vn 0.9177 0.2847 -0.2772
vn 0.6672 0.7215 -0.1851
vn 0.9177 -0.2847 0.2772
vn 0.9177 0.2847 0.2772
vn 0.6672 0.7215 0.1851
vn 0.2455 0.9338 -0.2602
vn -0.2455 0.9338 -0.2602
vn -0.6672 0.7215 -0.1851
vn 0.2455 0.9338 0.2602
vn -0.2455 0.9338 0.2602
vn -0.6672 0.7215 0.1851
vn -0.9177 0.2847 -0.2772
vn -0.9177 -0.2847 -0.2772
vn -0.9177 0.2847 0.2772
vn -0.9177 -0.2847 0.2772
vn -0.6321 0.7296 -0.2612
vn 0.0133 -0.4162 0.9092
vn 0.3164 -0.3457 0.8834
vn 0.0000 -0.4097 0.9122
vn -0.0133 -0.4162 0.9092
vn 0.6321 0.7296 -0.2612
vn -0.3164 -0.3457 0.8834
vn 0.4076 0.0645 0.9109
vn -0.4023 -0.0655 0.9132
vn 0.4069 0.0801 0.9100
vn -0.3974 -0.0775 0.9144
vn 0.3454 -0.0118 0.9384
vn -0.4528 0.0153 0.8915
vn 0.3082 -0.1728 0.9355
vn -0.3933 0.2189 0.8930
vn 0.2382 -0.2893 0.9271
vn -0.2788 0.3379 0.8990
vn 0.1448 -0.3456 0.9271
vn -0.1692 0.4038 0.8991
vn 0.1657 -0.4039 0.8997
vn -0.1432 0.3482 0.9264
vn 0.2296 -0.3518 0.9075
vn -0.2173 0.3352 0.9168
vn 0.1012 -0.3112 0.9449
vn -0.1406 0.4384 0.8877
vn -0.1012 -0.3112 0.9449
vn 0.1406 0.4384 0.8877
vn -0.2296 -0.3518 0.9075
vn 0.2173 0.3352 0.9168
vn -0.1657 -0.4039 0.8997
vn 0.1432 0.3482 0.9264
vn -0.1448 -0.3456 0.9271
vn 0.1692 0.4038 0.8991
vn -0.2382 -0.2893 0.9271
vn 0.2788 0.3379 0.8990
vn -0.3082 -0.1728 0.9355
vn 0.3933 0.2189 0.8930
vn -0.3454 -0.0118 0.9384
vn 0.4528 0.0152 0.8915
vn -0.4069 0.0801 0.9100
vn 0.3974 -0.0775 0.9144
vn -0.4076 0.0645 0.9109
vn 0.4023 -0.0655 0.9132
# 264 vertex normals

vt 1.0000 0.0000 0.0000
vt 1.0000 1.0000 0.0000
vt 0.8750 1.0000 0.0000
vt 0.8750 0.0000 0.0000
vt 0.0091 0.0000 0.0000
vt 0.1178 0.0000 0.0000
vt 0.1178 1.0000 0.0000
vt 0.0091 1.0000 0.0000
vt 0.0000 0.0000 0.0000
vt 0.1250 0.0000 0.0000
vt 0.1250 0.4958 0.0000
vt 0.0000 0.4940 0.0000
vt 1.0000 0.4940 0.0000
vt 0.5000 1.0000 0.0000
vt 0.3750 1.0000 0.0000
vt 0.3750 0.0000 0.0000
vt 0.5000 0.0000 0.0000
vt 0.5068 0.0000 0.0000
vt 0.6250 0.0000 0.0000
vt 0.6250 1.0000 0.0000
vt 0.5068 1.0000 0.0000
vt 0.6250 0.5000 0.0000
vt 0.5000 0.4971 0.0000
vt 0.2500 0.0000 0.0000
vt 0.3750 0.5000 0.0000
vt 0.2500 0.5000 0.0000
vt 0.2500 1.0000 0.0000
vt 0.1250 1.0000 0.0000
vt 0.7500 0.0000 0.0000
vt 0.8646 0.0000 0.0000
vt 0.8646 1.0000 0.0000
vt 0.7500 1.0000 0.0000
vt 0.8750 0.4958 0.0000
vt 0.7500 0.5000 0.0000
vt 0.4932 0.0000 0.0000
vt 0.4932 1.0000 0.0000
vt 0.1354 0.0000 0.0000
vt 0.1354 1.0000 0.0000
vt 0.0000 1.0000 0.0000
vt 0.8822 0.0000 0.0000
vt 0.9909 0.0000 0.0000
vt 0.9909 1.0000 0.0000
vt 0.8822 1.0000 0.0000
vt 0.5000 0.9942 0.0000
vt 0.1250 0.9915 0.0000
vt 0.8750 0.9915 0.0000
vt 0.0000 1.5073 0.0000
vt 0.0000 0.9880 0.0000
vt 1.0000 0.9880 0.0000
vt 1.0000 1.5073 0.0000
vt 0.1250 0.7436 0.0000
vt 0.0000 0.7410 0.0000
vt 1.0000 0.7410 0.0000
vt 0.6250 0.7500 0.0000
vt 0.5000 0.7457 0.0000
vt 0.3750 0.7500 0.0000
vt 0.2500 0.7500 0.0000
vt 0.8750 0.7436 0.0000
vt 0.7500 0.7500 0.0000
vt 1.0000 0.3333 0.0000
vt 0.6667 0.3333 0.0000
vt 0.6667 0.0000 0.0000
vt 0.3333 0.3333 0.0000
vt 0.3333 0.0000 0.0000
vt 0.0000 0.3333 0.0000
vt 1.0000 0.6667 0.0000
vt 0.6667 0.6667 0.0000
vt 0.3333 0.6667 0.0000
vt 0.0000 0.6667 0.0000
vt 0.6667 1.0000 0.0000
vt 0.3333 1.0000 0.0000
# 71 texture coords

o Door
g Door
usemtl 02___Default
s 1
f 1/1/1 2/2/2 3/3/3 4/4/4 
s 2
f 5/5/5 6/6/6 7/7/7 8/8/8 
s 4
f 9/9/9 10/10/10 11/11/11 12/12/12 
s 2
f 13/9/13 14/1/14 15/13/15 16/12/16 
s 4
f 17/9/17 18/10/17 19/11/17 20/12/17 
s 2
f 2/9/2 1/1/1 21/13/18 22/12/19 
s 1
f 23/14/20 24/15/20 25/16/21 26/17/21 
s 2
f 27/18/22 28/19/23 29/20/24 30/21/25 
s 4
f 31/17/26 32/19/26 33/22/27 34/23/28 
f 35/17/17 36/19/17 37/22/17 38/23/17 
f 39/24/17 40/16/17 41/25/17 42/26/17 
s 1
f 43/27/20 44/28/29 45/10/30 46/24/21 
s 2
f 47/29/31 48/30/32 49/31/33 50/32/34 
s 4
f 51/29/26 52/4/35 53/33/36 54/34/37 
s 1
f 55/32/20 56/20/20 57/19/21 58/29/21 
s 2
f 59/24/38 60/16/39 61/15/40 62/27/41 
s 4
f 63/24/26 64/16/26 65/25/42 66/26/43 
f 67/29/17 68/4/17 69/33/17 70/34/17 
f 36/19/17 67/29/17 70/34/17 37/22/17 
s 1
f 56/20/20 23/14/20 26/17/21 57/19/21 
s 2
f 60/16/39 71/35/44 72/36/45 61/15/40 
s 4
f 64/16/26 31/17/26 34/23/28 65/25/42 
s 1
f 24/15/20 43/27/20 46/24/21 25/16/21 
s 2
f 28/19/23 47/29/31 50/32/34 29/20/24 
s 4
f 32/19/26 51/29/26 54/34/37 33/22/27 
f 40/16/17 35/17/17 38/23/17 41/25/17 
s 1
f 3/3/3 55/32/20 58/29/21 4/4/4 
s 2
f 73/37/46 59/24/38 62/27/41 74/38/47 
s 4
f 75/10/48 63/24/26 66/26/43 76/11/49 
f 68/4/17 77/1/17 78/13/17 69/33/17 
f 18/10/17 39/24/17 42/26/17 19/11/17 
s 1
f 44/28/29 14/39/14 13/9/13 45/10/30 
s 2
f 79/40/50 80/41/51 81/42/52 82/43/53 
s 4
f 83/4/10 84/1/54 85/13/55 86/33/11 
f 87/44/56 88/21/57 89/36/58 
f 90/44/17 91/21/17 92/36/17 
s 1
f 71/35/44 27/18/22 30/21/25 72/36/45 
s 4
f 93/7/59 94/45/11 95/38/60 
f 96/43/17 97/31/17 98/46/17 
f 99/7/17 100/45/17 101/38/17 
f 102/43/61 103/31/62 104/46/11 
s 2
f 6/6/6 73/37/46 74/38/47 7/7/7 
f 48/30/32 79/40/50 82/43/53 49/31/33 
f 80/47/51 105/48/63 106/49/64 81/50/52 
f 8/47/8 107/48/65 108/49/66 5/50/5 
s 4
f 11/11/11 109/51/11 110/52/67 12/12/12 
s 2
f 15/13/15 111/53/68 112/52/69 16/12/16 
s 4
f 19/11/17 113/51/17 114/52/17 20/12/17 
s 2
f 21/13/18 115/53/70 116/52/71 22/12/19 
s 4
f 117/22/72 118/54/73 119/55/11 120/23/74 
f 37/22/17 121/54/17 122/55/17 38/23/17 
f 41/25/17 123/56/17 124/57/17 42/26/17 
f 86/33/11 125/58/11 126/59/11 127/34/11 
f 128/25/75 129/56/76 130/57/11 131/26/11 
f 69/33/17 132/58/17 133/59/17 70/34/17 
f 70/34/17 133/59/17 121/54/17 37/22/17 
f 120/23/74 119/55/11 134/56/77 135/25/78 
f 127/34/11 126/59/11 136/54/79 137/22/80 
f 38/23/17 122/55/17 123/56/17 41/25/17 
f 131/26/11 130/57/11 109/51/11 11/11/11 
f 78/13/17 138/53/17 132/58/17 69/33/17 
f 42/26/17 124/57/17 113/51/17 19/11/17 
f 85/13/55 139/53/81 125/58/11 86/33/11 
f 109/51/11 94/45/11 93/7/59 140/8/82 141/48/83 110/52/67 
s 2
f 111/53/68 106/49/64 105/48/63 112/52/69 
s 4
f 113/51/17 100/45/17 99/7/17 142/8/17 143/48/17 114/52/17 
s 2
f 115/53/70 108/49/66 107/48/65 116/52/71 
s 4
f 118/54/73 144/20/84 145/21/85 146/44/86 119/55/11 
f 121/54/17 147/20/17 91/21/17 90/44/17 122/55/17 
f 123/56/17 148/15/17 149/27/17 124/57/17 
f 125/58/11 104/46/11 103/31/62 150/32/87 126/59/11 
f 129/56/76 151/15/88 152/27/89 130/57/11 
f 132/58/17 98/46/17 97/31/17 153/32/17 133/59/17 
f 133/59/17 153/32/17 147/20/17 121/54/17 
f 119/55/11 146/44/86 154/36/90 155/15/91 134/56/77 
f 126/59/11 150/32/87 156/20/92 136/54/79 
f 122/55/17 90/44/17 92/36/17 148/15/17 123/56/17 
f 130/57/11 152/27/89 95/38/60 94/45/11 109/51/11 
f 138/53/17 157/49/17 158/42/17 96/43/17 98/46/17 132/58/17 
f 124/57/17 149/27/17 101/38/17 100/45/17 113/51/17 
f 139/53/81 159/49/93 160/42/94 102/43/61 104/46/11 125/58/11 
s off
f 161/20/95 162/21/96 163/21/97 164/20/98 
f 162/21/96 165/44/99 166/44/100 163/21/97 
f 165/44/99 167/36/101 168/36/102 166/44/100 
f 167/36/101 169/15/103 170/15/104 168/36/102 
f 169/15/103 171/56/105 172/56/106 170/15/104 
f 171/56/105 173/25/107 174/25/108 172/56/106 
f 173/25/107 175/23/109 176/23/110 174/25/108 
f 175/23/109 177/22/111 178/22/112 176/23/110 
f 177/22/111 179/54/113 180/54/114 178/22/112 
f 179/54/113 161/20/95 164/20/98 180/54/114 
f 181/20/115 182/21/116 145/21/85 144/20/84 
f 182/21/116 183/44/117 146/44/86 145/21/85 
f 183/44/117 184/36/118 154/36/90 146/44/86 
f 184/36/118 185/15/119 155/15/91 154/36/90 
f 185/15/119 186/56/120 134/56/77 155/15/91 
f 186/56/120 187/25/121 135/25/78 134/56/77 
f 187/25/121 188/23/122 120/23/74 135/25/78 
f 188/23/122 189/22/123 117/22/72 120/23/74 
f 189/22/123 190/54/124 118/54/73 117/22/72 
f 190/54/124 181/20/115 144/20/84 118/54/73 
f 156/20/92 88/21/57 162/21/96 161/20/95 
f 88/21/57 87/44/56 165/44/99 162/21/96 
f 87/44/56 89/36/58 167/36/101 165/44/99 
f 89/36/58 151/15/88 169/15/103 167/36/101 
f 151/15/88 129/56/76 171/56/105 169/15/103 
f 129/56/76 128/25/75 173/25/107 171/56/105 
f 128/25/75 191/23/125 175/23/109 173/25/107 
f 191/23/125 137/22/80 177/22/111 175/23/109 
f 137/22/80 136/54/79 179/54/113 177/22/111 
f 136/54/79 156/20/92 161/20/95 179/54/113 
f 182/21/116 181/20/115 164/20/98 163/21/97 
f 181/20/115 190/54/124 180/54/114 164/20/98 
f 190/54/124 189/22/123 178/22/112 180/54/114 
f 189/22/123 188/23/122 176/23/110 178/22/112 
f 188/23/122 187/25/121 174/25/108 176/23/110 
f 187/25/121 186/56/120 172/56/106 174/25/108 
f 186/56/120 185/15/119 170/15/104 172/56/106 
f 185/15/119 184/36/118 168/36/102 170/15/104 
f 184/36/118 183/44/117 166/44/100 168/36/102 
f 183/44/117 182/21/116 163/21/97 166/44/100 
f 192/16/10 193/17/10 194/17/126 195/16/126 
f 193/17/10 196/19/10 197/19/126 194/17/126 
f 196/19/10 198/29/10 199/29/127 197/19/126 
f 198/29/10 83/4/10 200/4/128 199/29/127 
f 83/4/10 86/33/11 201/33/129 200/4/128 
f 86/33/11 127/34/11 202/34/130 201/33/129 
f 127/34/11 137/22/80 203/22/131 202/34/130 
f 137/22/80 191/23/125 204/23/132 203/22/131 
f 191/23/125 128/25/75 205/25/133 204/23/132 
f 128/25/75 131/26/11 206/26/134 205/25/133 
f 131/26/11 11/11/11 207/11/135 206/26/134 
f 11/11/11 10/10/10 208/10/136 207/11/135 
f 10/10/10 209/24/10 210/24/126 208/10/136 
f 209/24/10 192/16/10 195/16/126 210/24/126 
f 211/16/126 212/17/126 213/17/137 214/16/137 
f 212/17/126 215/19/126 216/19/137 213/17/137 
f 215/19/126 217/29/126 218/29/137 216/19/137 
f 217/29/126 219/4/138 220/4/139 218/29/137 
f 219/4/138 221/33/140 222/33/141 220/4/139 
f 221/33/140 223/34/142 224/34/143 222/33/141 
f 223/34/142 225/22/144 226/22/145 224/34/143 
f 225/22/144 227/23/146 228/23/147 226/22/145 
f 227/23/146 229/25/148 230/25/149 228/23/147 
f 229/25/148 231/26/150 232/26/151 230/25/149 
f 231/26/150 233/11/152 234/11/153 232/26/151 
f 233/11/152 235/10/154 236/10/155 234/11/153 
f 235/10/154 237/24/126 238/24/137 236/10/155 
f 237/24/126 211/16/126 214/16/137 238/24/137 
f 239/16/156 240/17/156 31/17/26 64/16/26 
f 240/17/156 241/19/156 32/19/26 31/17/26 
f 241/19/156 242/29/156 51/29/26 32/19/26 
f 242/29/156 243/4/157 52/4/35 51/29/26 
f 243/4/157 244/33/158 53/33/36 52/4/35 
f 244/33/158 245/34/159 54/34/37 53/33/36 
f 245/34/159 246/22/160 33/22/27 54/34/37 
f 246/22/160 247/23/161 34/23/28 33/22/27 
f 247/23/161 248/25/162 65/25/42 34/23/28 
f 248/25/162 249/26/163 66/26/43 65/25/42 
f 249/26/163 250/11/164 76/11/49 66/26/43 
f 250/11/164 251/10/165 75/10/48 76/11/49 
f 251/10/165 252/24/156 63/24/26 75/10/48 
f 252/24/156 239/16/156 64/16/26 63/24/26 
f 195/16/126 194/17/126 212/17/126 211/16/126 
f 194/17/126 197/19/126 215/19/126 212/17/126 
f 197/19/126 199/29/127 217/29/126 215/19/126 
f 199/29/127 200/4/128 219/4/138 217/29/126 
f 200/4/128 201/33/129 221/33/140 219/4/138 
f 201/33/129 202/34/130 223/34/142 221/33/140 
f 202/34/130 203/22/131 225/22/144 223/34/142 
f 203/22/131 204/23/132 227/23/146 225/22/144 
f 204/23/132 205/25/133 229/25/148 227/23/146 
f 205/25/133 206/26/134 231/26/150 229/25/148 
f 206/26/134 207/11/135 233/11/152 231/26/150 
f 207/11/135 208/10/136 235/10/154 233/11/152 
f 208/10/136 210/24/126 237/24/126 235/10/154 
f 210/24/126 195/16/126 211/16/126 237/24/126 
f 240/17/156 239/16/156 214/16/137 213/17/137 
f 239/16/156 252/24/156 238/24/137 214/16/137 
f 252/24/156 251/10/165 236/10/155 238/24/137 
f 251/10/165 250/11/164 234/11/153 236/10/155 
f 250/11/164 249/26/163 232/26/151 234/11/153 
f 249/26/163 248/25/162 230/25/149 232/26/151 
f 248/25/162 247/23/161 228/23/147 230/25/149 
f 247/23/161 246/22/160 226/22/145 228/23/147 
f 246/22/160 245/34/159 224/34/143 226/22/145 
f 245/34/159 244/33/158 222/33/141 224/34/143 
f 244/33/158 243/4/157 220/4/139 222/33/141 
f 243/4/157 242/29/156 218/29/137 220/4/139 
f 242/29/156 241/19/156 216/19/137 218/29/137 
f 241/19/156 240/17/156 213/17/137 216/19/137 
s 2
f 253/1/166 254/60/167 255/61/168 256/62/169 
f 256/62/169 255/61/168 257/63/170 258/64/171 
f 258/64/171 257/63/170 259/65/172 260/9/173 
f 254/60/167 261/66/174 262/67/175 255/61/168 
f 255/61/168 262/67/175 263/68/176 257/63/170 
f 257/63/170 263/68/176 264/69/177 259/65/172 
f 261/66/174 265/2/178 266/70/179 262/67/175 
f 262/67/175 266/70/179 267/71/180 263/68/176 
f 263/68/176 267/71/180 268/39/181 264/69/177 
s 4
f 269/9/182 270/64/183 271/63/184 272/65/185 
f 270/64/183 273/62/186 274/61/187 271/63/184 
f 273/62/186 275/1/188 276/60/189 274/61/187 
f 272/65/185 271/63/184 277/68/190 278/69/191 
f 271/63/184 274/61/187 279/67/192 277/68/190 
f 274/61/187 276/60/189 280/66/193 279/67/192 
f 278/69/191 277/68/190 281/71/194 282/39/195 
f 277/68/190 279/67/192 283/70/196 281/71/194 
f 279/67/192 280/66/193 284/2/197 283/70/196 
s 8
f 253/9/166 256/64/169 285/63/198 286/65/199 
f 256/64/169 258/62/171 287/61/200 285/63/198 
f 258/62/171 260/1/173 288/60/201 287/61/200 
f 286/65/199 285/63/198 289/68/202 290/69/203 
f 285/63/198 287/61/200 291/67/204 289/68/202 
f 287/61/200 288/60/201 292/66/205 291/67/204 
f 290/69/203 289/68/202 270/71/183 269/39/182 
f 289/68/202 291/67/204 273/70/186 270/71/183 
f 291/67/204 292/66/205 275/2/188 273/70/186 
s 16
f 260/9/173 259/64/172 293/63/206 288/65/201 
f 259/64/172 264/62/177 294/61/207 293/63/206 
f 264/62/177 268/1/181 295/60/208 294/61/207 
f 288/65/201 293/63/206 296/68/209 292/69/205 
f 293/63/206 294/61/207 297/67/210 296/68/209 
f 294/61/207 295/60/208 298/66/211 297/67/210 
f 292/69/205 296/68/209 276/71/189 275/39/188 
f 296/68/209 297/67/210 280/70/193 276/71/189 
f 297/67/210 298/66/211 284/2/197 280/70/193 
s 32
f 268/9/181 267/64/180 299/63/212 295/65/208 
f 267/64/180 266/62/179 300/61/213 299/63/212 
f 266/62/179 265/1/178 301/60/214 300/61/213 
f 295/65/208 299/63/212 302/68/215 298/69/211 
f 299/63/212 300/61/213 303/67/216 302/68/215 
f 300/61/213 301/60/214 304/66/217 303/67/216 
f 298/69/211 302/68/215 283/71/196 284/39/197 
f 302/68/215 303/67/216 281/70/194 283/71/196 
f 303/67/216 304/66/217 282/2/195 281/70/194 
s 64
f 265/9/178 261/64/174 305/63/218 301/65/214 
f 261/64/174 254/62/167 306/61/219 305/63/218 
f 254/62/167 253/1/166 286/60/199 306/61/219 
f 301/65/214 305/63/218 307/68/220 304/69/217 
f 305/63/218 306/61/219 308/67/221 307/68/220 
f 306/61/219 286/60/199 290/66/203 308/67/221 
f 304/69/217 307/68/220 278/71/191 282/39/195 
f 307/68/220 308/67/221 272/70/185 278/71/191 
f 308/67/221 290/66/203 269/2/182 272/70/185 
s off
f 77/2/17 68/3/17 3/3/3 2/2/2 
f 68/3/17 67/32/17 55/32/20 3/3/3 
f 67/32/17 36/20/17 56/20/20 55/32/20 
f 36/20/17 35/14/17 23/14/20 56/20/20 
f 35/14/17 40/15/17 24/15/20 23/14/20 
f 40/15/17 39/27/17 43/27/20 24/15/20 
f 39/27/17 18/28/17 44/28/29 43/27/20 
f 18/28/17 17/39/17 14/39/14 44/28/29 
f 17/1/17 20/13/17 15/13/15 14/1/14 
f 20/13/17 114/53/17 111/53/68 15/13/15 
f 114/53/17 143/49/17 106/49/64 111/53/68 
f 143/49/17 142/50/17 81/50/52 106/49/64 
f 142/42/17 99/43/17 82/43/53 81/42/52 
f 99/43/17 101/31/17 49/31/33 82/43/53 
f 101/31/17 149/32/17 50/32/34 49/31/33 
f 149/32/17 148/20/17 29/20/24 50/32/34 
f 148/20/17 92/21/17 30/21/25 29/20/24 
f 92/21/17 91/36/17 72/36/45 30/21/25 
f 91/36/17 147/15/17 61/15/40 72/36/45 
f 147/15/17 153/27/17 62/27/41 61/15/40 
f 153/27/17 97/38/17 74/38/47 62/27/41 
f 97/38/17 96/7/17 7/7/7 74/38/47 
f 96/7/17 158/8/17 8/8/8 7/7/7 
f 158/47/17 157/48/17 107/48/65 8/47/8 
f 157/48/17 138/52/17 116/52/71 107/48/65 
f 138/52/17 78/12/17 22/12/19 116/52/71 
f 78/12/17 77/9/17 2/9/2 22/12/19 
f 309/9/222 310/10/10 311/10/223 312/9/224 
f 310/10/10 313/24/10 314/24/225 311/10/223 
f 313/24/10 315/16/10 316/16/225 314/24/225 
f 315/16/10 317/17/10 318/17/225 316/16/225 
f 317/17/10 319/19/10 320/19/225 318/17/225 
f 319/19/10 321/29/10 322/29/225 320/19/225 
f 321/29/10 323/4/10 324/4/226 322/29/225 
f 323/4/10 325/1/227 326/1/228 324/4/226 
f 325/1/227 327/13/229 328/13/230 326/1/228 
f 327/13/229 329/53/231 330/53/232 328/13/230 
f 329/53/231 331/49/233 332/49/234 330/53/232 
f 331/49/233 333/50/235 334/50/236 332/49/234 
f 333/5/235 335/6/237 336/6/238 334/5/236 
f 335/6/237 337/37/239 338/37/240 336/6/238 
f 337/37/239 339/24/241 340/24/242 338/37/240 
f 339/24/241 341/16/243 342/16/244 340/24/242 
f 341/16/243 343/35/245 344/35/246 342/16/244 
f 343/35/245 345/18/247 346/18/248 344/35/246 
f 345/18/247 347/19/249 348/19/250 346/18/248 
f 347/19/249 349/29/251 350/29/252 348/19/250 
f 349/29/251 351/30/253 352/30/254 350/29/252 
f 351/30/253 353/40/255 354/40/256 352/30/254 
f 353/40/255 355/41/257 356/41/258 354/40/256 
f 355/47/257 357/48/259 358/48/260 356/47/258 
f 357/48/259 359/52/261 360/52/262 358/48/260 
f 359/52/261 361/12/263 362/12/264 360/52/262 
f 361/12/263 309/9/222 312/9/224 362/12/264 
f 84/9/54 83/10/10 310/10/10 309/9/222 
f 83/10/10 198/24/10 313/24/10 310/10/10 
f 198/24/10 196/16/10 315/16/10 313/24/10 
f 196/16/10 193/17/10 317/17/10 315/16/10 
f 193/17/10 192/19/10 319/19/10 317/17/10 
f 192/19/10 209/29/10 321/29/10 319/19/10 
f 209/29/10 10/4/10 323/4/10 321/29/10 
f 10/4/10 9/1/9 325/1/227 323/4/10 
f 9/1/9 12/13/12 327/13/229 325/1/227 
f 12/13/12 110/53/67 329/53/231 327/13/229 
f 110/53/67 141/49/83 331/49/233 329/53/231 
f 141/49/83 140/50/82 333/50/235 331/49/233 
f 140/5/82 93/6/59 335/6/237 333/5/235 
f 93/6/59 95/37/60 337/37/239 335/6/237 
f 95/37/60 152/24/89 339/24/241 337/37/239 
f 152/24/89 151/16/88 341/16/243 339/24/241 
f 151/16/88 89/35/58 343/35/245 341/16/243 
f 89/35/58 88/18/57 345/18/247 343/35/245 
f 88/18/57 156/19/92 347/19/249 345/18/247 
f 156/19/92 150/29/87 349/29/251 347/19/249 
f 150/29/87 103/30/62 351/30/253 349/29/251 
f 103/30/62 102/40/61 353/40/255 351/30/253 
f 102/40/61 160/41/94 355/41/257 353/40/255 
f 160/47/94 159/48/93 357/48/259 355/47/257 
f 159/48/93 139/52/81 359/52/261 357/48/259 
f 139/52/81 85/12/55 361/12/263 359/52/261 
f 85/12/55 84/9/54 309/9/222 361/12/263 
f 45/10/30 13/9/13 312/9/224 311/10/223 
f 13/9/13 16/12/16 362/12/264 312/9/224 
f 16/12/16 112/52/69 360/52/262 362/12/264 
f 112/52/69 105/48/63 358/48/260 360/52/262 
f 105/48/63 80/47/51 356/47/258 358/48/260 
f 80/41/51 79/40/50 354/40/256 356/41/258 
f 79/40/50 48/30/32 352/30/254 354/40/256 
f 48/30/32 47/29/31 350/29/252 352/30/254 
f 47/29/31 28/19/23 348/19/250 350/29/252 
f 28/19/23 27/18/22 346/18/248 348/19/250 
f 27/18/22 71/35/44 344/35/246 346/18/248 
f 71/35/44 60/16/39 342/16/244 344/35/246 
f 60/16/39 59/24/38 340/24/242 342/16/244 
f 59/24/38 73/37/46 338/37/240 340/24/242 
f 73/37/46 6/6/6 336/6/238 338/37/240 
f 6/6/6 5/5/5 334/5/236 336/6/238 
f 5/50/5 108/49/66 332/49/234 334/50/236 
f 108/49/66 115/53/70 330/53/232 332/49/234 
f 115/53/70 21/13/18 328/13/230 330/53/232 
f 21/13/18 1/1/1 326/1/228 328/13/230 
f 1/1/1 4/4/4 324/4/226 326/1/228 
f 4/4/4 58/29/21 322/29/225 324/4/226 
f 58/29/21 57/19/21 320/19/225 322/29/225 
f 57/19/21 26/17/21 318/17/225 320/19/225 
f 26/17/21 25/16/21 316/16/225 318/17/225 
f 25/16/21 46/24/21 314/24/225 316/16/225 
f 46/24/21 45/10/30 311/10/223 314/24/225 
# 347 polygons - 6 triangles

