# 3ds Max Wavefront OBJ Exporter v0.97b - (c)2007 guruware
# File Created: 10.11.2018 22:36:31

mtllib Building_Bot.mtl

#
# object Building_bot_1
#

v  -18.3567 0.0000 19.6850
v  18.3567 0.0000 19.6850
v  20.2283 31.1597 21.1904
v  -19.8485 30.6968 21.1680
v  19.6850 0.0000 18.3567
v  19.6850 0.0000 -18.3567
v  21.1610 30.5530 -19.8327
v  21.1610 30.5530 19.8327
v  18.3567 0.0000 -19.6850
v  -18.3567 0.0000 -19.6850
v  -19.8327 30.5530 -21.1610
v  19.8327 30.5530 -21.1610
v  -19.6850 0.0000 -18.3567
v  -19.6850 0.0000 18.3567
v  -21.1610 30.5530 19.8327
v  -21.1610 30.5530 -19.8327
v  0.0475 30.6468 0.0045
v  0.0000 0.0000 -0.0000
# 18 vertices

vn -0.2849 -0.6538 0.7010
vn 0.2826 -0.6553 0.7005
vn 0.4369 0.6483 0.6236
vn -0.3291 0.6201 0.7122
vn 0.7010 -0.6537 0.2850
vn 0.7010 -0.6537 -0.2850
vn 0.7334 0.6054 -0.3092
vn 0.8331 0.5275 0.1665
vn 0.2850 -0.6537 -0.7010
vn -0.2850 -0.6537 -0.7010
vn -0.3092 0.6054 -0.7334
vn 0.3092 0.6054 -0.7334
vn -0.7010 -0.6537 -0.2850
vn -0.7010 -0.6537 0.2850
vn -0.7529 0.5899 0.2918
vn -0.7334 0.6054 -0.3092
vn -0.0011 1.0000 -0.0072
vn 0.0000 -1.0000 -0.0000
# 18 vertex normals

vt 0.5300 0.0075 0.0000
vt 0.9482 0.0080 0.0000
vt 0.9692 0.3633 0.0000
vt 0.5127 0.3576 0.0000
vt 0.0280 0.6200 0.0000
vt 0.4492 0.6200 0.0000
vt 0.4661 0.9709 0.0000
vt 0.0111 0.9709 0.0000
vt 0.5183 0.6253 0.0000
vt 0.9347 0.6253 0.0000
vt 0.9515 0.9722 0.0000
vt 0.5016 0.9722 0.0000
vt 0.0232 0.2509 0.0000
vt 0.4403 0.2509 0.0000
vt 0.4571 0.5984 0.0000
vt 0.0064 0.5984 0.0000
vt 0.9695 0.0069 0.0000
vt 0.9874 0.3552 0.0000
vt 0.4970 0.6243 0.0000
vt 0.4803 0.9712 0.0000
vt 0.9560 0.6243 0.0000
vt 0.9727 0.9712 0.0000
vt 0.4915 0.3549 0.0000
vt 0.5087 0.0065 0.0000
vt 0.4121 0.1846 0.0000
vt 0.2654 0.1825 0.0000
vt 0.3401 0.1054 0.0000
vt 0.2610 0.1772 0.0000
vt 0.2633 0.0312 0.0000
vt 0.2684 0.0262 0.0000
vt 0.4144 0.0284 0.0000
vt 0.4194 0.0335 0.0000
vt 0.4173 0.1795 0.0000
# 33 texture coords

o Building_bot_1
g Building_bot_1
usemtl 01___Default
s 2
f 1/1/1 2/2/2 3/3/3 4/4/4 
s 4
f 5/5/5 6/6/6 7/7/7 8/8/8 
s 2
f 9/9/9 10/10/10 11/11/11 12/12/12 
f 13/13/13 14/14/14 15/15/15 16/16/16 
s 4
f 2/2/2 5/17/5 8/18/8 3/3/3 
s 8
f 6/19/6 9/9/9 12/12/12 7/20/7 
s 4
f 10/10/10 13/21/13 16/22/16 11/11/11 
f 4/4/4 15/23/15 14/24/14 1/1/1 
s off
f 4/25/4 3/26/3 17/27/17 
f 8/28/8 7/29/7 17/27/17 
f 12/30/12 11/31/11 17/27/17 
f 16/32/16 15/33/15 17/27/17 
f 3/26/3 8/28/8 17/27/17 
f 7/29/7 12/30/12 17/27/17 
f 11/31/11 16/32/16 17/27/17 
f 15/33/15 4/25/4 17/27/17 
f 14/32/14 13/33/13 18/27/18 
f 10/25/10 9/26/9 18/27/18 
f 6/28/6 5/29/5 18/27/18 
f 2/30/2 1/31/1 18/27/18 
f 1/31/1 14/32/14 18/27/18 
f 5/29/5 2/30/2 18/27/18 
f 13/33/13 10/25/10 18/27/18 
f 9/26/9 6/28/6 18/27/18 
# 8 polygons - 16 triangles

