# 3ds Max Wavefront OBJ Exporter v0.97b - (c)2007 guruware
# File Created: 10.11.2018 22:35:39

mtllib Building_Rod.mtl

#
# object Building_Rod
#

v  0.7948 0.0814 0.0031
v  0.7458 0.0978 -0.2695
v  -2.6459 33.1296 2.3302
v  -2.5968 33.1132 2.6028
v  0.6068 0.1024 -0.5096
v  -2.7849 33.1342 2.0901
v  0.3946 0.0947 -0.6883
v  -2.9971 33.1265 1.9114
v  0.1348 0.0755 -0.7839
v  -3.2568 33.1073 1.8158
v  -0.1412 0.0473 -0.7850
v  -3.5329 33.0791 1.8147
v  -0.4003 0.0133 -0.6914
v  -3.7919 33.0451 1.9083
v  -0.6110 -0.0223 -0.5144
v  -4.0026 33.0096 2.0853
v  -0.7480 -0.0551 -0.2754
v  -4.1397 32.9767 2.3244
v  -0.7948 -0.0814 -0.0031
v  -4.1865 32.9504 2.5966
v  -0.7458 -0.0978 0.2695
v  -4.1374 32.9340 2.8692
v  -0.6068 -0.1024 0.5096
v  -3.9984 32.9294 3.1094
v  -0.3946 -0.0947 0.6883
v  -3.7862 32.9371 3.2880
v  -0.1348 -0.0755 0.7839
v  -3.5264 32.9563 3.3836
v  0.1412 -0.0473 0.7850
v  -3.2504 32.9845 3.3847
v  0.4003 -0.0133 0.6914
v  -2.9914 33.0185 3.2911
v  0.6110 0.0223 0.5144
v  -2.7807 33.0541 3.1141
v  0.7480 0.0551 0.2754
v  -2.6436 33.0869 2.8751
# 36 vertices

vn 0.9948 0.1018 0.0039
vn 0.9334 0.1224 -0.3373
vn 0.7594 0.1282 -0.6378
vn 0.4938 0.1185 -0.8614
vn 0.1687 0.0945 -0.9811
vn -0.1768 0.0592 -0.9825
vn -0.5010 0.0167 -0.8653
vn -0.7647 -0.0278 -0.6438
vn -0.9362 -0.0690 -0.3446
vn -0.9948 -0.1018 -0.0039
vn -0.9334 -0.1224 0.3373
vn -0.7594 -0.1282 0.6378
vn -0.4939 -0.1185 0.8614
vn -0.1687 -0.0945 0.9811
vn 0.1768 -0.0592 0.9825
vn 0.5009 -0.0167 0.8653
vn 0.7647 0.0278 0.6438
vn 0.9362 0.0690 0.3446
# 18 vertex normals

vt 0.4670 0.0002 0.5888
vt 0.4753 0.0002 0.0000
vt 0.4720 0.9880 0.3121
vt 0.4638 0.9879 0.0000
vt 0.4835 0.0003 0.0000
vt 0.4803 0.9880 0.0000
vt 0.4917 0.0003 0.0000
vt 0.4885 0.9880 0.0000
vt 0.5000 0.0003 0.0000
vt 0.4968 0.9880 0.0000
vt 0.5082 0.0003 0.0000
vt 0.5050 0.9881 0.0000
vt 0.5164 0.0004 0.0000
vt 0.5132 0.9881 0.0000
vt 0.5247 0.0004 0.0000
vt 0.5215 0.9881 0.0000
vt 0.5329 0.0004 0.0000
vt 0.5297 0.9881 0.0000
vt 0.5411 0.0004 0.0000
vt 0.5379 0.9882 0.0000
vt 0.5494 0.0005 0.0000
vt 0.5462 0.9882 0.0000
vt 0.5576 0.0005 0.0000
vt 0.5544 0.9882 0.0000
vt 0.5658 0.0005 0.0000
vt 0.5626 0.9882 0.0000
vt 0.5741 0.0005 0.0000
vt 0.5709 0.9883 0.0000
vt 0.5823 0.0006 0.0000
vt 0.5791 0.9883 0.0000
vt 0.4341 0.0001 0.0000
vt 0.4423 0.0001 0.0000
vt 0.4391 0.9879 0.0000
vt 0.4309 0.9878 0.0000
vt 0.4506 0.0002 0.0000
vt 0.4473 0.9879 0.0000
vt 0.4588 0.0002 0.0000
vt 0.4556 0.9879 0.0000
# 38 texture coords

o Building_Rod
g Building_Rod
usemtl 09___Default
s 8
f 1/1/1 2/2/2 3/3/2 4/4/1 
f 2/2/2 5/5/3 6/6/3 3/3/2 
f 5/5/3 7/7/4 8/8/4 6/6/3 
f 7/7/4 9/9/5 10/10/5 8/8/4 
f 9/9/5 11/11/6 12/12/6 10/10/5 
f 11/11/6 13/13/7 14/14/7 12/12/6 
f 13/13/7 15/15/8 16/16/8 14/14/7 
f 15/15/8 17/17/9 18/18/9 16/16/8 
f 17/17/9 19/19/10 20/20/10 18/18/9 
f 19/19/10 21/21/11 22/22/11 20/20/10 
f 21/21/11 23/23/12 24/24/12 22/22/11 
f 23/23/12 25/25/13 26/26/13 24/24/12 
f 25/25/13 27/27/14 28/28/14 26/26/13 
f 27/27/14 29/29/15 30/30/15 28/28/14 
f 29/31/15 31/32/16 32/33/16 30/34/15 
f 31/32/16 33/35/17 34/36/17 32/33/16 
f 33/35/17 35/37/18 36/38/18 34/36/17 
f 35/37/18 1/1/1 4/4/1 36/38/18 
# 18 polygons

