# 3ds Max Wavefront OBJ Exporter v0.97b - (c)2007 guruware
# File Created: 07.11.2018 23:28:25

mtllib Gravestone_Coffin_LO.mtl

#
# object gravestone4
#

v  -2.1529 0.0000 0.3890
v  -2.1529 0.0000 -0.3890
v  -1.4426 0.0000 -0.3890
v  -1.4426 0.0000 0.3890
v  -5.1805 13.6355 1.0517
v  -4.2140 16.4411 1.0517
v  -4.2140 16.4411 -1.0517
v  -5.1805 13.6355 -1.0517
v  -1.7115 0.7746 0.3119
v  -1.4426 0.7746 0.3119
v  -3.6089 15.8587 0.8433
v  -4.4500 12.9177 0.8433
v  2.1529 0.0000 0.3890
v  2.1529 0.0000 -0.3890
v  5.2367 13.5416 -1.0475
v  5.2367 13.5416 1.0475
v  1.7115 0.7746 -0.3119
v  1.4426 0.7746 -0.3119
v  3.6089 15.8587 -0.8433
v  4.4500 12.9177 -0.8433
v  -5.2367 13.5416 1.0475
v  -5.2367 13.5416 -1.0475
v  0.0000 0.0000 -0.3890
v  1.4426 0.0000 -0.3890
v  1.4426 0.0000 0.3890
v  0.0000 0.0000 0.3890
v  0.7336 18.8731 1.0517
v  4.0142 16.6992 1.0517
v  4.0142 16.6992 -1.0517
v  0.7336 18.8731 -1.0517
v  0.0000 0.7746 0.3119
v  1.4426 0.7746 0.3119
v  3.6089 15.8587 0.8433
v  0.1803 18.2757 0.8433
v  0.0000 0.7746 -0.3119
v  -1.4426 0.7746 -0.3119
v  -3.6089 15.8587 -0.8433
v  -0.1803 18.2757 -0.8433
v  -0.7336 18.8731 1.0517
v  0.0000 19.2129 1.0517
v  0.0000 19.2129 -1.0517
v  -0.7336 18.8731 -1.0517
v  -0.0000 18.3592 0.8433
v  -0.1803 18.2757 0.8433
v  0.0000 18.3592 -0.8433
v  0.1803 18.2757 -0.8433
v  4.2140 16.4411 1.0517
v  5.1805 13.6355 1.0517
v  5.1805 13.6355 -1.0517
v  4.2140 16.4411 -1.0517
v  1.7115 0.7746 0.3119
v  4.4500 12.9177 0.8433
v  -4.0142 16.6992 1.0517
v  -4.0142 16.6992 -1.0517
v  -1.7115 0.7746 -0.3119
v  -4.4500 12.9177 -0.8433
v  1.4426 0.1433 0.4071
v  2.0885 0.1131 0.4071
v  1.7929 0.6318 0.4071
v  1.4426 0.5775 0.4071
v  5.1788 13.5622 1.0908
v  4.5584 13.0136 1.1006
v  4.0686 16.4829 1.1006
v  3.7265 16.0183 1.1006
v  0.6363 18.7680 1.1006
v  0.3121 18.4180 1.1006
v  -0.0000 19.0696 1.1006
v  -0.0000 18.5501 1.1006
v  -0.6363 18.7680 1.1006
v  -0.3121 18.4180 1.1006
v  -4.0686 16.4829 1.1006
v  -3.7265 16.0183 1.1006
v  -5.1788 13.5622 1.0908
v  -4.5584 13.0136 1.1006
v  -2.0885 0.1131 0.4071
v  -1.7929 0.6318 0.4071
v  -1.4426 0.1433 0.4071
v  -1.4426 0.5775 0.4071
v  0.0000 0.1433 0.4071
v  0.0000 0.5775 0.4071
v  -1.4426 0.1433 -0.4071
v  -2.0885 0.1131 -0.4071
v  -1.7929 0.6318 -0.4071
v  -1.4426 0.5775 -0.4071
v  -5.1788 13.5622 -1.0908
v  -4.5584 13.0136 -1.1006
v  -4.0686 16.4829 -1.1006
v  -3.7265 16.0183 -1.1006
v  -0.6363 18.7680 -1.1006
v  -0.3121 18.4180 -1.1006
v  0.0000 19.0696 -1.1006
v  0.0000 18.5501 -1.1006
v  0.6363 18.7680 -1.1006
v  0.3121 18.4180 -1.1006
v  4.0686 16.4829 -1.1006
v  3.7265 16.0183 -1.1006
v  5.1788 13.5622 -1.0908
v  4.5584 13.0136 -1.1006
v  2.0885 0.1131 -0.4071
v  1.7929 0.6318 -0.4071
v  1.4426 0.1433 -0.4071
v  1.4426 0.5775 -0.4071
v  0.0000 0.1433 -0.4071
v  0.0000 0.5775 -0.4071
v  1.4426 0.8145 0.3747
v  1.6887 0.8145 0.3747
v  4.4085 12.8810 1.0134
v  3.5807 15.8203 1.0131
v  0.1518 18.2450 1.0131
v  -0.0000 18.3153 1.0131
v  -0.1518 18.2450 1.0131
v  -3.5807 15.8203 1.0131
v  -4.4085 12.8810 1.0134
v  -1.6887 0.8145 0.3747
v  -1.4426 0.8145 0.3747
v  0.0000 0.8145 0.3747
v  -1.4426 0.8145 -0.3747
v  -1.6887 0.8145 -0.3747
v  -4.4085 12.8810 -1.0134
v  -3.5807 15.8203 -1.0131
v  -0.1518 18.2450 -1.0131
v  0.0000 18.3153 -1.0131
v  0.1518 18.2450 -1.0131
v  3.5807 15.8203 -1.0131
v  4.4085 12.8810 -1.0134
v  1.6887 0.8145 -0.3747
v  1.4426 0.8145 -0.3747
v  0.0000 0.8145 -0.3747
# 128 vertices

vn -0.5151 -0.6611 0.5455
vn -0.5151 -0.6611 -0.5455
vn 0.0000 -0.7501 -0.6613
vn -0.0000 -0.7501 0.6614
vn -0.8733 0.3721 0.3146
vn -0.7548 0.3907 0.5269
vn -0.7548 0.3907 -0.5269
vn -0.8733 0.3721 -0.3146
vn 0.5625 0.7381 0.3726
vn 0.0000 0.8677 0.4972
vn 0.6841 -0.5081 0.5232
vn 0.8514 -0.0577 0.5214
vn 0.5151 -0.6611 0.5455
vn 0.5151 -0.6611 -0.5455
vn 0.9057 0.1059 -0.4105
vn 0.9057 0.1059 0.4105
vn -0.5625 0.7381 -0.3726
vn 0.0000 0.8677 -0.4972
vn -0.6841 -0.5081 -0.5233
vn -0.8514 -0.0577 -0.5214
vn -0.9057 0.1059 0.4105
vn -0.9057 0.1059 -0.4105
vn 0.0000 -0.7501 0.6614
vn 0.0000 -0.7500 0.6614
vn 0.4039 0.7189 0.5658
vn 0.5556 0.6233 0.5503
vn 0.5556 0.6233 -0.5503
vn 0.4039 0.7189 -0.5658
vn 0.0000 0.8689 0.4950
vn -0.6841 -0.5081 0.5232
vn -0.4072 -0.7016 0.5847
vn 0.0000 0.8689 -0.4950
vn 0.6841 -0.5081 -0.5233
vn 0.4072 -0.7016 -0.5847
vn -0.4039 0.7189 0.5658
vn 0.0000 0.8554 0.5179
vn 0.0000 0.8554 -0.5179
vn -0.4039 0.7189 -0.5658
vn 0.0000 -0.8562 0.5166
vn 0.4072 -0.7016 0.5847
vn -0.0000 -0.8562 -0.5166
vn -0.4072 -0.7016 -0.5847
vn 0.7548 0.3907 0.5269
vn 0.8733 0.3721 0.3146
vn 0.8733 0.3721 -0.3146
vn 0.7548 0.3907 -0.5269
vn -0.5625 0.7381 0.3726
vn -0.8514 -0.0577 0.5214
vn -0.5556 0.6233 0.5503
vn -0.5556 0.6233 -0.5503
vn 0.5625 0.7381 -0.3726
vn 0.8514 -0.0577 -0.5214
vn -0.0014 -0.0618 0.9981
vn 0.0415 -0.0907 0.9950
vn -0.0661 0.0167 0.9977
vn -0.0047 0.0646 0.9979
vn 0.4105 0.0762 0.9087
vn -0.1652 -0.0590 0.9845
vn 0.2014 0.1485 0.9682
vn -0.1088 -0.0852 0.9904
vn 0.0849 0.1539 0.9844
vn -0.0841 -0.1467 0.9856
vn 0.0000 0.2078 0.9782
vn 0.0000 -0.1330 0.9911
vn -0.0849 0.1539 0.9844
vn 0.0841 -0.1467 0.9856
vn -0.2014 0.1485 0.9682
vn 0.1088 -0.0852 0.9904
vn -0.4105 0.0762 0.9087
vn 0.1652 -0.0590 0.9845
vn -0.0415 -0.0907 0.9950
vn 0.0661 0.0167 0.9977
vn 0.0014 -0.0618 0.9981
vn 0.0047 0.0646 0.9979
vn 0.0000 -0.0627 0.9980
vn 0.0000 0.0679 0.9977
vn 0.0014 -0.0618 -0.9981
vn -0.0415 -0.0907 -0.9950
vn 0.0661 0.0167 -0.9977
vn 0.0047 0.0646 -0.9979
vn -0.4105 0.0762 -0.9087
vn 0.1652 -0.0590 -0.9845
vn -0.2014 0.1485 -0.9682
vn 0.1088 -0.0852 -0.9904
vn -0.0849 0.1539 -0.9844
vn 0.0841 -0.1467 -0.9856
vn 0.0000 0.2078 -0.9782
vn 0.0000 -0.1330 -0.9911
vn 0.0849 0.1539 -0.9844
vn -0.0841 -0.1467 -0.9856
vn 0.2014 0.1485 -0.9682
vn -0.1088 -0.0852 -0.9904
vn 0.4105 0.0762 -0.9087
vn -0.1652 -0.0590 -0.9845
vn 0.0415 -0.0907 -0.9950
vn -0.0661 0.0167 -0.9977
vn -0.0014 -0.0618 -0.9981
vn -0.0047 0.0646 -0.9979
vn 0.0000 -0.0627 -0.9980
vn 0.0000 0.0679 -0.9977
vn -0.0001 0.9070 0.4211
vn -0.5836 0.5766 0.5718
vn -0.9012 0.0161 0.4330
vn -0.7160 -0.4623 0.5231
vn -0.4341 -0.7606 0.4827
vn 0.0000 -0.8314 0.5556
vn 0.4341 -0.7606 0.4827
vn 0.7160 -0.4623 0.5231
vn 0.9012 0.0161 0.4330
vn 0.5836 0.5766 0.5718
vn 0.0001 0.9070 0.4211
vn 0.0000 0.9070 0.4212
vn 0.0001 0.9070 -0.4211
vn 0.5836 0.5766 -0.5718
vn 0.9012 0.0161 -0.4330
vn 0.7160 -0.4623 -0.5231
vn 0.4341 -0.7606 -0.4827
vn -0.0000 -0.8314 -0.5556
vn -0.4341 -0.7606 -0.4827
vn -0.7160 -0.4623 -0.5231
vn -0.9012 0.0161 -0.4330
vn -0.5836 0.5766 -0.5718
vn -0.0001 0.9070 -0.4211
vn 0.0000 0.9070 -0.4212
# 124 vertex normals

vt 0.4254 0.9718 0.0000
vt 0.4254 0.9272 0.0000
vt 0.4661 0.9272 0.0000
vt 0.4661 0.9718 0.0000
vt 0.6203 0.0412 0.0000
vt 0.7415 0.0412 0.0000
vt 0.7415 0.1272 0.0000
vt 0.6203 0.1272 0.0000
vt 0.6861 0.1613 0.0000
vt 0.6980 0.1613 0.0000
vt 0.6020 0.8300 0.0000
vt 0.5646 0.6997 0.0000
vt 0.0483 0.1001 0.0000
vt 0.0483 0.0683 0.0000
vt 0.6158 0.0414 0.0000
vt 0.6158 0.1270 0.0000
vt 0.5487 0.9272 0.0000
vt 0.6313 0.9272 0.0000
vt 0.6313 0.9718 0.0000
vt 0.5487 0.9718 0.0000
vt 0.9157 0.1272 0.0000
vt 0.7549 0.1272 0.0000
vt 0.7549 0.0412 0.0000
vt 0.9157 0.0412 0.0000
vt 0.7619 0.1613 0.0000
vt 0.8258 0.1613 0.0000
vt 0.9219 0.8300 0.0000
vt 0.7699 0.9370 0.0000
vt 0.9218 0.8300 0.0000
vt 0.9487 0.0412 0.0000
vt 0.9487 0.1272 0.0000
vt 0.7619 0.9407 0.0000
vt 0.7539 0.9370 0.0000
vt 0.6720 0.9272 0.0000
vt 0.6720 0.9718 0.0000
vt 0.8377 0.1613 0.0000
vt 0.9593 0.6997 0.0000
vt 0.3073 0.1495 0.0000
vt 0.3358 0.1486 0.0000
vt 0.3227 0.1710 0.0000
vt 0.3072 0.1685 0.0000
vt 0.4674 0.7402 0.0000
vt 0.4401 0.7163 0.0000
vt 0.4220 0.8698 0.0000
vt 0.4071 0.8497 0.0000
vt 0.2725 0.9725 0.0000
vt 0.2584 0.9574 0.0000
vt 0.2440 0.9854 0.0000
vt 0.2440 0.9629 0.0000
vt 0.2154 0.9725 0.0000
vt 0.2295 0.9574 0.0000
vt 0.0659 0.8698 0.0000
vt 0.0808 0.8497 0.0000
vt 0.0206 0.7403 0.0000
vt 0.0478 0.7163 0.0000
vt 0.1521 0.1486 0.0000
vt 0.1651 0.1710 0.0000
vt 0.1805 0.1495 0.0000
vt 0.1806 0.1684 0.0000
vt 0.2439 0.1492 0.0000
vt 0.2439 0.1683 0.0000
vt 0.3067 0.1500 0.0000
vt 0.3352 0.1491 0.0000
vt 0.3221 0.1715 0.0000
vt 0.3066 0.1689 0.0000
vt 0.4668 0.7407 0.0000
vt 0.4396 0.7168 0.0000
vt 0.4214 0.8703 0.0000
vt 0.4065 0.8502 0.0000
vt 0.2719 0.9729 0.0000
vt 0.2578 0.9579 0.0000
vt 0.2434 0.9859 0.0000
vt 0.2434 0.9634 0.0000
vt 0.2149 0.9729 0.0000
vt 0.2290 0.9579 0.0000
vt 0.0654 0.8703 0.0000
vt 0.0803 0.8502 0.0000
vt 0.0200 0.7407 0.0000
vt 0.0473 0.7168 0.0000
vt 0.1515 0.1491 0.0000
vt 0.1646 0.1715 0.0000
vt 0.1800 0.1500 0.0000
vt 0.1801 0.1689 0.0000
vt 0.2434 0.1497 0.0000
vt 0.2434 0.1687 0.0000
vt 0.3070 0.1788 0.0000
vt 0.3182 0.1784 0.0000
vt 0.3174 0.1790 0.0000
vt 0.3071 0.1820 0.0000
vt 0.4330 0.7102 0.0000
vt 0.4259 0.7113 0.0000
vt 0.4007 0.8411 0.0000
vt 0.3950 0.8379 0.0000
vt 0.2514 0.9499 0.0000
vt 0.2489 0.9434 0.0000
vt 0.2440 0.9520 0.0000
vt 0.2440 0.9447 0.0000
vt 0.2365 0.9499 0.0000
vt 0.2390 0.9434 0.0000
vt 0.0872 0.8411 0.0000
vt 0.0929 0.8379 0.0000
vt 0.0549 0.7103 0.0000
vt 0.0621 0.7113 0.0000
vt 0.1696 0.1784 0.0000
vt 0.1704 0.1790 0.0000
vt 0.1808 0.1788 0.0000
vt 0.1807 0.1820 0.0000
vt 0.2439 0.1787 0.0000
vt 0.2439 0.1820 0.0000
vt 0.3065 0.1793 0.0000
vt 0.3176 0.1789 0.0000
vt 0.3169 0.1794 0.0000
vt 0.3065 0.1824 0.0000
vt 0.4325 0.7107 0.0000
vt 0.4253 0.7117 0.0000
vt 0.4001 0.8416 0.0000
vt 0.3945 0.8384 0.0000
vt 0.2509 0.9504 0.0000
vt 0.2483 0.9439 0.0000
vt 0.2434 0.9525 0.0000
vt 0.2434 0.9452 0.0000
vt 0.2359 0.9504 0.0000
vt 0.2384 0.9439 0.0000
vt 0.0867 0.8416 0.0000
vt 0.0923 0.8384 0.0000
vt 0.0544 0.7107 0.0000
vt 0.0615 0.7117 0.0000
vt 0.1691 0.1789 0.0000
vt 0.1698 0.1794 0.0000
vt 0.1802 0.1793 0.0000
vt 0.1802 0.1824 0.0000
vt 0.2434 0.1792 0.0000
vt 0.2434 0.1825 0.0000
vt 0.3068 0.1436 0.0000
vt 0.3380 0.1442 0.0000
vt 0.3073 0.1432 0.0000
vt 0.3386 0.1437 0.0000
vt 0.0592 0.8681 0.0000
vt 0.0197 0.7438 0.0000
vt 0.0586 0.8686 0.0000
vt 0.0191 0.7443 0.0000
vt 0.4704 0.7393 0.0000
vt 0.0175 0.7393 0.0000
vt 0.1493 0.1437 0.0000
vt 0.0170 0.7397 0.0000
vt 0.1487 0.1442 0.0000
vt 0.4699 0.7397 0.0000
vt 0.1799 0.1436 0.0000
vt 0.2434 0.1434 0.0000
vt 0.1805 0.1432 0.0000
vt 0.2439 0.1429 0.0000
vt 0.4198 0.8796 0.0000
vt 0.2769 0.9773 0.0000
vt 0.4192 0.8801 0.0000
vt 0.2763 0.9778 0.0000
vt 0.2440 0.9919 0.0000
vt 0.2434 0.9923 0.0000
vt 0.2104 0.9778 0.0000
vt 0.2110 0.9773 0.0000
vt 0.0676 0.8801 0.0000
vt 0.4683 0.7438 0.0000
vt 0.4287 0.8681 0.0000
vt 0.0682 0.8797 0.0000
vt 0.4677 0.7442 0.0000
vt 0.4281 0.8685 0.0000
# 165 texture coords

o gravestone4
g gravestone4
usemtl 02___Default
s 1
f 1/1/1 2/2/2 3/3/3 4/4/4 
s 2
f 5/5/5 6/6/6 7/7/7 8/8/8 
s 1
f 9/9/9 10/10/10 11/11/11 12/12/12 
s 2
f 13/13/13 14/14/14 15/15/15 16/16/16 
s 1
f 17/9/17 18/10/18 19/11/19 20/12/20 
s 2
f 2/13/2 1/14/1 21/15/21 22/16/22 
s 1
f 23/17/3 24/18/3 25/19/23 26/20/24 
s 2
f 27/21/25 28/22/26 29/23/27 30/24/28 
s 1
f 31/25/29 32/26/10 33/27/30 34/28/31 
f 35/25/32 36/26/18 37/29/33 38/28/34 
s 2
f 39/24/35 40/30/36 41/31/37 42/21/38 
s 1
f 31/25/29 43/32/39 44/33/40 
f 35/25/32 45/32/41 46/33/42 
s 2
f 40/31/36 27/21/25 30/24/28 41/30/37 
s 1
f 31/25/29 34/28/31 43/32/39 
f 35/25/32 38/28/34 45/32/41 
f 18/10/18 35/25/32 46/33/42 19/11/19 
f 24/18/3 14/34/14 13/35/13 25/19/23 
s 2
f 47/7/43 48/8/44 49/5/45 50/6/46 
s 1
f 32/26/10 51/36/47 52/37/48 33/27/30 
f 3/3/3 23/17/3 26/20/24 4/4/4 
s 2
f 53/23/49 39/24/35 42/21/38 54/22/50 
s 1
f 10/10/10 31/25/29 44/33/40 11/11/11 
f 36/26/18 55/36/51 56/37/52 37/29/33 
s 2
f 57/38/53 58/39/54 59/40/55 60/41/56 
f 58/39/54 61/42/57 62/43/58 59/40/55 
f 61/42/57 63/44/59 64/45/60 62/43/58 
f 63/44/59 65/46/61 66/47/62 64/45/60 
f 65/46/61 67/48/63 68/49/64 66/47/62 
f 67/48/63 69/50/65 70/51/66 68/49/64 
f 69/50/65 71/52/67 72/53/68 70/51/66 
f 71/52/67 73/54/69 74/55/70 72/53/68 
f 73/54/69 75/56/71 76/57/72 74/55/70 
f 75/56/71 77/58/73 78/59/74 76/57/72 
f 77/58/73 79/60/75 80/61/76 78/59/74 
f 79/60/75 57/38/53 60/41/56 80/61/76 
f 81/62/77 82/63/78 83/64/79 84/65/80 
f 82/63/78 85/66/81 86/67/82 83/64/79 
f 85/66/81 87/68/83 88/69/84 86/67/82 
f 87/68/83 89/70/85 90/71/86 88/69/84 
f 89/70/85 91/72/87 92/73/88 90/71/86 
f 91/72/87 93/74/89 94/75/90 92/73/88 
f 93/74/89 95/76/91 96/77/92 94/75/90 
f 95/76/91 97/78/93 98/79/94 96/77/92 
f 97/78/93 99/80/95 100/81/96 98/79/94 
f 99/80/95 101/82/97 102/83/98 100/81/96 
f 101/82/97 103/84/99 104/85/100 102/83/98 
f 103/84/99 81/62/77 84/65/80 104/85/100 
s 4
f 105/86/101 106/87/102 51/88/47 32/89/10 
s 8
f 106/87/102 107/90/103 52/91/48 51/88/47 
f 107/90/103 108/92/104 33/93/30 52/91/48 
f 108/92/104 109/94/105 34/95/31 33/93/30 
f 109/94/105 110/96/106 43/97/39 34/95/31 
s 16
f 110/96/106 111/98/107 44/99/40 43/97/39 
f 111/98/107 112/100/108 11/101/11 44/99/40 
f 112/100/108 113/102/109 12/103/12 11/101/11 
f 113/102/109 114/104/110 9/105/9 12/103/12 
s 4
f 114/104/110 115/106/111 10/107/10 9/105/9 
f 115/106/111 116/108/112 31/109/29 10/107/10 
f 116/108/112 105/86/101 32/89/10 31/109/29 
f 117/110/113 118/111/114 55/112/51 36/113/18 
s 8
f 118/111/114 119/114/115 56/115/52 55/112/51 
f 119/114/115 120/116/116 37/117/33 56/115/52 
f 120/116/116 121/118/117 38/119/34 37/117/33 
f 121/118/117 122/120/118 45/121/41 38/119/34 
s 16
f 122/120/118 123/122/119 46/123/42 45/121/41 
f 123/122/119 124/124/120 19/125/19 46/123/42 
f 124/124/120 125/126/121 20/127/20 19/125/19 
f 125/126/121 126/128/122 17/129/17 20/127/20 
s 4
f 126/128/122 127/130/123 18/131/18 17/129/17 
f 127/130/123 128/132/124 35/133/32 18/131/18 
f 128/132/124 117/110/113 36/113/18 35/133/32 
s 2
f 81/62/77 3/134/3 2/135/2 82/63/78 
f 57/38/53 25/136/23 13/137/13 58/39/54 
f 71/52/67 6/138/6 5/139/5 73/54/69 
f 95/76/91 50/140/46 49/141/45 97/78/93 
f 58/39/54 13/137/13 16/142/16 61/42/57 
f 73/54/69 21/143/21 1/144/1 75/56/71 
f 97/78/93 15/145/15 14/146/14 99/80/95 
f 82/63/78 2/135/2 22/147/22 85/66/81 
f 101/82/97 24/148/3 23/149/3 103/84/99 
f 77/58/73 4/150/4 26/151/24 79/60/75 
f 63/44/59 28/152/26 27/153/25 65/46/61 
f 87/68/83 54/154/50 42/155/38 89/70/85 
f 65/46/61 27/153/25 40/156/36 67/48/63 
f 91/72/87 41/157/37 30/158/28 93/74/89 
f 67/48/63 40/156/36 39/159/35 69/50/65 
f 89/70/85 42/155/38 41/157/37 91/72/87 
f 79/60/75 26/151/24 25/136/23 57/38/53 
f 93/74/89 30/158/28 29/160/27 95/76/91 
f 99/80/95 14/146/14 24/148/3 101/82/97 
f 61/42/57 48/161/44 47/162/43 63/44/59 
f 103/84/99 23/149/3 3/134/3 81/62/77 
f 69/50/65 39/159/35 53/163/49 71/52/67 
f 75/56/71 1/144/1 4/150/4 77/58/73 
f 85/66/81 8/164/8 7/165/7 87/68/83 
f 105/86/101 60/41/56 59/40/55 106/87/102 
f 106/87/102 59/40/55 62/43/58 107/90/103 
f 107/90/103 62/43/58 64/45/60 108/92/104 
f 108/92/104 64/45/60 66/47/62 109/94/105 
f 109/94/105 66/47/62 68/49/64 110/96/106 
f 110/96/106 68/49/64 70/51/66 111/98/107 
f 111/98/107 70/51/66 72/53/68 112/100/108 
f 112/100/108 72/53/68 74/55/70 113/102/109 
f 113/102/109 74/55/70 76/57/72 114/104/110 
f 114/104/110 76/57/72 78/59/74 115/106/111 
f 115/106/111 78/59/74 80/61/76 116/108/112 
f 116/108/112 80/61/76 60/41/56 105/86/101 
f 117/110/113 84/65/80 83/64/79 118/111/114 
f 118/111/114 83/64/79 86/67/82 119/114/115 
f 119/114/115 86/67/82 88/69/84 120/116/116 
f 120/116/116 88/69/84 90/71/86 121/118/117 
f 121/118/117 90/71/86 92/73/88 122/120/118 
f 122/120/118 92/73/88 94/75/90 123/122/119 
f 123/122/119 94/75/90 96/77/92 124/124/120 
f 124/124/120 96/77/92 98/79/94 125/126/121 
f 125/126/121 98/79/94 100/81/96 126/128/122 
f 126/128/122 100/81/96 102/83/98 127/130/123 
f 127/130/123 102/83/98 104/85/100 128/132/124 
f 128/132/124 104/85/100 84/65/80 117/110/113 
f 16/142/16 48/161/44 61/42/57 
f 22/147/22 8/164/8 85/66/81 
f 21/143/21 73/54/69 5/139/5 
f 15/145/15 97/78/93 49/141/45 
f 48/8/44 16/16/16 15/15/15 49/5/45 
f 8/8/8 22/16/22 21/15/21 5/5/5 
f 28/152/26 63/44/59 47/162/43 
f 54/154/50 87/68/83 7/165/7 
f 29/160/27 50/140/46 95/76/91 
f 53/163/49 6/138/6 71/52/67 
f 28/22/26 47/7/43 50/6/46 29/23/27 
f 6/6/6 53/23/49 54/22/50 7/7/7 
# 120 polygons - 12 triangles

