# 3ds Max Wavefront OBJ Exporter v0.97b - (c)2007 guruware
# File Created: 01.11.2018 20:34:38

mtllib Roof_With_Window.mtl

#
# object roof1
#

v  -29.2652 6.0225 14.7217
v  -28.3844 7.7408 15.1895
v  -27.5035 13.3405 15.6574
v  -18.9974 42.1265 20.0599
v  -23.2893 6.0225 15.6083
v  -12.3616 69.4596 23.2096
v  -12.3616 6.0225 16.0551
v  -1.9654 76.5593 22.3592
v  -2.8438 6.0225 16.8392
v  -0.0240 6.0225 16.9070
v  -0.9024 76.5593 22.3592
v  9.4938 69.4596 23.2096
v  9.4938 6.0225 16.1553
v  16.1296 42.1265 20.0599
v  20.4214 6.0225 15.7369
v  24.6357 13.3633 15.6574
v  26.3973 6.0225 16.2650
v  -29.2660 5.9364 21.8068
v  -23.2896 5.9842 21.8175
v  -18.9973 42.1423 25.6257
v  -27.5047 13.2142 22.5742
v  -28.3853 7.6346 22.1905
v  -12.3616 6.0268 21.8324
v  -12.0279 69.5033 28.5109
v  -5.7515 29.3229 22.2444
v  -2.3122 29.3430 22.2474
v  -1.5744 61.0360 25.5122
v  -5.5588 55.0126 24.1309
v  -0.5224 29.3239 22.2446
v  2.8779 29.3216 22.2128
v  2.5781 55.0692 24.1146
v  -1.0592 61.0338 25.3317
v  9.4937 6.0141 21.8519
v  20.4209 5.9665 21.8573
v  16.1297 42.1389 25.6588
v  8.7220 69.5013 28.5305
v  26.3967 6.5196 21.9212
v  24.6345 13.2316 22.6256
v  -2.8431 6.1041 21.8496
v  -0.0234 6.0966 21.8515
v  26.9994 13.3845 15.8803
v  18.5308 42.7478 16.0576
v  18.5321 42.7425 23.5977
v  27.0022 13.3842 23.5286
v  11.8569 70.2128 16.1844
v  12.0174 70.2311 23.6472
v  0.5114 85.3996 16.2483
v  0.4207 88.5755 23.6705
v  -3.3793 85.4245 16.2483
v  -14.7248 70.2128 16.1844
v  -14.5140 70.2311 23.6472
v  -3.7185 88.5755 23.6705
v  -21.3986 42.7478 16.0576
v  -21.4000 42.7425 23.5977
v  -29.8673 13.3685 15.8803
v  -29.8701 13.3681 23.5286
v  -23.4393 13.5868 -38.8645
v  -25.8724 6.3978 -39.1186
v  -27.3079 6.6440 -39.0986
v  -24.9617 13.6053 -38.8441
v  -31.3729 2.0949 30.9811
v  -29.5443 4.7863 30.8937
v  -31.8950 5.2193 30.8932
v  -32.9677 3.6963 30.9118
v  -27.7058 13.3165 30.5171
v  -20.5718 41.0334 30.5418
v  -21.6802 41.6497 30.5418
v  -30.0730 13.3440 30.5169
v  -13.2108 68.7467 34.5865
v  -14.0468 69.5302 34.6434
v  -1.7782 100.1965 38.7313
v  -1.8407 102.3356 39.3733
v  -1.0896 100.2193 38.6793
v  -1.1417 102.3446 39.3734
v  10.1009 68.7471 34.5777
v  10.8951 69.5297 34.6522
v  17.2993 41.0334 30.5418
v  18.8124 41.6497 30.5418
v  24.8380 13.3451 30.5171
v  27.2051 13.3660 30.5169
v  28.5595 3.3673 31.1094
v  30.6614 4.3395 31.3022
v  26.5839 2.4535 -39.3734
v  21.4865 13.5497 -38.8685
v  23.0088 13.5637 -38.8483
v  27.8090 3.0202 -39.3539
v  13.5224 46.7881 -37.5876
v  15.0624 47.2217 -37.5700
v  7.5101 70.0545 -36.5670
v  8.2280 70.6493 -36.5370
v  0.5609 79.5955 -35.8030
v  0.0141 80.8034 -35.7539
v  -2.5141 79.5957 -35.8045
v  -1.9675 80.8036 -35.7548
v  -9.4633 70.0545 -36.5655
v  -10.1812 70.6493 -36.5353
v  -15.4754 46.7881 -37.5851
v  -17.0155 47.2217 -37.5672
v  -29.0554 5.8250 4.7925
v  -26.8332 13.4756 2.8109
v  -4.0353 86.4733 30.3039
v  1.7912 86.4269 30.0555
v  27.7758 3.0048 6.9743
v  23.9654 13.4655 2.8109
v  15.9564 43.2056 6.2496
v  8.6747 69.8474 9.2953
v  -1.0014 80.8549 10.7281
v  -1.8664 80.8549 10.7281
v  -11.5426 69.8474 9.2953
v  -18.8242 43.2056 6.2496
v  -21.2163 43.8472 7.1080
v  -29.1956 13.5031 7.0087
v  -13.6164 70.7189 7.1960
v  -3.2611 83.5326 7.2339
v  0.3932 83.5347 7.2339
v  10.7486 70.7189 7.1960
v  18.3484 43.8472 7.1080
v  26.3277 13.4863 7.0087
v  30.4424 4.2382 15.9353
v  30.1827 4.1181 7.1290
v  -31.7190 5.4576 23.5362
v  -32.5915 3.3492 6.8709
v  -31.1771 6.1632 7.0659
v  -30.1354 0.9399 -38.9553
v  30.6948 4.3549 27.4663
v  30.5547 4.2902 23.5332
v  -31.6333 5.7127 15.8911
v  -31.2790 2.0315 6.8158
v  -6.6466 28.1376 24.1388
v  -6.4499 54.9849 26.9746
v  -2.3102 28.1619 24.1442
v  -0.5121 28.1585 24.1441
v  3.8073 28.1339 24.1228
v  3.3398 55.0123 26.9653
v  -0.5074 61.6351 27.5132
v  -2.0071 61.6308 27.6828
v  -6.2074 54.8464 27.5793
v  -6.4017 28.3201 24.7772
v  -6.0034 28.7155 24.8196
v  -5.8129 54.7263 27.5668
v  -2.3138 28.3431 24.7821
v  -2.3146 28.7363 24.8231
v  -0.5142 28.3398 24.7805
v  -0.5126 28.7328 24.8235
v  3.5537 28.3173 24.7541
v  3.1514 28.7131 24.7950
v  3.0916 54.8812 27.5668
v  2.6981 54.7729 27.5508
v  -0.6532 61.3282 28.0971
v  -0.8828 60.9569 28.0562
v  -1.8791 61.3210 28.2687
v  -1.6673 60.9057 28.2297
v  -5.5641 54.7152 26.9470
v  -5.7522 29.0255 24.2335
v  -2.3119 29.0449 24.2365
v  -0.5085 29.0416 24.2353
v  2.9040 29.0239 24.2017
v  2.4562 54.7692 26.9277
v  -1.0223 60.7704 27.4156
v  -1.5332 60.7303 27.5911
v  -29.1866 -0.0129 -38.8883
v  -30.1339 0.9384 -38.9547
v  -32.8803 3.6183 23.2385
v  -32.7618 3.5090 15.6365
v  -31.6229 -1.3237 -38.8754
v  -31.6525 -0.1472 -38.9339
v  -33.5452 1.0650 6.8067
v  -31.6525 -0.1454 -38.9345
v  -34.2652 2.9775 23.2284
v  -34.5791 3.0507 30.8959
v  -33.5920 2.6942 6.8726
v  -33.9531 2.8653 15.6320
v  -34.5277 1.0705 30.9520
v  -33.5676 -1.3237 -38.8754
v  -33.5971 -0.1472 -38.9339
v  -35.4899 1.0650 6.8067
v  -33.5972 -0.1454 -38.9345
v  -36.2099 2.9775 23.2284
v  -36.5238 3.0507 30.8959
v  -35.5367 2.6942 6.8726
v  -35.8978 2.8653 15.6320
v  -36.4724 1.0705 30.9520
v  -35.5134 -0.2518 -38.8152
v  -35.5064 0.8763 -38.8733
v  -38.1966 2.6135 6.7875
v  -35.5063 0.8781 -38.8739
v  -39.1579 4.6548 23.1811
v  -39.6093 4.8214 30.8351
v  -38.1955 4.1776 6.8538
v  -38.7108 4.4518 15.5979
v  -39.6187 2.9219 30.8905
v  -39.1174 2.8132 22.3935
v  -38.6639 2.7148 14.7080
v  29.9135 1.6459 31.1094
v  31.7305 3.0817 31.3022
v  29.2647 1.1333 -39.3539
v  28.2056 0.2963 -39.3734
v  31.3167 2.7547 7.1290
v  31.7593 3.1045 27.4663
v  31.5412 2.9322 15.9353
v  29.2360 1.1106 6.9743
v  31.6383 3.0089 23.5332
v  31.8179 0.7248 31.1094
v  33.1032 2.6512 31.3022
v  31.3590 0.0370 -39.3539
v  30.6098 -1.0859 -39.3733
v  32.8105 2.2125 7.1290
v  33.1236 2.6818 27.4663
v  32.9693 2.4506 15.9353
v  31.3387 0.0066 6.9743
v  33.0380 2.5535 23.5332
v  34.3936 0.5980 31.1094
v  34.5348 2.9095 31.3022
v  34.3433 -0.2273 -39.3539
v  34.2610 -1.5746 -39.3733
v  34.5026 2.3831 7.1290
v  34.5370 2.9462 27.4663
v  34.5201 2.6688 15.9353
v  34.3410 -0.2638 6.9743
v  34.5276 2.7923 23.5332
v  39.6187 2.6812 31.0277
v  37.7960 4.0974 31.2970
v  35.8407 0.2467 -39.2970
v  36.9089 -0.5763 -39.3612
v  36.6931 3.1137 7.1632
v  37.5256 4.0147 27.4713
v  37.0204 3.5294 15.9583
v  38.7844 1.4938 6.9208
v  37.4004 3.8129 23.5424
v  39.0841 1.9204 15.5810
v  39.3435 2.2895 23.0748
v  39.4917 2.5005 27.3575
# 232 vertices

vn 0.7857 -0.5908 -0.1836
vn 0.5108 -0.2712 0.8158
vn 0.8613 -0.1390 -0.4887
vn 0.6624 -0.0917 -0.7435
vn 0.0723 -0.6774 -0.7321
vn 0.5967 -0.3965 -0.6977
vn 0.0460 -0.6618 -0.7482
vn 0.1804 -0.5942 -0.7839
vn 0.0385 -0.6921 -0.7208
vn -0.0200 -0.6972 -0.7166
vn -0.1804 -0.5945 -0.7836
vn -0.5970 -0.3971 -0.6971
vn -0.0438 -0.6617 -0.7485
vn -0.6727 -0.0951 -0.7338
vn 0.0225 -0.6445 -0.7643
vn -0.9637 -0.2553 -0.0783
vn -0.7272 -0.6546 -0.2065
vn 0.6949 -0.6953 0.1834
vn 0.0034 -0.7448 0.6673
vn 0.5811 -0.2401 0.7776
vn 0.5891 -0.1974 0.7836
vn 0.8464 -0.1907 -0.4972
vn 0.0036 -0.7432 0.6690
vn 0.6251 -0.3039 0.7189
vn 0.5821 0.5080 0.6349
vn 0.0017 0.6109 0.7917
vn 0.4488 -0.7883 0.4210
vn 0.6430 -0.2910 0.7085
vn 0.0078 0.6204 0.7842
vn -0.5780 0.5050 0.6410
vn -0.6661 -0.2773 0.6924
vn -0.2741 -0.7515 0.6001
vn -0.0055 -0.7438 0.6684
vn 0.0297 -0.7556 0.6544
vn -0.6103 -0.2505 0.7515
vn -0.6204 -0.2820 0.7319
vn -0.7089 -0.6184 0.3391
vn -0.6656 -0.2580 0.7003
vn 0.0012 -0.7362 0.6768
vn -0.0044 -0.7371 0.6758
vn 0.9484 0.3152 -0.0344
vn 0.9663 0.2574 0.0060
vn 0.9675 0.2528 0.0003
vn 0.9471 0.3207 -0.0135
vn 0.9058 0.4201 -0.0543
vn 0.9204 0.3879 0.0484
vn 0.4533 0.8488 -0.2721
vn 0.4768 0.7483 -0.4612
vn -0.4388 0.8513 -0.2876
vn -0.9075 0.4189 -0.0318
vn -0.9236 0.3809 0.0443
vn -0.5007 0.7361 -0.4555
vn -0.9663 0.2574 0.0060
vn -0.9658 0.2592 0.0008
vn -0.9675 0.2506 -0.0349
vn -0.9675 0.2525 -0.0138
vn 0.7130 -0.1808 -0.6774
vn 0.6756 -0.2816 -0.6814
vn -0.6131 0.2547 -0.7479
vn -0.6397 0.2107 -0.7391
vn 0.4689 -0.5976 0.6504
vn 0.6843 -0.3038 0.6629
vn -0.5923 0.2891 0.7521
vn -0.4009 0.5080 0.7624
vn 0.6805 -0.1474 0.7178
vn 0.5906 -0.2022 0.7813
vn -0.7132 0.1459 0.6856
vn -0.7036 0.2005 0.6818
vn 0.5775 -0.2885 0.7637
vn -0.6941 0.1229 0.7093
vn 0.2743 -0.3572 0.8929
vn -0.4232 0.7713 0.4754
vn -0.2459 -0.3843 0.8899
vn 0.4212 0.7699 0.4795
vn -0.5736 -0.2833 0.7686
vn 0.6685 0.1126 0.7352
vn -0.6230 -0.2164 0.7517
vn 0.7086 0.1518 0.6891
vn -0.6812 -0.2033 0.7033
vn 0.6735 0.2652 0.6900
vn -0.6456 -0.3574 0.6749
vn 0.5151 0.3425 0.7858
vn -0.6336 -0.3614 -0.6840
vn -0.7061 -0.2175 -0.6739
vn 0.6243 0.2469 -0.7412
vn 0.5575 0.3547 -0.7506
vn -0.6986 -0.1453 -0.7006
vn 0.6671 0.2059 -0.7159
vn -0.6112 -0.2421 -0.7535
vn 0.6345 0.3702 -0.6785
vn -0.3484 -0.5009 -0.7923
vn 0.3300 0.7035 -0.6294
vn 0.3464 -0.5047 -0.7907
vn -0.3244 0.7028 -0.6331
vn 0.6168 -0.2459 -0.7477
vn -0.6285 0.3683 -0.6851
vn 0.7053 -0.1474 -0.6934
vn -0.6602 0.2045 -0.7227
vn 0.9201 -0.3899 0.0372
vn 0.9622 -0.2646 0.0642
vn 0.4010 -0.3853 0.8311
vn -0.4442 -0.3922 0.8055
vn -0.8711 -0.4908 0.0169
vn -0.9542 -0.2945 0.0525
vn -0.9647 -0.2631 0.0118
vn -0.8774 -0.4789 0.0294
vn -0.3918 -0.9072 -0.1533
vn 0.3939 -0.9069 -0.1497
vn 0.8770 -0.4790 0.0381
vn 0.9642 -0.2641 0.0217
vn -0.9643 0.2633 -0.0290
vn -0.9633 0.2565 -0.0787
vn -0.8832 0.4628 -0.0762
vn -0.4378 0.8893 -0.1323
vn 0.4352 0.8914 -0.1267
vn 0.8835 0.4635 -0.0670
vn 0.9645 0.2633 -0.0192
vn 0.9460 0.3169 -0.0680
vn 0.8627 0.5052 -0.0243
vn 0.8559 0.5153 -0.0441
vn -0.9226 0.3858 -0.0038
vn -0.7444 0.6658 -0.0514
vn -0.9328 0.3566 -0.0518
vn -0.3723 0.2998 -0.8784
vn 0.2217 0.9751 -0.0091
vn 0.8589 0.5114 -0.0276
vn -0.9387 0.3444 -0.0145
vn 0.6695 -0.7419 0.0361
vn -0.1892 -0.2914 0.9377
vn -0.4566 0.0465 0.8885
vn 0.0007 -0.6442 0.7648
vn -0.0006 -0.6438 0.7652
vn 0.1846 -0.2855 0.9404
vn 0.4627 0.0415 0.8855
vn 0.2234 0.2220 0.9491
vn -0.1432 0.2743 0.9509
vn -0.5925 0.0976 0.7996
vn -0.4579 -0.5322 0.7121
vn 0.1905 0.0878 0.9778
vn 0.4525 -0.2313 0.8613
vn 0.0011 -0.6425 0.7663
vn -0.0014 0.4727 0.8812
vn 0.0005 -0.6442 0.7649
vn 0.0050 0.4698 0.8828
vn 0.4557 -0.5280 0.7166
vn -0.1894 0.0928 0.9775
vn 0.5800 0.0842 0.8102
vn -0.4790 -0.2134 0.8515
vn 0.3599 0.4634 0.8098
vn -0.0855 -0.5048 0.8590
vn -0.2594 0.4941 0.8298
vn 0.2968 -0.3769 0.8774
vn 0.9353 -0.3071 0.1757
vn 0.6685 0.6420 0.3755
vn -0.0018 0.9503 0.3112
vn 0.0050 0.9515 0.3075
vn -0.6739 0.6375 0.3734
vn -0.9484 -0.2791 0.1502
vn -0.4511 -0.8858 0.1091
vn 0.5181 -0.8440 0.1385
vn 0.4355 -0.4110 0.8009
vn 0.0043 -0.0402 -0.9992
vn -0.4148 -0.5695 -0.7096
vn -0.6586 0.7522 -0.0182
vn -0.7138 0.6999 -0.0240
vn 0.0051 -0.7222 -0.6916
vn 0.0389 -0.1519 -0.9876
vn 0.2005 -0.9791 0.0341
vn 0.7246 0.2169 0.6541
vn -0.1196 0.4105 -0.9040
vn -0.2149 0.9764 -0.0207
vn -0.1302 0.6660 0.7345
vn -0.2863 0.9568 -0.0512
vn -0.2450 0.9691 -0.0267
vn 0.1088 -0.7208 0.6845
vn -0.2145 -0.9767 -0.0074
vn -0.0532 -0.1589 -0.9859
vn -0.2584 -0.9659 0.0150
vn -0.1879 -0.7266 -0.6609
vn 0.0767 0.4570 -0.8862
vn 0.2558 0.9667 -0.0012
vn 0.1633 0.6268 0.7619
vn 0.2527 0.9671 -0.0289
vn 0.2540 0.9672 -0.0061
vn -0.2068 -0.7230 0.6592
vn -0.9155 -0.3994 0.0495
vn 0.6482 -0.1814 -0.7395
vn -0.8686 -0.4945 -0.0330
vn -0.8080 0.1831 -0.5600
vn -0.4095 0.6291 -0.6607
vn -0.4989 0.8652 -0.0503
vn -0.4397 0.7293 0.5242
vn -0.4975 0.8643 -0.0732
vn -0.5004 0.8641 -0.0545
vn -0.7059 -0.3792 0.5983
vn -0.8647 -0.5003 -0.0446
vn -0.4794 -0.5951 0.6449
vn 0.3282 0.4850 0.8106
vn 0.4101 0.4880 -0.7705
vn -0.4984 -0.5632 -0.6591
vn 0.5740 0.8178 -0.0426
vn 0.5493 0.8355 -0.0141
vn 0.5627 0.8263 -0.0233
vn -0.6430 -0.7652 0.0314
vn 0.5580 0.8294 -0.0264
vn -0.1891 -0.7374 0.6485
vn 0.0460 0.5923 0.8044
vn 0.1819 0.6173 -0.7654
vn -0.2417 -0.7105 -0.6609
vn 0.1226 0.9917 -0.0397
vn 0.0558 0.9984 -0.0128
vn 0.0920 0.9955 -0.0215
vn -0.2827 -0.9587 0.0306
vn 0.0785 0.9966 -0.0242
vn 0.1280 -0.7505 0.6484
vn -0.1671 0.6266 0.7612
vn -0.0515 0.6350 -0.7708
vn 0.0868 -0.7543 -0.6508
vn -0.2094 0.9769 -0.0428
vn -0.2614 0.9651 -0.0141
vn -0.2335 0.9721 -0.0233
vn 0.1430 -0.9892 0.0315
vn -0.2472 0.9686 -0.0264
vn 0.8554 -0.1042 0.5074
vn 0.1594 0.7446 0.6482
vn 0.1346 0.7857 -0.6038
vn 0.8052 -0.1384 -0.5766
vn 0.1618 0.9851 -0.0580
vn 0.1475 0.9881 -0.0432
vn 0.1577 0.9863 -0.0485
vn 0.9897 -0.1399 -0.0305
vn 0.1579 0.9862 -0.0504
vn 0.9899 -0.1389 -0.0274
# 233 vertex normals

vt 1.0000 0.0000 0.0000
vt 1.0000 0.5000 0.0000
vt 1.0000 1.0000 0.0000
vt 0.8333 1.0000 0.0000
vt 0.8333 0.0000 0.0000
vt 0.6667 1.0000 0.0000
vt 0.6667 0.0000 0.0000
vt 0.5081 1.0000 0.0000
vt 0.5215 0.0000 0.0000
vt 0.4785 0.0000 0.0000
vt 0.4919 1.0000 0.0000
vt 0.3333 1.0000 0.0000
vt 0.3333 0.0000 0.0000
vt 0.1667 1.0000 0.0000
vt 0.1667 0.0000 0.0000
vt -0.0000 1.0000 0.0000
vt -0.0000 0.0000 0.0000
vt 0.0000 0.0000 0.0000
vt 0.0000 1.0000 0.0000
vt 0.0000 0.5000 0.0000
vt 0.4785 1.0000 0.0000
vt 0.5215 1.0000 0.0000
vt 0.4919 0.0000 0.0000
vt 0.5081 0.0000 0.0000
vt 0.4911 0.0000 0.0000
vt 0.9863 1.0000 0.0000
vt 0.4879 1.0000 0.0000
vt 0.4878 1.0000 0.0000
vt 0.9792 1.0000 0.0000
vt 0.0180 1.0000 0.0000
vt 0.0362 1.0000 0.0000
vt 0.0259 0.0000 0.0000
vt 0.0260 0.0000 0.0000
vt 0.5000 0.0000 0.0000
vt 0.4902 0.0000 0.0000
vt 0.5000 1.0000 0.0000
vt 0.0145 0.0000 0.0000
vt 0.0000 0.4843 0.0000
vt 0.0146 0.0000 0.0000
vt 0.4877 0.8743 0.0000
vt 0.9804 0.0000 0.0000
vt 0.9822 0.0000 0.0000
vt 0.0000 0.7138 0.0000
vt 0.4871 0.2180 0.0000
vt 0.9902 0.0000 0.0000
vt 0.9823 0.0000 0.0000
vt 0.9824 0.0000 0.0000
vt 0.9754 0.7486 0.0000
vt 0.9741 0.4360 0.0000
vt 0.9877 0.6475 0.0000
vt 0.9889 0.3286 0.0000
vt 0.0157 0.3592 0.0000
vt 0.0168 0.6701 0.0000
vt 0.0174 0.8478 0.0000
# 54 texture coords

o roof1
g roof1
usemtl 03___Default
s 1
f 1/1/1 2/2/2 3/3/3 4/4/4 5/5/5 
f 5/5/5 4/4/4 6/6/6 7/7/7 
f 7/7/7 6/6/6 8/8/8 9/9/9 
f 10/10/10 11/11/11 12/12/12 13/13/13 
f 13/13/13 12/12/12 14/14/14 15/15/15 
f 15/15/15 14/14/14 16/16/16 17/17/17 
f 18/18/18 19/15/19 20/14/20 21/19/21 22/20/22 
f 19/15/19 23/13/23 24/12/24 20/14/20 
f 25/13/25 26/10/26 27/11/27 28/12/28 
f 29/9/29 30/7/30 31/6/31 32/8/32 
f 33/7/33 34/5/34 35/4/35 36/6/36 
f 34/5/34 37/1/37 38/3/38 35/4/35 
s 2
f 1/18/1 5/15/5 19/14/19 18/19/18 
f 5/15/5 7/13/7 23/12/23 19/14/19 
f 7/13/7 9/10/9 39/21/39 23/12/23 
f 10/9/10 13/7/13 33/6/33 40/22/40 
f 13/7/13 15/5/15 34/4/34 33/6/33 
f 15/5/15 17/1/17 37/3/37 34/4/34 
f 41/18/41 42/15/42 43/14/43 44/19/44 
f 42/15/42 45/13/45 46/12/46 43/14/43 
f 45/13/45 47/23/47 48/11/48 46/12/46 
f 49/24/49 50/7/50 51/6/51 52/8/52 
f 50/7/50 53/5/53 54/4/54 51/6/51 
f 53/5/53 55/1/55 56/3/56 54/4/54 
s 1
f 8/8/8 11/11/11 10/10/10 9/9/9 
f 26/10/26 29/9/29 32/8/32 27/11/27 
s 2
f 9/10/9 10/9/10 40/22/40 39/21/39 
s 4
f 47/23/47 49/24/49 52/8/52 48/11/48 
s 1
f 57/18/57 58/25/58 59/25/59 60/18/60 
f 61/26/61 62/27/62 63/28/63 64/29/64 
f 65/3/65 66/4/66 67/4/67 68/3/68 
f 66/4/66 69/6/69 70/6/70 67/4/67 
f 69/6/69 71/8/71 72/8/72 70/6/70 
f 71/8/71 73/11/73 74/11/74 72/8/72 
f 73/11/73 75/12/75 76/12/76 74/11/74 
f 75/12/75 77/14/77 78/14/78 76/12/76 
f 77/14/77 79/19/79 80/19/80 78/14/78 
f 79/3/79 81/30/81 82/31/82 80/3/80 
f 83/32/83 84/1/84 85/1/85 86/33/86 
f 84/18/84 87/15/87 88/15/88 85/18/85 
f 87/15/87 89/13/89 90/13/90 88/15/88 
f 89/13/89 91/23/91 92/23/92 90/13/90 
f 91/23/91 93/24/93 94/24/94 92/23/92 
f 93/24/93 95/7/95 96/7/96 94/24/94 
f 95/7/95 97/5/97 98/5/98 96/7/96 
f 97/5/97 57/1/57 60/1/60 98/5/98 
s 4
f 3/18/3 2/34/2 99/35/99 100/18/100 
f 18/3/18 22/36/22 62/27/62 61/26/61 
f 21/3/21 20/4/20 66/4/66 65/3/65 
f 20/4/20 24/6/24 69/6/69 66/4/66 
f 24/6/24 101/8/101 71/8/71 69/6/69 
s 1
f 101/8/101 102/11/102 73/11/73 71/8/71 
s 4
f 102/11/102 36/12/36 75/12/75 73/11/73 
f 36/12/36 35/14/35 77/14/77 75/12/75 
f 35/14/35 38/19/38 79/19/79 77/14/77 
f 38/3/38 37/19/37 81/30/81 79/3/79 
f 17/18/17 103/37/103 81/30/81 37/19/37 
f 17/18/17 16/1/16 104/1/104 103/37/103 
f 16/18/16 14/15/14 105/15/105 104/18/104 
f 14/15/14 12/13/12 106/13/106 105/15/105 
f 12/13/12 11/23/11 107/23/107 106/13/106 
f 11/23/11 8/24/8 108/24/108 107/23/107 
f 8/24/8 6/7/6 109/7/109 108/24/108 
f 6/7/6 4/5/4 110/5/110 109/7/109 
f 4/5/4 3/1/3 100/1/100 110/5/110 
s 2
f 55/1/55 53/5/53 111/5/111 112/1/112 
f 53/5/53 50/7/50 113/7/113 111/5/111 
f 50/7/50 49/24/49 114/24/114 113/7/113 
s 4
f 49/24/49 47/23/47 115/23/115 114/24/114 
s 2
f 47/23/47 45/13/45 116/13/116 115/23/115 
f 45/13/45 42/15/42 117/15/117 116/13/116 
f 42/15/42 41/18/41 118/18/118 117/15/117 
f 41/1/41 119/38/119 120/39/120 118/1/118 
f 44/19/44 43/14/43 78/14/78 80/19/80 
f 43/14/43 46/12/46 76/12/76 78/14/78 
f 46/12/46 48/11/48 74/11/74 76/12/76 
s 4
f 48/11/48 52/8/52 72/8/72 74/11/74 
s 2
f 52/8/52 51/6/51 70/6/70 72/8/72 
f 51/6/51 54/4/54 67/4/67 70/6/70 
f 54/4/54 56/3/56 68/3/68 67/4/67 
f 56/19/56 121/40/121 63/28/63 68/19/68 
f 122/41/122 123/35/123 59/25/59 124/42/124 
f 112/1/112 111/5/111 98/5/98 60/1/60 
f 111/5/111 113/7/113 96/7/96 98/5/98 
f 113/7/113 114/24/114 94/24/94 96/7/96 
s 4
f 114/24/114 115/23/115 92/23/92 94/24/94 
s 2
f 115/23/115 116/13/116 90/13/90 92/23/92 
f 116/13/116 117/15/117 88/15/88 90/13/90 
f 117/15/117 118/18/118 85/18/85 88/15/88 
f 118/1/118 120/39/120 86/33/86 85/1/85 
s 4
f 103/37/103 104/1/104 84/1/84 83/32/83 
f 104/18/104 105/15/105 87/15/87 84/18/84 
f 105/15/105 106/13/106 89/13/89 87/15/87 
f 106/13/106 107/23/107 91/23/91 89/13/89 
f 107/23/107 108/24/108 93/24/93 91/23/91 
f 108/24/108 109/7/109 95/7/95 93/24/93 
f 109/7/109 110/5/110 97/5/97 95/7/95 
f 110/5/110 100/1/100 57/1/57 97/5/97 
f 100/18/100 99/35/99 58/25/58 57/18/57 
s 2
f 44/3/44 80/3/80 82/31/82 125/19/125 126/43/126 
f 41/1/41 44/3/44 126/43/126 119/38/119 
f 56/19/56 55/18/55 127/44/127 121/40/121 
f 55/18/55 112/18/112 123/35/123 127/44/127 
s 4
f 1/1/1 18/3/18 61/26/61 128/45/128 
s 1
f 24/12/24 23/13/23 129/13/129 130/12/130 
f 23/13/23 39/10/39 131/10/131 129/13/129 
f 39/10/39 40/9/40 132/9/132 131/10/131 
f 40/9/40 33/7/33 133/7/133 132/9/132 
f 33/7/33 36/6/36 134/6/134 133/7/133 
f 36/6/36 102/8/102 135/8/135 134/6/134 
f 102/8/102 101/11/101 136/11/136 135/8/135 
f 101/11/101 24/12/24 130/12/130 136/11/136 
f 137/12/137 138/13/138 139/13/139 140/12/140 
f 138/13/138 141/10/141 142/10/142 139/13/139 
f 141/10/141 143/9/143 144/9/144 142/10/142 
f 143/9/143 145/7/145 146/7/146 144/9/144 
f 145/7/145 147/6/147 148/6/148 146/7/146 
f 147/6/147 149/8/149 150/8/150 148/6/148 
f 149/8/149 151/11/151 152/11/152 150/8/150 
f 151/11/151 137/12/137 140/12/140 152/11/152 
s 2
f 153/12/153 154/13/154 25/13/25 28/12/28 
s 4
f 154/13/154 155/10/155 26/10/26 25/13/25 
f 155/10/155 156/9/156 29/9/29 26/10/26 
f 156/9/156 157/7/157 30/7/30 29/9/29 
s 8
f 157/7/157 158/6/158 31/6/31 30/7/30 
f 158/6/158 159/8/159 32/8/32 31/6/31 
s 2
f 159/8/159 160/11/160 27/11/27 32/8/32 
f 160/11/160 153/12/153 28/12/28 27/11/27 
f 130/12/130 129/13/129 138/13/138 137/12/137 
s 4
f 129/13/129 131/10/131 141/10/141 138/13/138 
f 131/10/131 132/9/132 143/9/143 141/10/141 
f 132/9/132 133/7/133 145/7/145 143/9/143 
s 2
f 133/7/133 134/6/134 147/6/147 145/7/145 
f 134/6/134 135/8/135 149/8/149 147/6/147 
s 4
f 135/8/135 136/11/136 151/11/151 149/8/149 
s 2
f 136/11/136 130/12/130 137/12/137 151/11/151 
f 154/13/154 153/12/153 140/12/140 139/13/139 
f 153/12/153 160/11/160 152/11/152 140/12/140 
f 160/11/160 159/8/159 150/8/150 152/11/152 
s 8
f 159/8/159 158/6/158 148/6/148 150/8/150 
f 158/6/158 157/7/157 146/7/146 148/6/148 
s 4
f 157/7/157 156/9/156 144/9/144 146/7/146 
f 156/9/156 155/10/155 142/10/142 144/9/144 
f 155/10/155 154/13/154 139/13/139 142/10/142 
s 1
f 58/25/58 161/46/161 161/46/162 162/47/163 124/42/124 59/25/59 
f 62/27/62 65/19/65 68/19/68 63/28/63 
s 4
f 2/34/2 1/1/1 128/45/128 99/35/99 
f 22/36/22 21/19/21 65/19/65 62/27/62 
s 2
f 121/40/121 163/48/164 64/29/64 63/28/63 
f 123/35/123 112/18/112 60/18/60 59/25/59 
s 4
f 99/35/99 128/45/128 161/46/161 58/25/58 
s 2
f 127/44/127 164/49/165 163/48/164 121/40/121 
f 123/35/123 122/41/122 164/49/165 127/44/127 
s 1
f 162/47/163 161/46/162 165/46/166 166/47/167 
s 4
f 161/46/161 128/45/128 167/45/168 165/46/169 
s 1
f 161/46/162 161/46/161 165/46/169 165/46/166 
f 124/42/124 162/47/163 166/47/167 168/42/170 
s 2
f 64/29/64 163/48/164 169/48/171 170/29/172 
f 122/41/122 124/42/124 168/42/170 171/41/173 
f 163/48/164 164/49/165 172/49/174 169/48/171 
s 4
f 128/45/128 61/26/61 173/26/175 167/45/168 
s 2
f 164/49/165 122/41/122 171/41/173 172/49/174 
s 1
f 61/26/61 64/29/64 170/29/172 173/26/175 
f 166/47/167 165/46/166 174/46/176 175/47/177 
s 4
f 165/46/169 167/45/168 176/45/178 174/46/179 
s 1
f 165/46/166 165/46/169 174/46/179 174/46/176 
f 168/42/170 166/47/167 175/47/177 177/42/180 
s 2
f 170/29/172 169/48/171 178/48/181 179/29/182 
f 171/41/173 168/42/170 177/42/180 180/41/183 
f 169/48/171 172/49/174 181/49/184 178/48/181 
s 4
f 167/45/168 173/26/175 182/26/185 176/45/178 
s 2
f 172/49/174 171/41/173 180/41/183 181/49/184 
s 1
f 173/26/175 170/29/172 179/29/182 182/26/185 
f 175/47/177 174/46/176 183/46/186 184/47/187 
s 4
f 174/46/179 176/45/178 185/45/188 183/46/189 
s 1
f 174/46/176 174/46/179 183/46/189 183/46/186 
f 177/42/180 175/47/177 184/47/187 186/42/190 
s 2
f 179/29/182 178/48/181 187/48/191 188/29/192 
f 180/41/183 177/42/180 186/42/190 189/41/193 
f 178/48/181 181/49/184 190/49/194 187/48/191 
s 4
f 176/45/178 182/26/185 191/26/195 192/50/196 
s 2
f 181/49/184 180/41/183 189/41/193 190/49/194 
s 1
f 182/26/185 179/29/182 188/29/192 191/26/195 
s 8
f 192/50/196 191/26/195 188/29/192 187/48/191 
f 187/48/191 190/49/194 193/51/196 192/50/196 
f 190/49/194 189/41/193 185/45/188 193/51/196 
f 189/41/193 186/42/190 184/47/187 183/46/186 183/46/189 185/45/188 
s 4
f 193/51/196 185/45/188 176/45/178 
f 192/50/196 193/51/196 176/45/178 
s 1
f 82/31/82 81/30/81 194/30/197 195/31/198 
f 83/32/83 86/33/86 196/33/199 197/32/200 
s 2
f 86/33/86 120/39/120 198/39/201 196/33/199 
f 125/19/125 82/31/82 195/31/198 199/19/202 
f 120/39/120 119/38/119 200/38/203 198/39/201 
s 4
f 103/37/103 83/32/83 197/32/200 201/37/204 
s 2
f 126/43/126 125/19/125 199/19/202 202/43/205 
f 119/38/119 126/43/126 202/43/205 200/38/203 
s 4
f 81/30/81 103/37/103 201/37/204 194/30/197 
s 1
f 195/31/198 194/30/197 203/30/206 204/31/207 
f 197/32/200 196/33/199 205/33/208 206/32/209 
s 2
f 196/33/199 198/39/201 207/39/210 205/33/208 
f 199/19/202 195/31/198 204/31/207 208/19/211 
f 198/39/201 200/38/203 209/38/212 207/39/210 
s 4
f 201/37/204 197/32/200 206/32/209 210/37/213 
s 2
f 202/43/205 199/19/202 208/19/211 211/43/214 
f 200/38/203 202/43/205 211/43/214 209/38/212 
s 4
f 194/30/197 201/37/204 210/37/213 203/30/206 
s 1
f 204/31/207 203/30/206 212/30/215 213/31/216 
f 206/32/209 205/33/208 214/33/217 215/32/218 
s 2
f 205/33/208 207/39/210 216/39/219 214/33/217 
f 208/19/211 204/31/207 213/31/216 217/19/220 
f 207/39/210 209/38/212 218/38/221 216/39/219 
s 4
f 210/37/213 206/32/209 215/32/218 219/37/222 
s 2
f 211/43/214 208/19/211 217/19/220 220/43/223 
f 209/38/212 211/43/214 220/43/223 218/38/221 
s 4
f 203/30/206 210/37/213 219/37/222 212/30/215 
s 1
f 213/31/216 212/30/215 221/30/224 222/31/225 
f 215/32/218 214/33/217 223/33/226 224/32/227 
s 2
f 214/33/217 216/39/219 225/39/228 223/33/226 
f 217/19/220 213/31/216 222/31/225 226/19/229 
f 216/39/219 218/38/221 227/38/230 225/39/228 
s 4
f 219/37/222 215/32/218 224/32/227 228/37/231 
s 2
f 220/43/223 217/19/220 226/19/229 229/43/232 
f 218/38/221 220/43/223 229/43/232 227/38/230 
s 4
f 219/37/222 228/37/231 230/52/233 
s 8
f 228/37/231 224/32/227 223/33/226 225/39/228 
f 225/39/228 227/38/230 230/52/233 228/37/231 
f 227/38/230 229/43/232 231/53/233 230/52/233 
f 229/43/232 226/19/229 232/54/233 231/53/233 
f 226/19/229 222/31/225 221/30/224 232/54/233 
s 4
f 230/52/233 231/53/233 219/37/222 
f 231/53/233 232/54/233 219/37/222 
f 232/54/233 221/30/224 212/30/215 219/37/222 
# 228 polygons - 5 triangles

