# 3ds Max Wavefront OBJ Exporter v0.97b - (c)2007 guruware
# File Created: 01.11.2018 20:19:22

mtllib Tree_Twig.mtl

#
# object tree_twig1
#

v  -0.8205 -0.0000 -0.7259
v  -0.7581 -0.0000 -0.4118
v  -0.7613 0.4514 -0.4105
v  -0.8240 0.4514 -0.7259
v  -0.5802 -0.0000 -0.1456
v  -0.5827 0.4514 -0.1432
v  -0.3140 -0.0000 0.0322
v  -0.3153 0.4514 0.0354
v  0.0000 0.0000 0.0947
v  0.0000 0.4514 0.0982
v  0.3140 0.0000 0.0322
v  0.3153 0.4514 0.0354
v  0.5802 0.0000 -0.1456
v  0.5827 0.4514 -0.1432
v  0.7581 0.0000 -0.4118
v  0.7613 0.4514 -0.4105
v  0.8205 -0.0000 -0.7259
v  0.8240 0.4514 -0.7259
v  0.7581 -0.0000 -1.0399
v  0.7613 0.4514 -1.0412
v  0.5802 -0.0000 -1.3061
v  0.5827 0.4514 -1.3085
v  0.3140 -0.0000 -1.4839
v  0.3153 0.4514 -1.4872
v  -0.0000 -0.0000 -1.5464
v  -0.0000 0.4514 -1.5499
v  -0.3140 -0.0000 -1.4839
v  -0.3153 0.4514 -1.4872
v  -0.5802 -0.0000 -1.3061
v  -0.5827 0.4514 -1.3085
v  -0.7581 -0.0000 -1.0399
v  -0.7613 0.4514 -1.0412
v  0.8271 3.9211 -0.7259
v  0.8796 3.9211 -0.4618
v  1.0955 7.2989 -0.5699
v  1.0655 7.2910 -0.7259
v  1.0292 3.9211 -0.2380
v  1.1809 7.3215 -0.4376
v  1.2530 3.9211 -0.0884
v  1.3086 7.3554 -0.3492
v  1.5171 3.9211 -0.0359
v  1.4594 7.3953 -0.3181
v  1.7811 3.9211 -0.0884
v  1.6102 7.4353 -0.3491
v  2.0050 3.9211 -0.2380
v  1.7381 7.4691 -0.4375
v  2.1546 3.9211 -0.4618
v  1.8236 7.4918 -0.5698
v  2.2071 3.9211 -0.7259
v  1.8536 7.4997 -0.7259
v  2.1546 3.9211 -0.9899
v  1.8236 7.4918 -0.8819
v  2.0050 3.9211 -1.2138
v  1.7381 7.4691 -1.0142
v  1.7811 3.9211 -1.3633
v  1.6102 7.4353 -1.1026
v  1.5171 3.9211 -1.4159
v  1.4594 7.3953 -1.1336
v  1.2530 3.9211 -1.3633
v  1.3086 7.3554 -1.1025
v  1.0292 3.9211 -1.2138
v  1.1809 7.3215 -1.0141
v  0.8796 3.9211 -0.9899
v  1.0955 7.2989 -0.8818
v  1.0320 8.6325 -0.7259
v  1.0531 8.6324 -0.6196
v  2.4959 11.8319 -0.6859
v  2.4880 11.8318 -0.7259
v  1.1134 8.6322 -0.5295
v  2.5186 11.8319 -0.6520
v  1.2035 8.6319 -0.4693
v  2.5524 11.8319 -0.6293
v  1.3099 8.6315 -0.4481
v  2.5924 11.8320 -0.6214
v  1.4163 8.6311 -0.4692
v  2.6324 11.8321 -0.6293
v  1.5065 8.6308 -0.5294
v  2.6662 11.8321 -0.6520
v  1.5668 8.6306 -0.6196
v  2.6889 11.8322 -0.6859
v  1.5880 8.6305 -0.7259
v  2.6968 11.8322 -0.7259
v  1.5668 8.6306 -0.8322
v  2.6889 11.8322 -0.7658
v  1.5065 8.6308 -0.9223
v  2.6662 11.8321 -0.7997
v  1.4163 8.6311 -0.9825
v  2.6324 11.8321 -0.8224
v  1.3099 8.6315 -1.0036
v  2.5924 11.8320 -0.8303
v  1.2035 8.6319 -0.9825
v  2.5524 11.8319 -0.8224
v  1.1134 8.6322 -0.9222
v  2.5186 11.8319 -0.7997
v  1.0531 8.6324 -0.8321
v  2.4959 11.8319 -0.7658
v  -0.7273 0.8760 -0.4155
v  -0.7891 0.8759 -0.7259
v  -0.5514 0.8763 -0.1524
v  -0.2882 0.8768 0.0233
v  0.0221 0.8773 0.0849
v  0.3324 0.8779 0.0230
v  0.5953 0.8784 -0.1528
v  0.7710 0.8788 -0.4157
v  0.8327 0.8789 -0.7259
v  0.7710 0.8788 -1.0360
v  0.5953 0.8784 -1.2989
v  0.3324 0.8779 -1.4747
v  0.0221 0.8773 -1.5366
v  -0.2882 0.8768 -1.4750
v  -0.5514 0.8763 -1.2993
v  -0.7273 0.8760 -1.0362
v  2.6705 12.0687 -0.7259
# 113 vertices

vn -1.0000 -0.0077 0.0000
vn -0.9239 -0.0077 0.3827
vn -0.9238 0.0351 0.3813
vn -0.9993 0.0370 0.0000
vn -0.7071 -0.0077 0.7071
vn -0.7084 0.0297 0.7052
vn -0.3827 -0.0077 0.9239
vn -0.3853 0.0216 0.9225
vn 0.0000 -0.0077 1.0000
vn -0.0032 0.0119 0.9999
vn 0.3827 -0.0077 0.9239
vn 0.3799 0.0021 0.9250
vn 0.7071 -0.0077 0.7071
vn 0.7055 -0.0063 0.7087
vn 0.9239 -0.0077 0.3827
vn 0.9233 -0.0120 0.3838
vn 1.0000 -0.0077 -0.0000
vn 0.9999 -0.0140 -0.0000
vn 0.9239 -0.0077 -0.3827
vn 0.9233 -0.0120 -0.3838
vn 0.7071 -0.0077 -0.7071
vn 0.7055 -0.0063 -0.7087
vn 0.3827 -0.0077 -0.9239
vn 0.3799 0.0021 -0.9250
vn -0.0000 -0.0077 -1.0000
vn -0.0032 0.0119 -0.9999
vn -0.3827 -0.0077 -0.9239
vn -0.3853 0.0216 -0.9225
vn -0.7071 -0.0077 -0.7071
vn -0.7084 0.0297 -0.7052
vn -0.9239 -0.0077 -0.3827
vn -0.9238 0.0351 -0.3813
vn -0.9592 0.2827 0.0000
vn -0.8863 0.2661 0.3790
vn -0.9280 0.0291 0.3716
vn -0.9997 0.0245 -0.0000
vn -0.6754 0.2168 0.7048
vn -0.7201 0.0425 0.6926
vn -0.3532 0.1389 0.9252
vn -0.4010 0.0637 0.9139
vn 0.0296 0.0462 0.9985
vn -0.0169 0.0901 0.9958
vn 0.4065 -0.0407 0.9128
vn 0.3701 0.1178 0.9215
vn 0.7164 -0.1061 0.6896
vn 0.6961 0.1422 0.7037
vn 0.9179 -0.1447 0.3696
vn 0.9114 0.1588 0.3796
vn 0.9875 -0.1573 -0.0000
vn 0.9864 0.1646 -0.0000
vn 0.9179 -0.1447 -0.3696
vn 0.9114 0.1588 -0.3796
vn 0.7164 -0.1061 -0.6896
vn 0.6961 0.1422 -0.7037
vn 0.4065 -0.0407 -0.9128
vn 0.3701 0.1178 -0.9215
vn 0.0296 0.0462 -0.9985
vn -0.0169 0.0901 -0.9958
vn -0.3532 0.1389 -0.9252
vn -0.4010 0.0637 -0.9139
vn -0.6754 0.2168 -0.7048
vn -0.7201 0.0425 -0.6926
vn -0.8863 0.2661 -0.3790
vn -0.9280 0.0291 -0.3716
vn -0.9809 0.1945 0.0000
vn -0.9112 0.1882 0.3666
vn -0.8032 0.4909 0.3376
vn -0.8604 0.5096 -0.0000
vn -0.7105 0.1685 0.6832
vn -0.6309 0.4344 0.6428
vn -0.4036 0.1345 0.9050
vn -0.3501 0.3419 0.8721
vn -0.0305 0.0877 0.9957
vn 0.0093 0.2229 0.9748
vn 0.3550 0.0354 0.9342
vn 0.3865 0.0973 0.9171
vn 0.6904 -0.0112 0.7233
vn 0.7090 -0.0111 0.7052
vn 0.9181 -0.0423 0.3941
vn 0.9209 -0.0831 0.3807
vn 0.9986 -0.0530 -0.0000
vn 0.9941 -0.1082 -0.0000
vn 0.9181 -0.0423 -0.3941
vn 0.9209 -0.0831 -0.3807
vn 0.6904 -0.0112 -0.7233
vn 0.7090 -0.0111 -0.7052
vn 0.3550 0.0354 -0.9342
vn 0.3865 0.0973 -0.9171
vn -0.0305 0.0877 -0.9957
vn 0.0093 0.2229 -0.9748
vn -0.4036 0.1345 -0.9050
vn -0.3501 0.3419 -0.8721
vn -0.7105 0.1685 -0.6832
vn -0.6309 0.4344 -0.6428
vn -0.9112 0.1882 -0.3666
vn -0.8032 0.4909 -0.3376
vn -0.8947 0.2605 0.3629
vn -0.9616 0.2746 0.0000
vn -0.7001 0.2176 0.6800
vn -0.3975 0.1455 0.9060
vn -0.0242 0.0488 0.9985
vn 0.3603 -0.0565 0.9311
vn 0.6865 -0.1473 0.7120
vn 0.9003 -0.2061 0.3833
vn 0.9741 -0.2260 -0.0000
vn 0.9003 -0.2061 -0.3833
vn 0.6865 -0.1473 -0.7120
vn 0.3603 -0.0565 -0.9311
vn -0.0242 0.0488 -0.9985
vn -0.3975 0.1455 -0.9060
vn -0.7001 0.2176 -0.6800
vn -0.8947 0.2605 -0.3629
vn 0.2706 0.9627 -0.0000
# 113 vertex normals

vt 0.7500 0.0000 1.0000
vt 0.8125 0.0000 1.0000
vt 0.8125 0.0676 1.0000
vt 0.7500 0.0676 1.0000
vt 0.8750 0.0000 1.0000
vt 0.8750 0.0676 1.0000
vt 0.9375 0.0000 1.0000
vt 0.9375 0.0676 1.0000
vt -0.0625 0.0000 1.0000
vt 0.0000 0.0000 1.0000
vt 0.0000 0.0676 1.0000
vt -0.0625 0.0676 1.0000
vt 0.0625 0.0000 1.0000
vt 0.0625 0.0676 1.0000
vt 0.1250 0.0000 1.0000
vt 0.1250 0.0676 1.0000
vt 0.1875 0.0000 1.0000
vt 0.1875 0.0676 1.0000
vt 0.2500 0.0000 1.0000
vt 0.2500 0.0676 1.0000
vt 0.3125 0.0000 1.0000
vt 0.3125 0.0676 1.0000
vt 0.3750 0.0000 1.0000
vt 0.3750 0.0676 1.0000
vt 0.4375 0.0000 1.0000
vt 0.4375 0.0676 1.0000
vt 0.5000 0.0000 1.0000
vt 0.5000 0.0676 1.0000
vt 0.5625 0.0000 1.0000
vt 0.5625 0.0676 1.0000
vt 0.6250 0.0000 1.0000
vt 0.6250 0.0676 1.0000
vt 0.6875 0.0000 1.0000
vt 0.6875 0.0676 1.0000
vt 0.7500 0.2000 1.0000
vt 0.8125 0.2000 1.0000
vt 0.8125 0.3704 1.0000
vt 0.7500 0.3704 1.0000
vt 0.8750 0.2000 1.0000
vt 0.8750 0.3704 1.0000
vt 0.9375 0.2000 1.0000
vt 0.9375 0.3703 1.0000
vt -0.0625 0.2000 1.0000
vt 0.0000 0.2000 1.0000
vt 0.0000 0.3702 1.0000
vt -0.0625 0.3703 1.0000
vt 0.0625 0.2000 1.0000
vt 0.0625 0.3701 1.0000
vt 0.1250 0.2000 1.0000
vt 0.1250 0.3700 1.0000
vt 0.1875 0.2000 1.0000
vt 0.1875 0.3700 1.0000
vt 0.2500 0.2000 1.0000
vt 0.2500 0.3700 1.0000
vt 0.3125 0.2000 1.0000
vt 0.3125 0.3700 1.0000
vt 0.3750 0.2000 1.0000
vt 0.3750 0.3700 1.0000
vt 0.4375 0.2000 1.0000
vt 0.4375 0.3701 1.0000
vt 0.5000 0.2000 1.0000
vt 0.5000 0.3702 1.0000
vt 0.5625 0.2000 1.0000
vt 0.5625 0.3703 1.0000
vt 0.6250 0.2000 1.0000
vt 0.6250 0.3704 1.0000
vt 0.6875 0.2000 1.0000
vt 0.6875 0.3704 1.0000
vt 0.7500 0.4295 1.0000
vt 0.8125 0.4295 1.0000
vt 0.8125 0.5882 1.0000
vt 0.7500 0.5882 1.0000
vt 0.8750 0.4294 1.0000
vt 0.8750 0.5883 1.0000
vt 0.9375 0.4293 1.0000
vt 0.9375 0.5883 1.0000
vt -0.0625 0.4293 1.0000
vt 0.0000 0.4292 1.0000
vt 0.0000 0.5883 1.0000
vt -0.0625 0.5883 1.0000
vt 0.0625 0.4291 1.0000
vt 0.0625 0.5884 1.0000
vt 0.1250 0.4290 1.0000
vt 0.1250 0.5884 1.0000
vt 0.1875 0.4290 1.0000
vt 0.1875 0.5884 1.0000
vt 0.2500 0.4289 1.0000
vt 0.2500 0.5885 1.0000
vt 0.3125 0.4290 1.0000
vt 0.3125 0.5884 1.0000
vt 0.3750 0.4290 1.0000
vt 0.3750 0.5884 1.0000
vt 0.4375 0.4291 1.0000
vt 0.4375 0.5884 1.0000
vt 0.5000 0.4292 1.0000
vt 0.5000 0.5883 1.0000
vt 0.5625 0.4293 1.0000
vt 0.5625 0.5883 1.0000
vt 0.6250 0.4294 1.0000
vt 0.6250 0.5883 1.0000
vt 0.6875 0.4295 1.0000
vt 0.6875 0.5882 1.0000
vt 0.8125 0.1061 1.0000
vt 0.7500 0.1061 1.0000
vt 0.8750 0.1061 1.0000
vt 0.9375 0.1062 1.0000
vt 0.0000 0.1062 1.0000
vt -0.0625 0.1062 1.0000
vt 0.0625 0.1063 1.0000
vt 0.1250 0.1064 1.0000
vt 0.1875 0.1064 1.0000
vt 0.2500 0.1064 1.0000
vt 0.3125 0.1064 1.0000
vt 0.3750 0.1064 1.0000
vt 0.4375 0.1063 1.0000
vt 0.5000 0.1062 1.0000
vt 0.5625 0.1062 1.0000
vt 0.6250 0.1061 1.0000
vt 0.6875 0.1061 1.0000
vt 0.0143 0.2906 1.0000
vt -0.0526 0.2910 1.0000
vt 0.4375 0.5883 1.0000
# 122 texture coords

o tree_twig1
g tree_twig1
usemtl 13___Default
s 1
f 1/1/1 2/2/2 3/3/3 4/4/4 
f 2/2/2 5/5/5 6/6/6 3/3/3 
f 5/5/5 7/7/7 8/8/8 6/6/6 
f 7/9/7 9/10/9 10/11/10 8/12/8 
f 9/10/9 11/13/11 12/14/12 10/11/10 
f 11/13/11 13/15/13 14/16/14 12/14/12 
f 13/15/13 15/17/15 16/18/16 14/16/14 
f 15/17/15 17/19/17 18/20/18 16/18/16 
f 17/19/17 19/21/19 20/22/20 18/20/18 
f 19/21/19 21/23/21 22/24/22 20/22/20 
f 21/23/21 23/25/23 24/26/24 22/24/22 
f 23/25/23 25/27/25 26/28/26 24/26/24 
f 25/27/25 27/29/27 28/30/28 26/28/26 
f 27/29/27 29/31/29 30/32/30 28/30/28 
f 29/31/29 31/33/31 32/34/32 30/32/30 
f 31/33/31 1/1/1 4/4/4 32/34/32 
f 33/35/33 34/36/34 35/37/35 36/38/36 
f 34/36/34 37/39/37 38/40/38 35/37/35 
f 37/39/37 39/41/39 40/42/40 38/40/38 
f 39/43/39 41/44/41 42/45/42 40/46/40 
f 41/44/41 43/47/43 44/48/44 42/45/42 
f 43/47/43 45/49/45 46/50/46 44/48/44 
f 45/49/45 47/51/47 48/52/48 46/50/46 
f 47/51/47 49/53/49 50/54/50 48/52/48 
f 49/53/49 51/55/51 52/56/52 50/54/50 
f 51/55/51 53/57/53 54/58/54 52/56/52 
f 53/57/53 55/59/55 56/60/56 54/58/54 
f 55/59/55 57/61/57 58/62/58 56/60/56 
f 57/61/57 59/63/59 60/64/60 58/62/58 
f 59/63/59 61/65/61 62/66/62 60/64/60 
f 61/65/61 63/67/63 64/68/64 62/66/62 
f 63/67/63 33/35/33 36/38/36 64/68/64 
f 65/69/65 66/70/66 67/71/67 68/72/68 
f 66/70/66 69/73/69 70/74/70 67/71/67 
f 69/73/69 71/75/71 72/76/72 70/74/70 
f 71/77/71 73/78/73 74/79/74 72/80/72 
f 73/78/73 75/81/75 76/82/76 74/79/74 
f 75/81/75 77/83/77 78/84/78 76/82/76 
f 77/83/77 79/85/79 80/86/80 78/84/78 
f 79/85/79 81/87/81 82/88/82 80/86/80 
f 81/87/81 83/89/83 84/90/84 82/88/82 
f 83/89/83 85/91/85 86/92/86 84/90/84 
f 85/91/85 87/93/87 88/94/88 86/92/86 
f 87/93/87 89/95/89 90/96/90 88/94/88 
f 89/95/89 91/97/91 92/98/92 90/96/90 
f 91/97/91 93/99/93 94/100/94 92/98/92 
f 93/99/93 95/101/95 96/102/96 94/100/94 
f 95/101/95 65/69/65 68/72/68 96/102/96 
f 97/103/97 34/36/34 33/35/33 98/104/98 
f 99/105/99 37/39/37 34/36/34 97/103/97 
f 100/106/100 39/41/39 37/39/37 99/105/99 
f 101/107/101 41/44/41 39/43/39 100/108/100 
f 102/109/102 43/47/43 41/44/41 101/107/101 
f 103/110/103 45/49/45 43/47/43 102/109/102 
f 104/111/104 47/51/47 45/49/45 103/110/103 
f 105/112/105 49/53/49 47/51/47 104/111/104 
f 106/113/106 51/55/51 49/53/49 105/112/105 
f 107/114/107 53/57/53 51/55/51 106/113/106 
f 108/115/108 55/59/55 53/57/53 107/114/107 
f 109/116/109 57/61/57 55/59/55 108/115/108 
f 110/117/110 59/63/59 57/61/57 109/116/109 
f 111/118/111 61/65/61 59/63/59 110/117/110 
f 112/119/112 63/67/63 61/65/61 111/118/111 
f 98/104/98 33/35/33 63/67/63 112/119/112 
f 35/37/35 66/70/66 65/69/65 36/38/36 
f 38/40/38 69/73/69 66/70/66 35/37/35 
f 40/42/40 71/75/71 69/73/69 38/40/38 
f 42/120/42 73/78/73 71/77/71 40/121/40 
f 44/48/44 75/81/75 73/78/73 42/45/42 
f 46/50/46 77/83/77 75/81/75 44/48/44 
f 48/52/48 79/85/79 77/83/77 46/50/46 
f 50/54/50 81/87/81 79/85/79 48/52/48 
f 52/56/52 83/89/83 81/87/81 50/54/50 
f 54/58/54 85/91/85 83/89/83 52/56/52 
f 56/60/56 87/93/87 85/91/85 54/58/54 
f 58/62/58 89/95/89 87/93/87 56/60/56 
f 60/64/60 91/97/91 89/95/89 58/62/58 
f 62/66/62 93/99/93 91/97/91 60/64/60 
f 64/68/64 95/101/95 93/99/93 62/66/62 
f 36/38/36 65/69/65 95/101/95 64/68/64 
f 3/3/3 97/103/97 98/104/98 4/4/4 
f 6/6/6 99/105/99 97/103/97 3/3/3 
f 8/8/8 100/106/100 99/105/99 6/6/6 
f 10/11/10 101/107/101 100/108/100 8/12/8 
f 12/14/12 102/109/102 101/107/101 10/11/10 
f 14/16/14 103/110/103 102/109/102 12/14/12 
f 16/18/16 104/111/104 103/110/103 14/16/14 
f 18/20/18 105/112/105 104/111/104 16/18/16 
f 20/22/20 106/113/106 105/112/105 18/20/18 
f 22/24/22 107/114/107 106/113/106 20/22/20 
f 24/26/24 108/115/108 107/114/107 22/24/22 
f 26/28/26 109/116/109 108/115/108 24/26/24 
f 28/30/28 110/117/110 109/116/109 26/28/26 
f 30/32/30 111/118/111 110/117/110 28/30/28 
f 32/34/32 112/119/112 111/118/111 30/32/30 
f 4/4/4 98/104/98 112/119/112 32/34/32 
s off
f 68/72/68 67/71/67 113/122/113 
f 67/71/67 70/74/70 113/122/113 
f 70/74/70 72/76/72 113/122/113 
f 72/80/72 74/79/74 113/122/113 
f 74/79/74 76/82/76 113/122/113 
f 76/82/76 78/84/78 113/122/113 
f 78/84/78 80/86/80 113/122/113 
f 80/86/80 82/88/82 113/122/113 
f 82/88/82 84/90/84 113/122/113 
f 84/90/84 86/92/86 113/122/113 
f 86/92/86 88/94/88 113/122/113 
f 88/94/88 90/96/90 113/122/113 
f 90/96/90 92/98/92 113/122/113 
f 92/98/92 94/100/94 113/122/113 
f 94/100/94 96/102/96 113/122/113 
f 96/102/96 68/72/68 113/122/113 
# 96 polygons - 16 triangles

