# 3ds Max Wavefront OBJ Exporter v0.97b - (c)2007 guruware
# File Created: 05.12.2018 19:12:07

mtllib GrassPlane.mtl

#
# object GrassPlane
#

v  -3.9370 3.9658 0.0000
v  -3.9370 0.0288 -0.0000
v  3.9370 0.0288 -0.0000
v  3.9370 3.9658 0.0000
v  -3.9370 7.9028 -0.8255
v  3.9370 7.9028 -0.8255
# 6 vertices

vn 0.0000 0.1032 0.9947
vn 0.0000 -0.0000 1.0000
vn 0.0000 0.2052 0.9787
# 3 vertex normals

vt 0.0000 0.5000 0.0000
vt 0.0000 0.0000 0.0000
vt 1.0000 0.0000 0.0000
vt 1.0000 0.5000 0.0000
vt 0.0000 1.0000 0.0000
vt 1.0000 1.0000 0.0000
# 6 texture coords

o GrassPlane
g GrassPlane
usemtl 01___Default
s 1
f 1/1/1 2/2/2 3/3/2 4/4/1 
f 5/5/3 1/1/1 4/4/1 6/6/3 
# 2 polygons

