# 3ds Max Wavefront OBJ Exporter v0.97b - (c)2007 guruware
# File Created: 23.11.2018 15:17:39

mtllib houseTwo_v2.mtl

#
# object houseTwo
#

v  1570.0266 354.9630 -46.5759
v  1575.1790 355.1188 81.8251
v  1575.1790 378.5819 81.8251
v  1572.3334 383.7342 -46.9220
v  1996.5569 335.5441 -46.5759
v  1994.7686 364.3153 -46.9220
v  1991.4047 359.1630 81.8251
v  1991.4047 335.6999 81.8251
v  1893.3685 765.8838 -47.2681
v  1893.3386 772.9707 -47.1069
v  1879.2799 772.9707 -47.1296
v  1879.3147 765.8838 -47.2681
v  1794.2224 765.8838 -47.2681
v  1794.1580 772.9707 -47.2670
v  1783.5896 772.9707 -47.2681
v  1783.5913 765.8838 -47.2681
v  1703.7388 765.8838 -47.2681
v  1703.7378 772.9707 -47.2681
v  1690.5496 772.9707 -47.2681
v  1690.5503 765.8838 -47.2681
v  1793.5242 772.9707 -40.5475
v  1782.9823 772.9707 -40.5475
v  1703.4097 772.9707 -40.5475
v  1690.2676 772.9707 -40.5475
v  1893.0444 772.9707 -40.5475
v  1893.0444 777.9273 -40.5475
v  1878.9375 777.9273 -40.5475
v  1878.9375 772.9707 -40.5475
v  1793.5242 777.9273 -40.5475
v  1782.9823 777.9273 -40.5475
v  1703.4097 777.9273 -40.5475
v  1690.2676 777.9273 -40.5475
v  1893.0444 777.9273 4.5675
v  1878.9375 777.9273 4.5675
v  1793.5242 777.9273 4.5675
v  1782.9823 777.9273 4.5675
v  1703.4097 777.9273 4.5675
v  1690.2676 777.9273 4.5675
v  1846.5649 822.9403 4.5675
v  1839.0464 822.9403 4.5675
v  1793.5242 822.9403 4.5675
v  1782.9823 822.9403 4.5675
v  1733.4663 822.9403 4.5675
v  1725.2883 822.9403 4.5675
v  1836.4773 907.6442 4.5675
v  1833.8031 907.6442 4.5675
v  1817.6108 907.6442 4.5675
v  1807.0688 907.6442 4.5675
v  1785.7253 907.6442 4.5675
v  1782.2002 907.6442 4.5675
v  1820.8308 952.3695 4.5676
v  1820.3745 952.3695 4.5676
v  1817.6108 952.3695 4.5676
v  1800.9381 952.3695 4.5676
v  1796.4310 952.3695 4.5676
v  1795.6866 952.3695 4.5676
v  1820.5049 964.3239 4.5676
v  1819.9951 964.8862 4.5676
v  1816.9087 968.2910 4.5676
v  1797.9890 968.5473 4.5676
v  1794.8379 965.0248 4.5676
v  1794.3174 964.4430 4.5676
v  1805.6375 992.5847 4.5676
v  1801.3484 992.8411 4.5676
v  1592.4319 355.1188 81.1328
v  1587.2795 354.9630 -47.2681
v  1592.4319 378.5819 81.1328
v  1587.2795 383.7342 -47.2681
v  1974.1517 359.1630 81.1328
v  1979.3040 364.3153 -47.2681
v  1974.1517 335.6999 81.1328
v  1979.3040 335.5441 -47.2681
v  1606.9048 640.3132 -47.2681
v  1607.1758 651.6520 -47.2681
v  1594.5305 651.6520 -47.2681
v  1594.2600 640.3132 -47.2681
v  1604.0046 512.3549 -47.2681
v  1604.1577 525.4010 -47.2681
v  1591.5184 525.4010 -47.2681
v  1591.3652 512.3549 -47.2681
v  1992.6453 489.4418 -47.2681
v  1978.9692 489.4418 -47.2681
v  1992.5100 498.0022 -47.2681
v  1978.8340 498.0022 -47.2681
v  1979.0586 626.0066 -47.2681
v  1992.6091 626.0066 -47.2681
v  1992.6189 638.6373 -47.2681
v  1979.0807 638.6372 -47.2681
v  1588.5118 1.9893 -46.5759
v  1604.2693 1.7870 -47.2682
v  1593.5297 283.4497 -47.2681
v  1576.3069 284.4065 -46.5759
v  1974.3243 260.0539 -47.2681
v  1991.5330 259.0554 -46.5759
v  1609.9065 772.9707 -47.2681
v  1597.2444 772.9707 -47.2681
v  1597.2559 765.8838 -47.2681
v  1609.9065 765.8838 -47.2681
v  1609.9065 772.9707 -40.5475
v  1597.2444 772.9707 -40.5475
v  1609.9065 777.9273 -40.5475
v  1597.5579 777.9273 -40.8281
v  1609.9065 777.9273 4.5675
v  1597.8712 777.9273 4.5675
v  1979.3040 765.8838 -47.2681
v  1992.7175 765.8838 -47.2681
v  1992.4550 772.9707 -47.2681
v  1979.3040 772.9707 -46.9682
v  1979.3040 772.9707 -40.5475
v  1992.4550 772.9707 -40.5475
v  1992.2163 777.9273 -40.8281
v  1979.3040 777.9273 -40.5475
v  1991.9774 777.9273 4.5675
v  1979.3040 777.9273 4.5675
v  1954.0100 822.9403 4.5675
v  1941.8142 822.9403 4.5675
v  1865.0259 907.6442 4.5676
v  1852.8301 907.6442 4.5675
v  1835.8176 952.3695 4.5676
v  1823.6218 952.3695 4.5676
v  1828.7264 960.8855 4.5676
v  1823.6218 960.8855 4.5676
v  1675.2815 822.9403 4.5675
v  1663.8730 822.9403 4.5675
v  1760.6450 907.6442 4.5675
v  1749.2366 907.6442 4.5676
v  1791.1350 952.3695 4.5676
v  1779.7264 952.3695 4.5676
v  1791.1350 960.8855 4.5676
v  1787.0393 960.8855 4.5676
v  1826.4768 964.2203 4.5676
v  1826.1089 964.7656 4.5676
v  1789.5559 964.9672 4.5676
v  1789.2021 964.3934 4.5676
v  1823.8813 968.0677 4.5676
v  1806.6190 994.4872 4.5676
v  1800.3796 994.4758 4.5676
v  1791.6975 968.4407 4.5676
v  1974.3243 246.4584 -47.2681
v  1991.5330 245.7406 -46.5759
v  1973.0833 221.1743 -47.2681
v  1593.5297 296.9297 -47.2681
v  1576.3069 297.8808 -46.5759
v  1954.0100 822.9403 -41.1087
v  1865.0259 907.6444 -41.1086
v  1835.8176 952.3696 -41.1086
v  1828.7264 960.8856 -41.1086
v  1663.8730 822.9403 -41.1087
v  1749.2366 907.6444 -41.1086
v  1779.7264 952.3696 -41.1086
v  1787.0393 960.8856 -41.1086
v  1826.4768 964.2203 -41.1086
v  1826.1089 964.7657 -41.1086
v  1789.5559 964.9673 -41.1086
v  1789.2021 964.3936 -41.1086
v  1823.8813 968.0677 -41.1087
v  1806.6190 994.4872 -41.1087
v  1800.3796 994.4758 -41.1087
v  1791.6975 968.4407 -41.1087
v  1992.1003 777.9273 -48.0053
v  1954.0100 822.9403 -48.1498
v  1865.0259 907.6444 -48.1497
v  1835.8176 952.3696 -48.1497
v  1828.7264 960.8856 -48.1497
v  1663.8730 822.9403 -48.1498
v  1597.7098 777.9273 -48.0053
v  1749.2366 907.6444 -48.1497
v  1779.7264 952.3696 -48.1497
v  1787.0393 960.8856 -48.1497
v  1825.6777 964.2203 -48.1497
v  1825.1792 964.7657 -48.1497
v  1789.2021 964.3936 -48.1497
v  1789.5559 964.9673 -48.1497
v  1822.1604 968.0677 -48.1497
v  1806.6190 994.4872 -48.1497
v  1800.3796 994.4758 -48.1497
v  1791.6975 968.4407 -48.1497
v  1777.8862 369.1475 81.1328
v  1776.3667 345.7616 81.1328
v  1802.0303 373.1552 -47.2681
v  1800.1633 344.4178 -47.2681
v  1883.0266 631.1513 -26.6100
v  1891.8707 630.8184 -26.6100
v  1891.8123 640.0244 -26.6100
v  1882.9559 640.3273 -26.6100
v  1850.5723 222.9374 -24.5066
v  1858.7687 222.2769 -24.5066
v  1858.8745 231.9071 -35.5459
v  1850.6235 232.6490 -35.5459
v  1850.9255 258.4456 -47.2681
v  1859.1565 257.6461 -47.2681
v  1859.3047 271.1923 -47.2681
v  1851.1423 271.9827 -47.2681
v  1691.4807 638.5296 -26.6100
v  1699.8944 638.2018 -26.6100
v  1699.9729 646.7411 -26.6100
v  1691.5762 647.0393 -26.6100
v  1761.1895 369.9969 81.1328
v  1784.3936 374.0591 -47.2681
v  1759.9519 346.5966 81.1328
v  1782.8713 345.2743 -47.2681
v  1728.7542 283.8347 -47.2681
v  1779.3628 278.9338 -47.2681
v  1726.3105 271.0792 -47.2681
v  1779.1580 265.4173 -47.2681
v  1796.1711 644.9073 -47.2681
v  1783.9255 645.3948 -47.2681
v  1783.9587 633.4349 -47.2681
v  1796.3647 632.8991 -47.2681
v  1795.8052 277.3415 -47.2681
v  1795.6582 263.8145 -47.2681
v  1795.3752 237.7692 -47.2681
v  1687.7180 507.2393 -47.2681
v  1701.4084 506.4028 -47.2681
v  1701.4758 518.2845 -47.2681
v  1687.7974 519.2847 -47.2681
v  1784.3003 501.3375 -47.2681
v  1798.5195 500.4686 -47.2681
v  1798.3251 511.2022 -47.2681
v  1784.2949 512.2282 -47.2681
v  1881.4823 495.3989 -47.2681
v  1895.1843 494.5616 -47.2681
v  1895.0216 504.1311 -47.2681
v  1881.3149 505.1334 -47.2681
v  1961.5320 638.3909 -47.2681
v  1961.5129 627.4777 -47.2681
v  1880.8668 748.3356 -47.2681
v  1892.2317 748.3356 -47.2681
v  1813.9128 633.0413 -47.2681
v  1813.7451 643.4521 -47.2681
v  1893.6658 521.8254 -47.2681
v  1882.6018 522.6345 -47.2681
v  1766.3779 645.1513 -47.2681
v  1766.4063 634.9091 -47.2681
v  1691.6035 748.3356 -47.2681
v  1702.1621 748.3356 -47.2681
v  1624.4607 640.4303 -47.2681
v  1624.6937 650.1740 -47.2681
v  1700.2163 535.9717 -47.2681
v  1689.2368 536.7746 -47.2681
v  1961.5320 638.3909 -26.6100
v  1945.9666 638.1724 -26.6100
v  1945.9500 628.7824 -26.6100
v  1961.5129 627.4777 -26.6100
v  1892.2317 748.3356 -26.6100
v  1880.8668 748.3356 -26.6100
v  1882.2437 732.7705 -26.6100
v  1891.2235 732.7705 -26.6100
v  1813.9128 633.0413 -26.6100
v  1829.4779 633.1673 -26.6100
v  1829.3330 642.1613 -26.6100
v  1813.7451 643.4521 -26.6100
v  1882.6018 522.6345 -26.6100
v  1893.6658 521.8254 -26.6100
v  1892.4631 537.5200 -26.6100
v  1883.7432 538.1576 -26.6100
v  1750.8134 644.9354 -47.2681
v  1750.8375 636.2168 -47.2681
v  1691.6035 748.3356 -26.6100
v  1692.5375 732.7705 -26.6100
v  1700.7634 732.7705 -26.6100
v  1702.1621 748.3356 -26.6100
v  1624.4607 640.4303 -26.6100
v  1640.0327 640.5342 -26.6100
v  1640.2318 648.8629 -26.6100
v  1624.6937 650.1740 -26.6100
v  1689.2368 536.7746 -26.6100
v  1700.2163 535.9717 -26.6100
v  1699.0991 551.6600 -26.6100
v  1690.5135 552.2878 -26.6100
v  1750.8134 644.9354 -26.6100
v  1750.8375 636.2168 -26.6100
v  1627.0403 748.3356 -47.2681
v  1766.0918 748.3356 -47.2681
v  1766.6941 531.1104 -47.2681
v  1622.1003 541.6841 -47.2681
v  1627.0403 748.3356 -26.6100
v  1642.2375 732.7705 -26.6100
v  1750.5698 732.7705 -26.6100
v  1766.0918 748.3356 -26.6100
v  1766.6941 531.1104 -26.6100
v  1751.0825 547.8586 -26.6100
v  1638.0150 556.1269 -26.6100
v  1622.1003 541.6841 -26.6100
v  1812.0555 748.3356 -47.2681
v  1961.7250 748.3356 -47.2681
v  1961.3187 516.8782 -47.2681
v  1815.6125 527.5331 -47.2681
v  1812.0555 748.3356 -26.6100
v  1827.8734 732.7705 -26.6100
v  1946.1326 732.7705 -26.6100
v  1961.7250 748.3356 -26.6100
v  1961.3187 516.8782 -26.6100
v  1945.7830 533.6208 -26.6100
v  1830.9463 542.0184 -26.6100
v  1815.6125 527.5331 -26.6100
v  1766.3779 645.1513 -26.6100
v  1766.4063 634.9091 -26.6100
v  1638.0150 556.1269 -47.2681
v  1690.5135 552.2878 -47.2681
v  1691.4807 638.5296 -47.2681
v  1640.0327 640.5342 -47.2681
v  1692.5375 732.7705 -47.2681
v  1642.2375 732.7705 -47.2681
v  1640.2318 648.8629 -47.2681
v  1691.5762 647.0393 -47.2681
v  1750.5698 732.7705 -47.2681
v  1700.7634 732.7705 -47.2681
v  1699.9729 646.7411 -47.2681
v  1699.0991 551.6600 -47.2681
v  1751.0825 547.8586 -47.2681
v  1699.8944 638.2018 -47.2681
v  1830.9463 542.0184 -47.2681
v  1883.7432 538.1576 -47.2681
v  1883.0266 631.1513 -47.2681
v  1829.4779 633.1673 -47.2681
v  1882.2437 732.7705 -47.2681
v  1827.8734 732.7705 -47.2681
v  1829.3330 642.1613 -47.2681
v  1882.9559 640.3273 -47.2681
v  1946.1326 732.7705 -47.2681
v  1891.2235 732.7705 -47.2681
v  1891.8123 640.0244 -47.2681
v  1945.9666 638.1724 -47.2681
v  1892.4631 537.5200 -47.2681
v  1945.7830 533.6208 -47.2681
v  1945.9500 628.7824 -47.2681
v  1891.8707 630.8184 -47.2681
v  1756.0569 245.7643 -26.6100
v  1779.1580 265.4173 -26.6100
v  1727.9987 270.3871 -26.6100
v  1724.5437 247.8218 -26.6100
v  1618.5427 254.7427 -26.6100
v  1593.5297 283.4497 -26.6100
v  1604.2693 1.7870 -26.6101
v  1619.9606 1.7869 -26.6100
v  1735.9504 234.9229 -49.7078
v  1733.9059 13.9153 -49.7079
v  1745.7114 13.9153 -49.7079
v  1744.0156 234.3963 -49.7078
v  1757.9333 1.7870 -26.6101
v  1775.1665 1.7870 -26.6101
v  1619.9606 1.7869 -47.2681
v  1618.5427 254.7427 -47.2681
v  1757.9333 1.7870 -47.2682
v  1756.0569 245.7643 -47.2681
v  1775.1665 1.7870 -47.2682
v  1792.8108 1.7870 -47.2682
v  1857.1244 71.9635 -47.2682
v  1847.9403 71.9635 -47.2682
v  1958.0505 232.4009 -47.2681
v  1956.4573 198.9471 -47.2681
v  1850.6755 242.8316 -47.2681
v  1858.9856 242.0243 -47.2681
v  1811.1246 210.9185 -47.2681
v  1811.0381 246.6821 -47.2681
v  1944.5244 184.7469 -41.8556
v  1946.5471 222.8408 -41.8555
v  1938.7576 214.6785 -30.8162
v  1936.2102 172.0540 -30.8162
v  1857.2444 82.9586 -35.5460
v  1857.3582 93.3887 -24.5067
v  1848.5020 93.6074 -24.5067
v  1848.2288 83.0587 -35.5460
v  1836.8728 223.0257 -31.2281
v  1825.3682 233.9240 -42.2675
v  1824.4521 192.6841 -42.2676
v  1834.4475 177.5912 -31.2282
v  1849.8501 177.8236 -24.5067
v  1858.2772 177.3649 -24.5067
v  1949.7792 223.7337 -35.5459
v  1947.7565 185.6399 -35.5460
v  1823.2543 235.1097 -35.5459
v  1822.3381 193.8699 -35.5460
v  1852.7374 231.4632 -42.2675
v  1852.6862 221.7516 -31.2281
v  1851.9640 176.6378 -31.2282
v  1829.6046 95.9223 -31.1846
v  1821.6732 85.1772 -42.2239
v  1850.0186 84.8628 -42.2240
v  1850.2919 95.4115 -31.1846
v  1819.8833 83.3731 -35.5460
v  1811.4612 71.9635 -47.2682
v  1962.3142 1.7870 -47.2682
v  1931.6962 71.9635 -47.2682
v  1915.4333 71.9635 -47.2682
v  1926.5984 82.1893 -35.5460
v  1915.2701 82.3149 -35.5460
v  1921.8074 91.7974 -24.5067
v  1915.1104 91.9628 -24.5067
v  1931.3726 216.4269 -24.5066
v  1922.4756 217.1438 -24.5066
v  1919.9376 174.0087 -24.5067
v  1928.0830 173.5654 -24.5067
v  1932.8674 225.2543 -35.5460
v  1923.7283 226.0760 -35.5460
v  1934.4600 234.6926 -47.2682
v  1925.0613 235.6056 -47.2681
v  1935.6514 250.2151 -47.2681
v  1925.9761 251.1550 -47.2681
v  1936.6862 263.6987 -47.2681
v  1926.7706 264.6590 -47.2681
v  1950.4098 71.9635 -47.2682
v  1942.2542 82.0156 -35.5460
v  1924.2579 83.9645 -42.0594
v  1939.9138 83.7908 -42.0594
v  1932.2332 93.2574 -31.0201
v  1919.4669 93.5726 -31.0201
v  1928.1406 215.5339 -30.8162
v  1924.8511 172.6723 -30.8162
v  1929.6355 224.3613 -41.8555
v  1858.7489 230.4335 -42.5364
v  1858.6431 220.8034 -31.4971
v  1922.3499 215.6702 -31.4971
v  1923.6028 224.6024 -42.5365
v  1858.1516 175.8913 -31.4971
v  1919.8120 172.5351 -31.4971
v  1915.1479 94.0598 -31.3371
v  1857.3958 95.4858 -31.3371
v  1857.2819 85.0557 -42.3765
v  1915.3076 84.4120 -42.3765
v  1795.3090 231.6782 -47.2681
v  1811.1545 198.5771 -47.2681
v  1822.0073 178.9827 -35.5460
v  1831.4468 162.1617 -24.5067
v  1832.3336 178.7770 -24.5067
v  1849.5908 161.6293 -24.5067
v  1858.1023 161.3796 -24.5067
v  1919.0894 159.5901 -24.5067
v  1926.9927 159.3582 -24.5067
v  1938.6097 159.0173 -24.5067
v  1939.4423 172.9471 -24.5067
v  1947.1394 174.0191 -35.5460
v  1956.0149 189.6611 -47.2682
v  1972.8428 216.2755 -47.2681
v  1793.2761 39.2111 -47.2682
v  1793.3007 46.8617 -47.2682
v  1811.4236 87.5198 -47.2682
v  1811.4131 91.8827 -47.2682
v  1820.3330 103.6197 -35.5460
v  1820.4565 109.1807 -35.5460
v  1829.1899 119.8843 -24.5067
v  1829.5669 126.9458 -24.5067
v  1848.9143 119.3653 -24.5067
v  1849.0471 127.6706 -24.5067
v  1857.6399 119.1357 -24.5067
v  1857.7368 127.9939 -24.5067
v  1916.6179 117.5836 -24.5067
v  1917.3608 130.2123 -24.5067
v  1923.7720 117.3953 -24.5067
v  1924.7769 130.4882 -24.5067
v  1936.1029 117.0708 -24.5067
v  1936.9319 130.9404 -24.5067
v  1943.0759 97.4886 -35.5460
v  1943.7009 109.2580 -35.5460
v  1950.6174 76.3230 -47.2682
v  1951.0635 85.6915 -47.2682
v  1964.1707 39.6058 -47.2682
v  1964.4026 44.3302 -47.2682
v  1978.0718 1.9893 -46.5759
v  1822.1230 105.4238 -42.2239
v  1830.9800 121.6884 -31.1846
v  1850.7042 121.1694 -31.1846
v  1857.6775 121.2327 -31.3371
v  1916.6555 119.6807 -31.3371
v  1921.4314 119.1705 -31.0201
v  1933.7625 118.8460 -31.0201
v  1940.7354 99.2638 -42.0594
v  1942.9287 174.2512 -41.3140
v  1934.3989 159.2494 -30.2747
v  1932.7211 131.1725 -30.2747
v  1939.4900 109.4901 -41.3140
v  1922.7820 159.5902 -30.2747
v  1920.5662 130.7203 -30.2747
v  1917.3608 130.2123 -31.6519
v  1919.0894 159.5901 -31.6519
v  1858.1023 161.3796 -31.6519
v  1857.7368 127.9939 -31.6519
v  1852.2927 127.5646 -30.8713
v  1852.8364 161.5233 -30.8713
v  1834.6923 162.0557 -30.8713
v  1832.8125 126.8398 -30.8713
v  1825.2529 178.8767 -41.9107
v  1823.7021 109.0747 -41.9107
v  1635.4558 292.8696 -47.2681
v  1649.8823 279.3181 -47.2681
v  1649.9701 277.9670 -26.6100
v  1650.0098 252.6882 -26.6101
v  1646.7573 252.9006 -47.2681
v  1723.9413 247.8611 -47.2681
v  1630.7439 241.7919 -49.7078
v  1632.0211 13.9153 -49.7078
v  1634.4910 13.9153 -49.7078
v  1634.6224 241.5387 -49.7078
v  1652.8546 291.1847 -47.2681
v  1665.7952 277.6027 -47.2681
v  1666.0081 276.4090 -26.6100
v  1662.2229 251.8908 -26.6101
v  1662.0801 251.9001 -47.2681
v  1646.6123 1.7869 -47.2682
v  1655.1428 1.7869 -47.2682
v  1716.4957 285.0217 -47.2681
v  1714.0520 272.4007 -47.2681
v  1715.7402 271.5779 -26.6100
v  1712.2852 248.6222 -26.6100
v  1711.6829 248.6615 -47.2681
v  1710.9614 1.7869 -47.2682
v  1721.6648 1.7869 -47.2682
v  1673.8547 238.9772 -49.7078
v  1667.6122 13.9153 -49.7079
v  1698.8684 13.9153 -49.7079
v  1699.5212 237.3014 -49.7078
v  1730.8488 240.4192 -47.2681
v  1749.1310 239.2255 -47.2681
v  1728.7058 8.7630 -47.2682
v  1750.9036 8.7630 -47.2682
v  1625.5608 247.2936 -47.2681
v  1639.7776 246.3654 -47.2681
v  1626.8977 8.7630 -47.2681
v  1639.6403 8.7630 -47.2682
v  1668.8528 244.4670 -47.2681
v  1704.6875 242.1273 -47.2681
v  1662.3151 8.7630 -47.2682
v  1704.0056 8.7630 -47.2682
v  1572.3334 383.7342 -606.7877
v  1570.0266 354.9630 -606.4415
v  1996.5569 335.5440 -606.4415
v  1994.7686 364.3153 -606.7877
v  1597.2559 765.8838 -607.1338
v  1594.5305 651.6520 -607.1337
v  1591.5184 525.4011 -607.1338
v  1591.3652 512.3549 -607.1338
v  1992.6453 489.4417 -607.1338
v  1992.5100 498.0022 -607.1338
v  1992.6091 626.0066 -607.1337
v  1576.3069 284.4065 -606.4415
v  1588.5118 1.9893 -606.4415
v  1604.2693 1.7870 -607.1339
v  1991.5330 259.0554 -606.4415
v  1597.2444 772.9707 -607.1338
v  1992.7175 765.8838 -607.1338
v  1992.4550 772.9707 -607.1338
v  1991.5330 245.7406 -606.4415
v  1962.3142 1.7870 -607.1339
v  1978.0718 1.9893 -606.4415
v  1576.3069 297.8808 -606.4415
v  1992.1003 777.9273 -607.8710
v  1954.0100 822.9402 -608.0154
v  1865.0259 907.6443 -608.0153
v  1835.8176 952.3696 -608.0154
v  1828.7264 960.8856 -608.0154
v  1663.8730 822.9402 -608.0154
v  1597.7098 777.9273 -607.8710
v  1749.2366 907.6443 -608.0153
v  1779.7264 952.3696 -608.0154
v  1787.0393 960.8856 -608.0154
v  1825.6777 964.2203 -608.0154
v  1791.6975 968.4407 -608.0154
v  1789.5559 964.9672 -608.0154
v  1822.1604 968.0677 -608.0154
v  1806.6190 994.4872 -608.0154
v  1800.3796 994.4758 -608.0154
v  1619.9606 1.7869 -607.1338
v  1775.1665 1.7870 -607.1339
v  1792.8108 1.7870 -607.1339
v  1789.2021 964.3935 -608.0154
v  1825.1792 964.7657 -608.0154
v  1594.2600 640.3132 -607.1337
v  1992.6189 638.6372 -607.1337
v  1646.6123 1.7869 -607.1339
v  1757.9333 1.7870 -607.1339
v  1655.1428 1.7869 -607.1339
v  1710.9614 1.7869 -607.1339
v  1721.6648 1.7869 -607.1339
v  1714.7334 154.2847 -50.3398
v  1720.8950 154.2847 -50.3398
v  1720.8950 119.1269 -50.3398
v  1714.7334 119.1269 -50.3398
v  1720.8950 119.1269 -38.7413
v  1720.8950 154.2847 -38.7413
v  1714.7334 154.2847 -38.7413
v  1714.7334 119.1269 -38.7413
# 582 vertices

vn -0.9086 -0.2914 0.2993
vn -0.5538 -0.5770 0.6004
vn -0.5614 0.5638 0.6058
vn -0.8748 0.3886 0.2893
vn 0.9070 -0.2884 0.3069
vn 0.8846 0.3419 0.3172
vn 0.5601 0.5640 0.6068
vn 0.5538 -0.5770 0.6004
vn 0.0000 -0.0114 0.9999
vn -0.0011 -0.7151 0.6990
vn -0.0011 -0.7140 0.7002
vn 0.0000 -0.0098 1.0000
vn 0.0000 -0.0001 1.0000
vn -0.0006 -0.7070 0.7072
vn -0.0000 -0.7071 0.7071
vn 0.0000 -0.0000 1.0000
vn 0.0000 -0.7071 0.7071
vn 0.0000 0.0000 1.0000
vn -0.0000 0.0000 1.0000
vn -0.0042 -0.7050 0.7092
vn -0.0019 -0.7065 0.7077
vn 0.0326 0.7029 0.7105
vn 0.0255 0.6840 0.7291
vn 0.0035 0.6909 0.7229
vn 0.0088 0.6955 0.7185
vn -0.0327 -0.7168 0.6966
vn -0.0318 -0.6960 0.7174
vn -0.7069 0.0169 0.7071
vn -0.7084 0.0126 0.7057
vn -0.6893 0.0559 0.7223
vn 0.7072 0.0126 0.7069
vn 0.7052 0.0053 0.7090
vn 0.7071 -0.0005 0.7071
vn -0.5550 -0.5820 0.5944
vn -0.2889 -0.9130 0.2880
vn -0.2540 0.2890 0.9230
vn -0.6977 -0.0151 0.7163
vn -0.0196 0.0007 0.9998
vn 0.6844 -0.0225 0.7288
vn -0.9184 -0.2501 0.3067
vn -0.7042 0.0078 0.7100
vn -0.5936 -0.5459 0.5912
vn -0.0080 -0.7097 0.7044
vn -0.8620 0.3117 0.3997
vn -0.8008 -0.2482 0.5451
vn 0.0000 -0.0211 0.9998
vn 0.7112 0.0129 0.7029
vn 0.9182 -0.2449 0.3114
vn 0.0073 -0.7246 0.6891
vn 0.5891 -0.5499 0.5921
vn 0.9216 0.1481 0.3589
vn 0.0077 -0.7096 0.7046
vn 0.7564 -0.3527 0.5509
vn 0.5234 0.4929 0.6950
vn 0.5219 0.4345 0.7341
vn -0.0000 -0.0000 1.0000
vn 0.5787 0.4277 0.6943
vn 0.5561 0.4175 0.7186
vn -0.4362 0.5285 0.7283
vn -0.5261 0.4376 0.7292
vn -0.5708 0.4375 0.6949
vn -0.5559 0.4062 0.7252
vn 0.5862 0.3955 0.7071
vn 0.5862 0.3954 0.7071
vn -0.6019 0.3711 0.7071
vn 0.5877 0.3902 0.7088
vn 0.3751 0.6946 0.6139
vn -0.4699 0.6508 0.5963
vn -0.6153 0.2876 0.7339
vn -0.0204 0.0005 0.9998
vn 0.6989 -0.0193 0.7149
vn -0.0201 0.0010 0.9998
vn 0.0195 0.0010 0.9998
vn -0.6781 -0.0371 0.7340
vn 0.7270 0.6867 0.0000
vn 0.7685 0.6398 0.0000
vn 0.8042 0.5943 0.0000
vn 0.7998 0.6003 0.0000
vn -0.6357 0.7719 0.0000
vn -0.7688 0.6395 0.0000
vn -0.7937 0.6083 0.0000
vn -0.8074 0.5900 0.0000
vn 0.8281 0.5586 -0.0469
vn 0.8278 0.5584 -0.0545
vn -0.8512 0.5248 0.0000
vn 0.8287 0.5506 -0.1003
vn 0.4751 0.8799 0.0000
vn -0.5854 0.8107 0.0000
vn -0.9059 0.4234 0.0000
vn 0.9261 0.3773 -0.0071
vn 0.7275 0.6861 0.0000
vn 0.7535 0.6575 0.0000
vn -0.6361 0.7716 0.0000
vn -0.8606 0.5092 -0.0086
vn 0.7374 0.6741 -0.0418
vn 0.7372 0.6739 -0.0486
vn 0.8033 0.5877 -0.0969
vn 0.4956 0.8685 0.0000
vn 0.0352 0.6917 0.7214
vn -0.0359 -0.7058 0.7075
vn 0.0349 0.6919 0.7212
vn -0.0350 -0.7058 0.7076
vn -0.3140 -0.3047 0.8992
vn 0.2891 -0.2983 0.9096
vn 0.3129 0.3043 0.8997
vn -0.2902 0.2980 0.9094
vn -0.6992 0.3253 0.6366
vn 0.6431 0.2995 0.7048
vn 0.5187 0.4333 0.7370
vn -0.5400 0.2938 0.7887
vn -0.3139 -0.2986 0.9013
vn 0.2890 -0.3033 0.9080
vn 0.3129 0.2992 0.9014
vn -0.2902 0.3041 0.9074
vn 0.0348 0.6915 0.7216
vn -0.0350 -0.7057 0.7076
vn 0.0746 0.6944 0.7157
vn 0.3360 0.2975 0.8936
vn 0.7071 -0.0012 0.7071
vn 0.0000 0.7071 0.7071
vn -0.7070 -0.0114 0.7071
vn -0.0516 -0.7052 0.7071
vn 0.3059 -0.3009 0.9033
vn 0.3290 0.3034 0.8943
vn -0.2904 0.3011 0.9083
vn -0.3138 -0.3017 0.9003
vn -0.3017 -0.3040 0.9036
vn 0.3013 -0.2994 0.9053
vn 0.2888 -0.2951 0.9108
vn 0.3131 0.3075 0.8986
vn 0.3256 0.3046 0.8951
vn -0.2776 0.2964 0.9138
vn 0.0250 -0.0002 0.9997
vn 0.0216 -0.0013 0.9998
vn -0.3012 -0.2979 0.9058
vn 0.3017 -0.3045 0.9035
vn 0.2893 -0.3081 0.9063
vn 0.3124 0.2944 0.9032
vn 0.3252 0.2995 0.8970
vn -0.2781 0.3025 0.9117
vn 0.5857 0.5668 0.5794
vn 0.5679 -0.5888 0.5752
vn -0.3020 0.3093 0.9017
vn 0.3015 0.3024 0.9042
vn 0.2777 -0.2980 0.9133
vn -0.3247 -0.2947 0.8987
vn -0.5698 0.5836 0.5786
vn 0.3020 -0.3093 0.9017
vn -0.3015 -0.3024 0.9042
vn 0.5764 0.5781 0.5775
vn 0.5585 -0.5993 0.5735
vn -0.2777 0.2980 0.9133
vn 0.3247 0.2947 0.8987
vn -0.6033 -0.5475 0.5800
vn -0.3010 0.2963 0.9064
vn 0.3015 0.3009 0.9047
vn 0.2779 -0.2994 0.9128
vn -0.3258 -0.3078 0.8939
vn -0.5823 0.5731 0.5766
vn 0.3011 -0.2963 0.9064
vn -0.3015 -0.3009 0.9047
vn 0.5779 0.5769 0.5773
vn 0.5571 -0.6004 0.5737
vn -0.2779 0.2994 0.9128
vn 0.3258 0.3078 0.8939
vn -0.5910 -0.5583 0.5822
vn 0.5818 -0.5722 0.5780
vn -0.5728 -0.5824 0.5769
vn 0.5977 0.5513 0.5821
vn -0.5555 0.6026 0.5730
vn 0.6033 0.5475 0.5800
vn -0.5541 0.6028 0.5742
vn -0.5909 -0.5620 0.5788
vn 0.5593 -0.5956 0.5766
vn -0.5809 -0.5744 0.5768
vn 0.5697 -0.5836 0.5787
vn 0.5938 0.5597 0.5780
vn -0.5643 0.5913 0.5761
vn -0.5764 -0.5781 0.5775
vn 0.5745 -0.5798 0.5778
vn 0.5894 0.5636 0.5787
vn 0.5988 0.5515 0.5808
vn -0.5585 0.5993 0.5735
vn 0.5640 -0.5919 0.5758
vn 0.5910 0.5584 0.5822
vn -0.5602 0.5980 0.5732
vn -0.5847 -0.5674 0.5798
vn 0.5724 -0.5849 0.5747
vn -0.5749 -0.5794 0.5778
vn 0.5824 -0.5731 0.5765
vn 0.5812 0.5708 0.5800
vn -0.5707 0.5860 0.5752
vn -0.5779 -0.5769 0.5773
vn 0.5793 -0.5757 0.5770
vn 0.5842 0.5682 0.5795
vn -0.5677 0.5885 0.5757
vn 0.5940 0.5557 0.5816
vn -0.5571 0.6004 0.5737
vn -0.5876 -0.5649 0.5793
vn 0.5694 -0.5875 0.5751
vn -0.3231 -0.3050 0.8959
vn 0.6063 0.5422 0.5818
vn 0.0675 0.6948 0.7160
vn -0.0461 -0.7056 0.7071
vn 0.2803 -0.2974 0.9127
vn -0.5633 0.5976 0.5706
vn -0.5652 -0.5872 0.5794
vn 0.5790 -0.5759 0.5771
vn 0.1584 -0.1706 0.9725
vn 0.1675 0.1659 0.9718
vn -0.1674 0.1661 0.9718
vn -0.1748 -0.1650 0.9707
vn 0.5725 -0.5813 0.5782
vn 0.3019 -0.9039 0.3029
vn 0.5616 -0.5962 0.5738
vn -0.3010 -0.9054 0.2995
vn -0.5917 -0.5586 0.5813
vn 0.3004 -0.9062 0.2976
vn 0.0000 -0.3974 0.9176
vn -0.0000 -0.3953 0.9185
vn 0.1512 0.1364 0.9790
vn 0.4651 -0.0221 0.8850
vn 0.0402 0.4139 0.9094
vn 0.0403 0.4152 0.9088
vn -0.3938 -0.0010 0.9192
vn -0.0991 0.1050 0.9895
vn -0.1053 0.3486 0.9313
vn -0.2933 -0.3943 0.8709
vn 0.4068 0.3149 0.8575
vn -0.1252 0.8221 0.5554
vn 0.4429 -0.4203 0.7919
vn 0.6218 -0.3179 0.7157
vn -0.7069 -0.2694 0.6541
vn -0.4970 -0.2904 0.8177
vn -0.2542 0.3425 0.9045
vn 0.3346 -0.4768 0.8128
vn 0.2722 0.3375 0.9011
vn 0.2447 0.7948 0.5553
vn -0.3352 0.4065 0.8499
vn 0.3770 0.3080 0.8735
vn 0.1654 0.1363 0.9768
vn 0.1270 0.3081 0.9428
vn -0.0244 0.1222 0.9922
vn 0.0644 0.3060 0.9498
vn -0.6318 -0.1992 0.7491
vn -0.9078 0.1412 0.3950
vn -0.6334 0.6287 0.4512
vn -0.3977 -0.2772 0.8746
vn 0.3993 0.3588 0.8437
vn -0.6130 0.2268 0.7568
vn -0.8957 -0.1487 0.4191
vn -0.1690 -0.0488 0.9844
vn -0.1202 -0.1290 0.9843
vn -0.0102 -0.7132 0.7009
vn 0.0000 -0.4139 0.9103
vn 0.0000 -0.4111 0.9116
vn 0.4553 -0.1019 0.8845
vn -0.4620 -0.4440 0.7678
vn 0.6709 -0.2734 0.6893
vn -0.6394 -0.3024 0.7069
vn 0.7677 0.2319 0.5974
vn -0.5996 0.3844 0.7020
vn -0.3397 0.3276 0.8816
vn 0.3753 0.4274 0.8225
vn 0.5689 0.1427 0.8100
vn -0.4457 0.5272 0.7235
vn 0.0415 0.4272 0.9032
vn 0.0414 0.4257 0.9039
vn 0.1306 -0.1419 0.9812
vn 0.1364 -0.1173 0.9837
vn 0.5429 0.2396 0.8049
vn -0.3174 0.3841 0.8670
vn 0.3466 -0.3483 0.8709
vn 0.9172 0.0141 0.3982
vn 0.9536 -0.0301 0.2996
vn 0.7292 0.5512 0.4054
vn 0.6214 -0.2896 0.7280
vn 0.5436 -0.2525 0.8005
vn 0.8296 0.2311 0.5083
vn -0.7863 0.3289 0.5230
vn -0.5733 -0.1424 0.8069
vn 0.5907 0.6183 0.5185
vn -0.5283 0.6710 0.5202
vn -0.8125 -0.2243 0.5381
vn 0.8030 -0.2416 0.5448
vn 0.5565 0.1831 0.8104
vn -0.5571 0.1776 0.8112
vn -0.4014 -0.0010 0.9159
vn -0.7012 -0.1897 0.6872
vn -0.5204 -0.6532 0.5500
vn -0.1431 0.5551 0.8194
vn -0.3087 -0.4293 0.8487
vn 0.2922 -0.3042 0.9067
vn -0.3091 -0.2830 0.9080
vn 0.2633 -0.5084 0.8199
vn 0.5030 -0.6984 0.5091
vn 0.2874 0.5025 0.8154
vn 0.7745 -0.2439 0.5836
vn 0.4634 -0.0221 0.8859
vn -0.4434 -0.0011 0.8963
vn -0.4401 -0.0011 0.8979
vn 0.0558 -0.2922 0.9547
vn -0.7698 0.2046 0.6045
vn -0.2461 -0.5493 0.7986
vn -0.5213 0.6673 0.5319
vn -0.4027 -0.3820 0.8318
vn -0.3202 0.4454 0.8361
vn 0.3741 -0.3117 0.8734
vn 0.2891 0.2967 0.9101
vn -0.3878 -0.2829 0.8773
vn -0.3147 0.3215 0.8931
vn 0.3721 -0.4525 0.8104
vn 0.2536 0.4453 0.8587
vn 0.1942 -0.5211 0.8311
vn 0.5882 0.6516 0.4790
vn -0.0480 -0.2408 0.9694
vn 0.7984 0.1141 0.5913
vn 0.4529 -0.0216 0.8913
vn 0.4545 -0.0216 0.8905
vn -0.0220 0.0011 0.9998
vn 0.5511 -0.5850 0.5950
vn 0.2396 -0.3324 0.9122
vn 0.2751 -0.8128 0.5134
vn -0.6453 -0.6226 0.4427
vn 0.5508 -0.6755 0.4902
vn -0.5889 -0.6420 0.4910
vn 0.6244 -0.6560 0.4239
vn -0.3153 -0.7861 0.5317
vn -0.2042 -0.2766 0.9390
vn 0.1039 -0.7666 0.6337
vn 0.5900 -0.6962 0.4089
vn 0.6485 0.5816 0.4912
vn 0.2159 0.7743 0.5948
vn 0.7113 -0.5914 0.3798
vn 0.7621 0.5273 0.3756
vn -0.5685 0.5808 0.5826
vn -0.6030 -0.5521 0.5758
vn 0.5661 -0.5893 0.5764
vn 0.5710 0.5860 0.5749
vn -0.7099 0.5553 0.4332
vn -0.7208 -0.5393 0.4354
vn -0.6069 -0.6065 0.5136
vn -0.6537 0.6254 0.4260
vn -0.0654 -0.7527 0.6551
vn -0.0562 0.7653 0.6413
vn 0.0612 0.6771 0.7333
vn 0.0661 0.6807 0.7296
vn 0.1589 -0.1687 0.9728
vn 0.1668 0.1678 0.9716
vn -0.1671 0.1671 0.9717
vn -0.1751 -0.1640 0.9708
vn 0.0736 0.6830 0.7267
vn 0.0664 0.6836 0.7268
vn 0.0746 0.6921 0.7179
vn 0.0673 0.6925 0.7182
vn 0.1576 -0.1730 0.9722
vn 0.1682 0.1636 0.9721
vn -0.1670 0.1674 0.9716
vn -0.1752 -0.1637 0.9708
vn 0.0517 -0.0557 0.9971
vn -0.0637 -0.0601 0.9962
vn 0.0570 0.0564 0.9968
vn -0.0570 0.0566 0.9968
vn 0.0513 -0.0544 0.9972
vn -0.0634 -0.0594 0.9962
vn 0.0575 0.0578 0.9967
vn -0.0573 0.0573 0.9967
vn 0.0523 -0.0574 0.9970
vn -0.0633 -0.0591 0.9962
vn 0.0563 0.0548 0.9969
vn -0.0574 0.0576 0.9967
vn -0.7093 0.0756 -0.7009
vn -0.7285 -0.0148 -0.6849
vn 0.7221 -0.0051 -0.6917
vn 0.7003 0.0222 -0.7135
vn -0.7041 0.0078 -0.7101
vn -0.7069 0.0169 -0.7071
vn -0.7083 0.0126 -0.7058
vn -0.6888 0.0537 -0.7229
vn 0.7065 0.0106 -0.7076
vn 0.7052 0.0053 -0.7090
vn 0.7071 -0.0005 -0.7071
vn -0.7120 -0.0146 -0.7020
vn -0.5787 -0.5871 -0.5661
vn -0.0190 -0.7034 -0.7105
vn 0.6992 -0.0229 -0.7146
vn -0.7345 -0.0133 -0.6785
vn 0.7112 0.0129 -0.7029
vn 0.7280 -0.0089 -0.6855
vn 0.7133 -0.0187 -0.7006
vn 0.0188 -0.7034 -0.7105
vn 0.5750 -0.5902 -0.5667
vn -0.6933 -0.0380 -0.7196
vn 0.7044 0.2348 -0.6698
vn 0.5231 0.4918 -0.6960
vn 0.5219 0.4345 -0.7341
vn 0.5787 0.4277 -0.6943
vn 0.5367 0.4683 -0.7019
vn -0.4362 0.5272 -0.7293
vn -0.6719 0.3464 -0.6546
vn -0.5261 0.4376 -0.7292
vn -0.5708 0.4375 -0.6949
vn -0.5560 0.4062 -0.7252
vn 0.5219 0.4771 -0.7071
vn -0.6153 0.2876 -0.7339
vn -0.6019 0.3711 -0.7071
vn 0.5486 0.4052 -0.7314
vn 0.3927 0.6879 -0.6104
vn -0.4699 0.6508 -0.5963
vn -0.0000 -0.7062 -0.7080
vn 0.0000 -0.7062 -0.7080
vn 0.0000 -0.7061 -0.7081
vn -0.5774 0.5774 -0.5774
vn 0.5774 0.5774 -0.5774
vn 0.5774 -0.5774 -0.5774
vn -0.5774 -0.5774 -0.5774
vn 0.5774 -0.5774 0.5774
vn 0.5774 0.5774 0.5774
vn -0.5774 0.5774 0.5774
vn -0.5774 -0.5774 0.5774
# 420 vertex normals

vt 0.2072 0.4597 0.0000
vt 0.2616 0.4757 0.0000
vt 0.2536 0.4831 0.0000
vt 0.2035 0.4719 0.0000
vt 0.2096 0.7051 0.0000
vt 0.2035 0.6892 0.0000
vt 0.2560 0.6749 0.0000
vt 0.2658 0.6809 0.0000
vt 0.6342 0.8251 0.0000
vt 0.6343 0.8295 0.0000
vt 0.6259 0.8287 0.0000
vt 0.6267 0.8244 0.0000
vt 0.5891 0.8198 0.0000
vt 0.5888 0.8248 0.0000
vt 0.5816 0.8242 0.0000
vt 0.5819 0.8195 0.0000
vt 0.5462 0.8198 0.0000
vt 0.5461 0.8241 0.0000
vt 0.5385 0.8232 0.0000
vt 0.5393 0.8190 0.0000
vt 0.5880 0.8295 0.0000
vt 0.5808 0.8288 0.0000
vt 0.5457 0.8283 0.0000
vt 0.5377 0.8273 0.0000
vt 0.6340 0.8339 0.0000
vt 0.6337 0.8376 0.0000
vt 0.6248 0.8367 0.0000
vt 0.6250 0.8330 0.0000
vt 0.5875 0.8334 0.0000
vt 0.5807 0.8327 0.0000
vt 0.5454 0.8318 0.0000
vt 0.5373 0.8308 0.0000
vt 0.6320 0.8602 0.0000
vt 0.6252 0.8601 0.0000
vt 0.5857 0.8570 0.0000
vt 0.5804 0.8567 0.0000
vt 0.5432 0.8544 0.0000
vt 0.5366 0.8540 0.0000
vt 0.6104 0.8802 0.0000
vt 0.6056 0.8802 0.0000
vt 0.5846 0.8789 0.0000
vt 0.5792 0.8786 0.0000
vt 0.5570 0.8774 0.0000
vt 0.5514 0.8770 0.0000
vt 0.6066 0.9197 0.0000
vt 0.6023 0.9199 0.0000
vt 0.5936 0.9193 0.0000
vt 0.5874 0.9187 0.0000
vt 0.5754 0.9163 0.0000
vt 0.5709 0.9160 0.0000
vt 0.5961 0.9452 0.0000
vt 0.5945 0.9452 0.0000
vt 0.5916 0.9452 0.0000
vt 0.5803 0.9448 0.0000
vt 0.5765 0.9441 0.0000
vt 0.5747 0.9440 0.0000
vt 0.5955 0.9559 0.0000
vt 0.5945 0.9569 0.0000
vt 0.5919 0.9602 0.0000
vt 0.5753 0.9589 0.0000
vt 0.5730 0.9551 0.0000
vt 0.5722 0.9542 0.0000
vt 0.5818 0.9819 0.0000
vt 0.5768 0.9818 0.0000
vt 0.2744 0.5384 0.0000
vt 0.2740 0.5303 0.0000
vt 0.3344 0.5281 0.0000
vt 0.3347 0.5362 0.0000
vt 0.2545 0.4901 0.0000
vt 0.2669 0.4858 0.0000
vt 0.2019 0.4790 0.0000
vt 0.2575 0.6675 0.0000
vt 0.2013 0.6797 0.0000
vt 0.2694 0.6713 0.0000
vt 0.3347 0.7206 0.0000
vt 0.3344 0.7287 0.0000
vt 0.2740 0.7264 0.0000
vt 0.2744 0.7183 0.0000
vt 0.4998 0.7639 0.0000
vt 0.4997 0.7686 0.0000
vt 0.4939 0.7685 0.0000
vt 0.4941 0.7634 0.0000
vt 0.5050 0.7122 0.0000
vt 0.5044 0.7182 0.0000
vt 0.4984 0.7176 0.0000
vt 0.4989 0.7114 0.0000
vt 0.5057 0.6615 0.0000
vt 0.4991 0.6604 0.0000
vt 0.6727 0.6551 0.0000
vt 0.6800 0.6552 0.0000
vt 0.6789 0.7103 0.0000
vt 0.6717 0.7103 0.0000
vt 0.6788 0.7149 0.0000
vt 0.6715 0.7151 0.0000
vt 0.6776 0.7676 0.0000
vt 0.6842 0.7674 0.0000
vt 0.6840 0.7735 0.0000
vt 0.6775 0.7730 0.0000
vt 0.3921 0.3021 0.0000
vt 0.3880 0.3097 0.0000
vt 0.3307 0.2776 0.0000
vt 0.3345 0.2698 0.0000
vt 0.2058 0.4267 0.0000
vt 0.2378 0.4464 0.0000
vt 0.2333 0.4540 0.0000
vt 0.2008 0.4337 0.0000
vt 0.5045 0.8194 0.0000
vt 0.4972 0.8188 0.0000
vt 0.4977 0.8148 0.0000
vt 0.5047 0.8150 0.0000
vt 0.5042 0.8235 0.0000
vt 0.4967 0.8228 0.0000
vt 0.5036 0.8268 0.0000
vt 0.4965 0.8257 0.0000
vt 0.5005 0.8500 0.0000
vt 0.4939 0.8494 0.0000
vt 0.6712 0.8246 0.0000
vt 0.6790 0.8250 0.0000
vt 0.6790 0.8292 0.0000
vt 0.6709 0.8292 0.0000
vt 0.6707 0.8335 0.0000
vt 0.6790 0.8334 0.0000
vt 0.6789 0.8366 0.0000
vt 0.6708 0.8372 0.0000
vt 0.6790 0.8616 0.0000
vt 0.6722 0.8613 0.0000
vt 0.6586 0.8824 0.0000
vt 0.6514 0.8820 0.0000
vt 0.6244 0.9192 0.0000
vt 0.6156 0.9194 0.0000
vt 0.6077 0.9453 0.0000
vt 0.5989 0.9455 0.0000
vt 0.6026 0.9526 0.0000
vt 0.5984 0.9528 0.0000
vt 0.5291 0.8744 0.0000
vt 0.5215 0.8734 0.0000
vt 0.5584 0.9135 0.0000
vt 0.5511 0.9122 0.0000
vt 0.5705 0.9435 0.0000
vt 0.5631 0.9418 0.0000
vt 0.5696 0.9504 0.0000
vt 0.5661 0.9497 0.0000
vt 0.6009 0.9556 0.0000
vt 0.6004 0.9565 0.0000
vt 0.5674 0.9539 0.0000
vt 0.5672 0.9533 0.0000
vt 0.5984 0.9598 0.0000
vt 0.5837 0.9850 0.0000
vt 0.5746 0.9842 0.0000
vt 0.5691 0.9579 0.0000
vt 0.2436 0.4501 0.0000
vt 0.2391 0.4580 0.0000
vt 0.2545 0.4560 0.0000
vt 0.3247 0.2743 0.0000
vt 0.3286 0.2665 0.0000
vt 0.3008 0.2572 0.0000
vt 0.3051 0.2496 0.0000
vt 0.7150 0.7329 0.0000
vt 0.7415 0.7322 0.0000
vt 0.7405 0.7690 0.0000
vt 0.7157 0.7674 0.0000
vt 0.7379 0.8274 0.0000
vt 0.7102 0.8267 0.0000
vt 0.7433 0.8703 0.0000
vt 0.7018 0.8678 0.0000
vt 0.7428 0.8830 0.0000
vt 0.7002 0.8779 0.0000
vt 0.2332 0.2728 0.0000
vt 0.2318 0.2501 0.0000
vt 0.2732 0.2491 0.0000
vt 0.2735 0.2718 0.0000
vt 0.1779 0.2751 0.0000
vt 0.1761 0.2490 0.0000
vt 0.1411 0.2860 0.0000
vt 0.1330 0.2468 0.0000
vt 0.1314 0.2889 0.0000
vt 0.1204 0.2481 0.0000
vt 0.6996 0.8833 0.0000
vt 0.7419 0.8891 0.0000
vt 0.7419 0.8908 0.0000
vt 0.6992 0.8887 0.0000
vt 0.1210 0.2920 0.0000
vt 0.1132 0.2501 0.0000
vt 0.1148 0.2497 0.0000
vt 0.1262 0.2905 0.0000
vt 0.6989 0.8942 0.0000
vt 0.7417 0.8967 0.0000
vt 0.7374 0.9315 0.0000
vt 0.6941 0.9254 0.0000
vt 0.0899 0.3014 0.0000
vt 0.0767 0.2585 0.0000
vt 0.1072 0.2511 0.0000
vt 0.1156 0.2934 0.0000
vt 0.7430 0.2252 0.0000
vt 0.8567 0.2252 0.0000
vt 0.8567 0.2407 0.0000
vt 0.7430 0.2407 0.0000
vt 0.7469 0.7323 0.0000
vt 0.7461 0.7692 0.0000
vt 0.7442 0.8271 0.0000
vt 0.7499 0.8691 0.0000
vt 0.7529 0.8835 0.0000
vt 0.2316 0.2441 0.0000
vt 0.2728 0.2431 0.0000
vt 0.1762 0.2427 0.0000
vt 0.1335 0.2399 0.0000
vt 0.1191 0.2388 0.0000
vt 0.7531 0.8911 0.0000
vt 0.7530 0.8926 0.0000
vt 0.1122 0.2392 0.0000
vt 0.1108 0.2395 0.0000
vt 0.7512 0.9000 0.0000
vt 0.7451 0.9328 0.0000
vt 0.0744 0.2509 0.0000
vt 0.1046 0.2416 0.0000
vt 0.8743 0.2252 0.0000
vt 0.8743 0.2407 0.0000
vt 0.7411 0.7284 0.0000
vt 0.7461 0.7282 0.0000
vt 0.2776 0.2435 0.0000
vt 0.2775 0.2494 0.0000
vt 0.2600 0.5791 0.0000
vt 0.2721 0.5788 0.0000
vt 0.1959 0.5905 0.0000
vt 0.3345 0.6363 0.0000
vt 0.2741 0.6253 0.0000
vt 0.2497 0.7908 0.0000
vt 0.2541 0.7905 0.0000
vt 0.2536 0.7951 0.0000
vt 0.2492 0.7953 0.0000
vt 0.3761 0.7222 0.0000
vt 0.3780 0.7218 0.0000
vt 0.3801 0.7306 0.0000
vt 0.3737 0.7289 0.0000
vt 0.2734 0.3951 0.0000
vt 0.2712 0.3989 0.0000
vt 0.2651 0.3950 0.0000
vt 0.2679 0.3908 0.0000
vt 0.2530 0.3527 0.0000
vt 0.3883 0.5738 0.0000
vt 0.3925 0.5735 0.0000
vt 0.3923 0.5778 0.0000
vt 0.3880 0.5781 0.0000
vt 0.2600 0.5704 0.0000
vt 0.1959 0.5815 0.0000
vt 0.2720 0.5701 0.0000
vt 0.2742 0.6173 0.0000
vt 0.3345 0.6282 0.0000
vt 0.2570 0.3453 0.0000
vt 0.2964 0.3377 0.0000
vt 0.2855 0.3608 0.0000
vt 0.3028 0.3398 0.0000
vt 0.2915 0.3644 0.0000
vt 0.5878 0.7719 0.0000
vt 0.5824 0.7720 0.0000
vt 0.5825 0.7672 0.0000
vt 0.5880 0.7671 0.0000
vt 0.2815 0.3681 0.0000
vt 0.2869 0.3720 0.0000
vt 0.2974 0.3798 0.0000
vt 0.5399 0.7111 0.0000
vt 0.5468 0.7109 0.0000
vt 0.5461 0.7163 0.0000
vt 0.5400 0.7164 0.0000
vt 0.5837 0.7140 0.0000
vt 0.5904 0.7140 0.0000
vt 0.5900 0.7190 0.0000
vt 0.5833 0.7191 0.0000
vt 0.6265 0.7104 0.0000
vt 0.6338 0.7099 0.0000
vt 0.6333 0.7148 0.0000
vt 0.6267 0.7151 0.0000
vt 0.5881 0.6600 0.0000
vt 0.5956 0.6603 0.0000
vt 0.6709 0.7728 0.0000
vt 0.6707 0.7686 0.0000
vt 0.6282 0.8171 0.0000
vt 0.6334 0.8171 0.0000
vt 0.5941 0.7672 0.0000
vt 0.5942 0.7710 0.0000
vt 0.6323 0.7222 0.0000
vt 0.6275 0.7227 0.0000
vt 0.5756 0.7725 0.0000
vt 0.5758 0.7678 0.0000
vt 0.5406 0.8118 0.0000
vt 0.5453 0.8119 0.0000
vt 0.5062 0.7642 0.0000
vt 0.5064 0.7679 0.0000
vt 0.5449 0.7234 0.0000
vt 0.5404 0.7236 0.0000
vt 0.2939 0.7967 0.0000
vt 0.2863 0.7967 0.0000
vt 0.2865 0.7921 0.0000
vt 0.2944 0.7912 0.0000
vt 0.2546 0.8458 0.0000
vt 0.2484 0.8450 0.0000
vt 0.2495 0.8368 0.0000
vt 0.2542 0.8369 0.0000
vt 0.2111 0.7898 0.0000
vt 0.2184 0.7896 0.0000
vt 0.2182 0.7939 0.0000
vt 0.2106 0.7947 0.0000
vt 0.2466 0.7404 0.0000
vt 0.2527 0.7405 0.0000
vt 0.2519 0.7488 0.0000
vt 0.2473 0.7493 0.0000
vt 0.4362 0.5833 0.0000
vt 0.4236 0.5822 0.0000
vt 0.4256 0.5777 0.0000
vt 0.4365 0.5766 0.0000
vt 0.3879 0.6266 0.0000
vt 0.3887 0.6180 0.0000
vt 0.3932 0.6181 0.0000
vt 0.3938 0.6274 0.0000
vt 0.3488 0.5720 0.0000
vt 0.3566 0.5720 0.0000
vt 0.3565 0.5762 0.0000
vt 0.3484 0.5769 0.0000
vt 0.3860 0.5250 0.0000
vt 0.3920 0.5255 0.0000
vt 0.3908 0.5337 0.0000
vt 0.3863 0.5340 0.0000
vt 0.4175 0.5749 0.0000
vt 0.4192 0.5711 0.0000
vt 0.5114 0.8075 0.0000
vt 0.5745 0.8116 0.0000
vt 0.5762 0.7265 0.0000
vt 0.5112 0.7253 0.0000
vt 0.3551 0.6226 0.0000
vt 0.3610 0.6160 0.0000
vt 0.4197 0.6196 0.0000
vt 0.4261 0.6265 0.0000
vt 0.4246 0.5284 0.0000
vt 0.4189 0.5347 0.0000
vt 0.3591 0.5337 0.0000
vt 0.3535 0.5276 0.0000
vt 0.5964 0.8123 0.0000
vt 0.6645 0.8169 0.0000
vt 0.6647 0.7236 0.0000
vt 0.5973 0.7260 0.0000
vt 0.2145 0.8406 0.0000
vt 0.2205 0.8343 0.0000
vt 0.2825 0.8386 0.0000
vt 0.2879 0.8449 0.0000
vt 0.2866 0.7415 0.0000
vt 0.2810 0.7485 0.0000
vt 0.2199 0.7502 0.0000
vt 0.2142 0.7444 0.0000
vt 0.4283 0.5927 0.0000
vt 0.4255 0.5924 0.0000
vt 0.4279 0.5674 0.0000
vt 0.4204 0.5701 0.0000
vt 0.9677 0.1196 0.0000
vt 0.9920 0.1177 0.0000
vt 0.9968 0.1566 0.0000
vt 0.9696 0.1580 0.0000
vt 0.4077 0.3710 0.0000
vt 0.3836 0.3722 0.0000
vt 0.3766 0.3346 0.0000
vt 0.4031 0.3327 0.0000
vt 0.3636 0.3731 0.0000
vt 0.3455 0.3732 0.0000
vt 0.3424 0.3369 0.0000
vt 0.3747 0.3327 0.0000
vt 0.3131 0.3350 0.0000
vt 0.3386 0.3327 0.0000
vt 0.3436 0.3717 0.0000
vt 0.3186 0.3751 0.0000
vt 0.7088 0.9363 0.0000
vt 0.7336 0.9335 0.0000
vt 0.7391 0.9756 0.0000
vt 0.7113 0.9776 0.0000
vt 0.4229 0.4525 0.0000
vt 0.3965 0.4534 0.0000
vt 0.3913 0.4127 0.0000
vt 0.4187 0.4108 0.0000
vt 0.9675 0.1704 0.0000
vt 0.9419 0.1709 0.0000
vt 0.9384 0.1288 0.0000
vt 0.9669 0.1275 0.0000
vt 0.9384 0.0721 0.0000
vt 0.9639 0.0689 0.0000
vt 0.9721 0.1114 0.0000
vt 0.9442 0.1138 0.0000
vt 0.3047 0.7913 0.0000
vt 0.2965 0.7303 0.0000
vt 0.3050 0.7971 0.0000
vt 0.2964 0.8569 0.0000
vt 0.2541 0.8571 0.0000
vt 0.2471 0.8571 0.0000
vt 0.2040 0.8506 0.0000
vt 0.2010 0.7946 0.0000
vt 0.2008 0.7895 0.0000
vt 0.2051 0.7335 0.0000
vt 0.2461 0.7290 0.0000
vt 0.2526 0.7283 0.0000
vt 0.2737 0.7563 0.0000
vt 0.2785 0.7812 0.0000
vt 0.2588 0.7582 0.0000
vt 0.2622 0.7826 0.0000
vt 0.2771 0.8295 0.0000
vt 0.2623 0.8298 0.0000
vt 0.2767 0.8048 0.0000
vt 0.2602 0.8055 0.0000
vt 0.2281 0.8273 0.0000
vt 0.2252 0.8042 0.0000
vt 0.2432 0.8269 0.0000
vt 0.2408 0.8031 0.0000
vt 0.2257 0.7586 0.0000
vt 0.2397 0.7570 0.0000
vt 0.2271 0.7818 0.0000
vt 0.2428 0.7807 0.0000
vt 0.4371 0.5178 0.0000
vt 0.4114 0.5420 0.0000
vt 0.4142 0.5634 0.0000
vt 0.3975 0.5433 0.0000
vt 0.4005 0.5652 0.0000
vt 0.3998 0.5858 0.0000
vt 0.4219 0.5829 0.0000
vt 0.4019 0.6107 0.0000
vt 0.4143 0.6106 0.0000
vt 0.4346 0.6388 0.0000
vt 0.3931 0.6392 0.0000
vt 0.3865 0.6391 0.0000
vt 0.3449 0.6330 0.0000
vt 0.3378 0.5767 0.0000
vt 0.3375 0.5715 0.0000
vt 0.3446 0.5162 0.0000
vt 0.3861 0.5137 0.0000
vt 0.3926 0.5134 0.0000
vt 0.3684 0.6087 0.0000
vt 0.3644 0.5872 0.0000
vt 0.3822 0.6080 0.0000
vt 0.3795 0.5861 0.0000
vt 0.3649 0.5424 0.0000
vt 0.3786 0.5413 0.0000
vt 0.3660 0.5640 0.0000
vt 0.3813 0.5632 0.0000
vt 0.1814 0.9629 0.0000
vt 0.1875 0.9776 0.0000
vt 0.1601 0.9775 0.0000
vt 0.1587 0.9643 0.0000
vt 0.0942 0.9647 0.0000
vt 0.0897 0.9813 0.0000
vt 0.0154 0.9071 0.0000
vt 0.0217 0.8998 0.0000
vt 0.9066 0.1501 0.0000
vt 0.9057 0.0859 0.0000
vt 0.9160 0.0860 0.0000
vt 0.9157 0.1494 0.0000
vt 0.2649 0.8954 0.0000
vt 0.2718 0.9042 0.0000
vt 0.0054 0.9172 0.0000
vt 0.0845 0.9916 0.0000
vt 0.4465 0.3210 0.0000
vt 0.4059 0.3210 0.0000
vt 0.4059 0.2902 0.0000
vt 0.4465 0.2902 0.0000
vt 0.0985 0.9517 0.0000
vt 0.0282 0.8927 0.0000
vt 0.2567 0.8846 0.0000
vt 0.1759 0.9492 0.0000
vt 0.4450 0.5062 0.0000
vt 0.4080 0.5062 0.0000
vt 0.4080 0.4753 0.0000
vt 0.4450 0.4753 0.0000
vt 0.1917 0.9905 0.0000
vt 0.2834 0.9194 0.0000
vt 0.1593 0.9898 0.0000
vt 0.3868 0.4392 0.0000
vt 0.3410 0.4480 0.0000
vt 0.3453 0.4417 0.0000
vt 0.2541 0.4469 0.0000
vt 0.2694 0.4555 0.0000
vt 0.2800 0.3995 0.0000
vt 0.2778 0.4035 0.0000
vt 0.3034 0.3929 0.0000
vt 0.2893 0.3828 0.0000
vt 0.4379 0.4323 0.0000
vt 0.4364 0.4510 0.0000
vt 0.4310 0.4454 0.0000
vt 0.4299 0.4255 0.0000
vt 0.3764 0.6545 0.0000
vt 0.3755 0.6623 0.0000
vt 0.3734 0.6627 0.0000
vt 0.3704 0.6551 0.0000
vt 0.9775 0.0896 0.0000
vt 0.9717 0.0980 0.0000
vt 0.9677 0.0772 0.0000
vt 0.9758 0.0689 0.0000
vt 0.3732 0.7031 0.0000
vt 0.3777 0.7025 0.0000
vt 0.3801 0.7381 0.0000
vt 0.3756 0.7388 0.0000
vt 0.4293 0.7141 0.0000
vt 0.4250 0.7311 0.0000
vt 0.4206 0.7248 0.0000
vt 0.4225 0.7057 0.0000
vt 0.3733 0.6463 0.0000
vt 0.3686 0.6471 0.0000
vt 0.3585 0.7328 0.0000
vt 0.3505 0.7425 0.0000
vt 0.3473 0.7192 0.0000
vt 0.3546 0.7104 0.0000
vt 0.9826 0.0951 0.0000
vt 0.9851 0.0894 0.0000
vt 0.9828 0.0694 0.0000
vt 0.0263 0.8107 0.0000
vt 0.0200 0.8049 0.0000
vt 0.0323 0.8016 0.0000
vt 0.0362 0.8082 0.0000
vt 0.3563 0.6573 0.0000
vt 0.3497 0.6508 0.0000
vt 0.3545 0.4276 0.0000
vt 0.3401 0.5071 0.0000
vt 0.3223 0.4768 0.0000
vt 0.3265 0.4709 0.0000
vt 0.4026 0.6404 0.0000
vt 0.4158 0.6412 0.0000
vt 0.4105 0.6525 0.0000
vt 0.4015 0.6495 0.0000
vt 0.4053 0.6589 0.0000
vt 0.4033 0.6590 0.0000
vt 0.4078 0.7175 0.0000
vt 0.4060 0.7178 0.0000
vt 0.4036 0.7005 0.0000
vt 0.4076 0.7008 0.0000
vt 0.4108 0.7242 0.0000
vt 0.4046 0.7245 0.0000
vt 0.4121 0.7315 0.0000
vt 0.4070 0.7316 0.0000
vt 0.2618 0.4322 0.0000
vt 0.2596 0.4364 0.0000
vt 0.2526 0.4327 0.0000
vt 0.2549 0.4282 0.0000
vt 0.2464 0.4296 0.0000
vt 0.2489 0.4247 0.0000
vt 0.3173 0.4843 0.0000
vt 0.4295 0.6463 0.0000
vt 0.4218 0.6534 0.0000
vt 0.8407 0.9677 0.0000
vt 0.8486 0.9679 0.0000
vt 0.8422 0.9739 0.0000
vt 0.8358 0.9729 0.0000
vt 0.4261 0.4464 0.0000
vt 0.4255 0.4275 0.0000
vt 0.4292 0.4517 0.0000
vt 0.4152 0.3671 0.0000
vt 0.4108 0.3591 0.0000
vt 0.4415 0.3538 0.0000
vt 0.4392 0.3603 0.0000
vt 0.4111 0.3368 0.0000
vt 0.4387 0.3327 0.0000
vt 0.7859 0.9565 0.0000
vt 0.7576 0.9609 0.0000
vt 0.7594 0.9539 0.0000
vt 0.7823 0.9481 0.0000
vt 0.3014 0.3826 0.0000
vt 0.3083 0.3963 0.0000
vt 0.3473 0.7135 0.0000
vt 0.3554 0.7015 0.0000
vt 0.3649 0.6961 0.0000
vt 0.3646 0.7017 0.0000
vt 0.3748 0.6940 0.0000
vt 0.3785 0.6943 0.0000
vt 0.4044 0.6930 0.0000
vt 0.4082 0.6922 0.0000
vt 0.4129 0.6948 0.0000
vt 0.4143 0.6991 0.0000
vt 0.4225 0.6982 0.0000
vt 0.4299 0.7092 0.0000
vt 0.2749 0.4583 0.0000
vt 0.2573 0.4576 0.0000
vt 0.3921 0.4307 0.0000
vt 0.3707 0.4291 0.0000
vt 0.3647 0.4252 0.0000
vt 0.3486 0.4235 0.0000
vt 0.3459 0.4215 0.0000
vt 0.3484 0.6617 0.0000
vt 0.3485 0.6593 0.0000
vt 0.3558 0.6689 0.0000
vt 0.3561 0.6718 0.0000
vt 0.3648 0.6750 0.0000
vt 0.3653 0.6767 0.0000
vt 0.3735 0.6738 0.0000
vt 0.3735 0.6786 0.0000
vt 0.3781 0.6735 0.0000
vt 0.3779 0.6776 0.0000
vt 0.4032 0.6723 0.0000
vt 0.4034 0.6787 0.0000
vt 0.4074 0.6713 0.0000
vt 0.4067 0.6793 0.0000
vt 0.4141 0.6729 0.0000
vt 0.4139 0.6775 0.0000
vt 0.4227 0.6628 0.0000
vt 0.4223 0.6696 0.0000
vt 0.4298 0.6503 0.0000
vt 0.4299 0.6547 0.0000
vt 0.3153 0.4831 0.0000
vt 0.3249 0.4970 0.0000
vt 0.3194 0.4936 0.0000
vt 0.3104 0.4804 0.0000
vt 0.3348 0.5139 0.0000
vt 0.0202 0.8151 0.0000
vt 0.0291 0.8219 0.0000
vt 0.0363 0.8202 0.0000
vt 0.7607 0.9726 0.0000
vt 0.7853 0.9700 0.0000
vt 0.8376 0.9838 0.0000
vt 0.8425 0.9847 0.0000
vt 0.8492 0.9754 0.0000
vt 0.0710 0.8567 0.0000
vt 0.0611 0.8535 0.0000
vt 0.0621 0.8362 0.0000
vt 0.0675 0.8309 0.0000
vt 0.0563 0.8501 0.0000
vt 0.0542 0.8407 0.0000
vt 0.7765 0.1813 0.0000
vt 0.7786 0.1942 0.0000
vt 0.7497 0.1967 0.0000
vt 0.7479 0.1812 0.0000
vt 0.8198 0.9604 0.0000
vt 0.8220 0.9734 0.0000
vt 0.8107 0.9775 0.0000
vt 0.8113 0.9573 0.0000
vt 0.8045 0.9811 0.0000
vt 0.8016 0.9530 0.0000
vt 0.4128 0.7214 0.0000
vt 0.4180 0.7209 0.0000
vt 0.4106 0.7176 0.0000
vt 0.4102 0.7039 0.0000
vt 0.4133 0.7025 0.0000
vt 0.4191 0.7074 0.0000
vt 0.3585 0.7121 0.0000
vt 0.3619 0.7294 0.0000
vt 0.3653 0.7052 0.0000
vt 0.3711 0.7057 0.0000
vt 0.3730 0.7223 0.0000
vt 0.3710 0.7271 0.0000
vt 0.3679 0.6581 0.0000
vt 0.3593 0.6605 0.0000
vt 0.3706 0.6628 0.0000
vt 0.3707 0.6712 0.0000
vt 0.3656 0.6724 0.0000
vt 0.3594 0.6676 0.0000
vt 0.4187 0.6620 0.0000
vt 0.4182 0.6562 0.0000
vt 0.4134 0.6693 0.0000
vt 0.4097 0.6685 0.0000
vt 0.4082 0.6601 0.0000
vt 0.4120 0.6560 0.0000
vt 0.3809 0.7220 0.0000
vt 0.3841 0.7278 0.0000
vt 0.3811 0.7060 0.0000
vt 0.4011 0.7029 0.0000
vt 0.4031 0.7182 0.0000
vt 0.4014 0.7229 0.0000
vt 0.3972 0.6524 0.0000
vt 0.3798 0.6568 0.0000
vt 0.4000 0.6588 0.0000
vt 0.3995 0.6691 0.0000
vt 0.3808 0.6711 0.0000
vt 0.3785 0.6621 0.0000
vt 0.4103 0.6894 0.0000
vt 0.4137 0.6918 0.0000
vt 0.4089 0.6829 0.0000
vt 0.4144 0.6797 0.0000
vt 0.4181 0.6761 0.0000
vt 0.4206 0.6940 0.0000
vt 0.4016 0.6899 0.0000
vt 0.4002 0.6811 0.0000
vt 0.3819 0.6916 0.0000
vt 0.3807 0.6810 0.0000
vt 0.3579 0.6763 0.0000
vt 0.3600 0.6964 0.0000
vt 0.3648 0.6793 0.0000
vt 0.3710 0.6815 0.0000
vt 0.3725 0.6908 0.0000
vt 0.3644 0.6938 0.0000
vt 0.3161 0.2937 0.0000
vt 0.3185 0.3034 0.0000
vt 0.1150 0.9790 0.0000
vt 0.1153 0.9916 0.0000
vt 0.1157 0.9653 0.0000
vt 0.1143 0.9532 0.0000
vt 0.1574 0.9526 0.0000
vt 0.7804 0.1469 0.0000
vt 0.7804 0.0835 0.0000
vt 0.7862 0.0835 0.0000
vt 0.7877 0.1464 0.0000
vt 0.3126 0.3018 0.0000
vt 0.3153 0.3109 0.0000
vt 0.1246 0.9910 0.0000
vt 0.1242 0.9789 0.0000
vt 0.1227 0.9652 0.0000
vt 0.1229 0.9535 0.0000
vt 0.8096 0.1682 0.0000
vt 0.8086 0.0616 0.0000
vt 0.8224 0.0612 0.0000
vt 0.8234 0.1667 0.0000
vt 0.2991 0.3316 0.0000
vt 0.3054 0.3337 0.0000
vt 0.1522 0.9899 0.0000
vt 0.1529 0.9778 0.0000
vt 0.1516 0.9646 0.0000
vt 0.1507 0.9531 0.0000
vt 0.8739 0.1692 0.0000
vt 0.8742 0.0690 0.0000
vt 0.8872 0.0686 0.0000
vt 0.8869 0.1679 0.0000
vt 0.8411 0.1545 0.0000
vt 0.8418 0.0766 0.0000
vt 0.8575 0.0790 0.0000
vt 0.8556 0.1552 0.0000
vt 0.9345 0.1672 0.0000
vt 0.8980 0.1577 0.0000
vt 0.9238 0.1570 0.0000
vt 0.8976 0.0786 0.0000
vt 0.9348 0.0710 0.0000
vt 0.9243 0.0797 0.0000
vt 0.7579 0.1692 0.0000
vt 0.7707 0.1567 0.0000
vt 0.7972 0.1560 0.0000
vt 0.7576 0.0591 0.0000
vt 0.7703 0.0726 0.0000
vt 0.7959 0.0737 0.0000
vt 0.8331 0.1595 0.0000
vt 0.8643 0.1610 0.0000
vt 0.8321 0.0700 0.0000
vt 0.8651 0.0750 0.0000
vt 0.5236 0.2601 0.0000
vt 0.5446 0.0223 0.0000
vt 0.5758 0.0241 0.0000
vt 0.5548 0.2619 0.0000
vt 0.7130 0.4464 0.0000
vt 0.9482 0.4247 0.0000
vt 0.9527 0.4552 0.0000
vt 0.7174 0.4769 0.0000
vt 0.3087 0.2444 0.0000
vt 0.3297 0.0065 0.0000
vt 0.3783 0.0108 0.0000
vt 0.3573 0.2487 0.0000
vt 0.4372 0.2540 0.0000
vt 0.4583 0.0162 0.0000
vt 0.4894 0.0172 0.0000
vt 0.4684 0.2551 0.0000
vt 0.9577 0.5078 0.0000
vt 0.7224 0.5295 0.0000
vt 0.9623 0.5383 0.0000
vt 0.7270 0.5600 0.0000
vt 0.9672 0.5921 0.0000
vt 0.7320 0.6138 0.0000
vt 0.6172 0.2653 0.0000
vt 0.6383 0.0274 0.0000
vt 0.7583 0.0381 0.0000
vt 0.7373 0.2759 0.0000
vt 0.4471 0.2594 0.0000
vt 0.6824 0.2741 0.0000
vt 0.6818 0.3049 0.0000
vt 0.7100 0.4142 0.0000
vt 0.9453 0.3925 0.0000
vt 0.2986 0.0056 0.0000
vt 0.7414 0.6977 0.0000
vt 0.9767 0.6760 0.0000
vt 0.9813 0.7065 0.0000
vt 0.7055 0.3837 0.0000
vt 0.9408 0.3620 0.0000
vt 0.4405 0.6083 0.0000
vt 0.6758 0.6230 0.0000
vt 0.6755 0.6538 0.0000
vt 0.4402 0.6391 0.0000
vt 0.6961 0.2811 0.0000
vt 0.9313 0.2594 0.0000
vt 0.5861 0.2642 0.0000
vt 0.6071 0.0264 0.0000
vt 0.9873 0.7366 0.0000
vt 0.9876 0.7681 0.0000
vt 0.9872 0.8203 0.0000
vt 0.9873 0.8517 0.0000
vt 0.9876 0.8819 0.0000
vt 0.2328 0.0005 0.0000
vt 0.2673 0.0005 0.0000
vt 0.1817 0.0012 0.0000
vt 0.1505 0.0017 0.0000
vt 0.1203 0.0040 0.0000
vt 0.9861 0.9116 0.0000
vt 0.0334 0.0213 0.0000
vt 0.0615 0.0127 0.0000
vt 0.9746 0.9702 0.0000
vt 0.9670 0.9995 0.0000
vt 0.0054 0.0314 0.0000
vt 0.9928 0.2329 0.0000
vt 0.9928 0.2485 0.0000
vt 0.6818 0.3357 0.0000
vt 0.6803 0.5209 0.0000
vt 0.6803 0.5517 0.0000
vt 0.4450 0.5370 0.0000
vt 0.0907 0.0073 0.0000
vt 0.9814 0.9410 0.0000
vt 0.4094 0.0118 0.0000
vt 0.3884 0.2497 0.0000
vt 0.9717 0.6226 0.0000
vt 0.7365 0.6443 0.0000
vt 0.6817 0.3666 0.0000
vt 0.4464 0.3519 0.0000
vt 0.6803 0.4900 0.0000
vt 0.6817 0.3974 0.0000
vt 0.4464 0.3827 0.0000
vt 0.6807 0.4283 0.0000
vt 0.4454 0.4136 0.0000
vt 0.4454 0.4445 0.0000
vt 0.6807 0.4592 0.0000
vt 0.1031 0.8577 0.0000
vt 0.1002 0.8679 0.0000
vt 0.0978 0.8681 0.0000
vt 0.0913 0.8582 0.0000
vt 0.0897 0.8565 0.0000
vt 0.1038 0.8561 0.0000
vt 0.0878 0.8545 0.0000
vt 0.1038 0.8542 0.0000
vt 0.0856 0.8522 0.0000
vt 0.1046 0.8520 0.0000
vt 0.0824 0.8484 0.0000
vt 0.1079 0.8480 0.0000
vt 0.0688 0.8283 0.0000
vt 0.1214 0.8275 0.0000
vt 0.0278 0.7903 0.0000
vt 0.1597 0.7885 0.0000
vt 0.0094 0.7692 0.0000
vt 0.1894 0.7667 0.0000
vt 0.0074 0.7457 0.0000
vt 0.1878 0.7432 0.0000
vt 0.0062 0.7222 0.0000
vt 0.1859 0.7197 0.0000
vt 0.0055 0.6644 0.0000
vt 0.1864 0.6678 0.0000
vt 0.0051 0.6409 0.0000
vt 0.1854 0.6441 0.0000
vt 0.0041 0.5830 0.0000
vt 0.1857 0.5921 0.0000
vt 0.0035 0.5592 0.0000
vt 0.1855 0.5684 0.0000
vt 0.0022 0.5025 0.0000
vt 0.1938 0.5100 0.0000
vt 0.0005 0.4772 0.0000
vt 0.1940 0.4849 0.0000
vt 0.0026 0.4425 0.0000
vt 0.1910 0.4590 0.0000
vt 0.0024 0.4178 0.0000
vt 0.1909 0.4343 0.0000
vt 0.0151 0.3071 0.0000
vt 0.0920 0.3066 0.0000
vt 0.0005 0.3073 0.0000
vt 0.1119 0.2989 0.0000
vt 0.1319 0.2938 0.0000
vt 0.1529 0.2952 0.0000
vt 0.1717 0.2936 0.0000
vt 0.1958 0.3013 0.0000
vt 0.2129 0.3040 0.0000
vt 0.2290 0.3103 0.0000
vt 0.2445 0.3172 0.0000
vt 0.2590 0.3257 0.0000
vt 0.6996 0.9286 0.0000
vt 0.7057 0.9296 0.0000
vt 0.7002 0.9644 0.0000
vt 0.6941 0.9635 0.0000
vt 0.6973 0.9704 0.0000
vt 0.6978 0.9734 0.0000
vt 0.6971 0.9735 0.0000
vt 0.6966 0.9706 0.0000
vt 0.7002 0.9805 0.0000
vt 0.6941 0.9795 0.0000
# 872 texture coords

o houseTwo
g houseTwo
usemtl default
s 1
f 1/1/1 2/2/2 3/3/3 4/4/4 
f 5/5/5 6/6/6 7/7/7 8/8/8 
f 9/9/9 10/10/10 11/11/11 12/12/12 
f 13/13/13 14/14/14 15/15/15 16/16/16 
f 17/17/16 18/18/17 19/19/17 20/20/16 
f 15/15/15 14/14/14 21/21/17 22/22/17 
f 19/19/17 18/18/17 23/23/17 24/24/17 
f 25/25/17 26/26/17 27/27/17 28/28/17 
f 21/21/17 29/29/17 30/30/17 22/22/17 
f 23/23/17 31/31/17 32/32/17 24/24/17 
f 26/26/17 33/33/17 34/34/17 27/27/17 
f 29/29/17 35/35/17 36/36/17 30/30/17 
f 31/31/17 37/37/17 38/38/17 32/32/17 
f 34/34/17 33/33/17 39/39/16 40/40/16 
f 35/35/17 41/41/16 42/42/16 36/36/17 
f 37/37/17 43/43/16 44/44/16 38/38/17 
f 40/40/16 39/39/16 45/45/16 46/46/16 
f 41/41/16 47/47/16 48/48/16 42/42/16 
f 43/43/16 49/49/16 50/50/16 44/44/16 
f 46/46/16 45/45/16 51/51/16 52/52/16 
f 48/48/16 47/47/16 53/53/16 54/54/16 
f 49/49/16 55/55/16 56/56/16 50/50/16 
f 52/52/16 51/51/16 57/57/16 58/58/16 
f 54/54/16 53/53/16 59/59/18 60/60/19 
f 55/55/16 61/61/16 62/62/16 56/56/16 
f 60/60/19 59/59/18 63/63/18 64/64/19 
f 65/65/20 2/66/2 1/67/1 66/68/21 
f 67/69/22 3/3/3 2/2/2 65/70/20 
f 68/71/23 4/4/4 3/3/3 67/69/22 
f 69/72/24 7/7/7 6/6/6 70/73/25 
f 71/74/26 8/8/8 7/7/7 69/72/24 
f 72/75/27 5/76/5 8/77/8 71/78/26 
f 73/79/16 74/80/16 75/81/28 76/82/28 
f 77/83/16 78/84/16 79/85/29 80/86/30 
f 68/87/23 77/83/16 80/86/30 4/88/4 
f 70/89/25 6/90/6 81/91/31 82/92/16 
f 82/92/16 81/91/31 83/93/32 84/94/16 
f 85/95/16 86/96/33 87/97/33 88/98/16 
f 89/99/34 90/100/35 91/101/36 92/102/37 
f 72/103/27 93/104/38 94/105/39 5/106/5 
f 95/107/17 96/108/40 97/109/41 98/110/16 
f 99/111/17 100/112/42 96/108/40 95/107/17 
f 99/111/17 101/113/43 102/114/44 100/112/42 
f 101/113/43 103/115/17 104/116/45 102/114/44 
f 105/117/46 106/118/47 107/119/48 108/120/49 
f 109/121/17 110/122/50 111/123/51 112/124/52 
f 112/124/52 111/123/51 113/125/53 114/126/17 
f 114/126/17 113/125/53 115/127/54 116/128/16 
f 116/128/16 115/127/54 117/129/55 118/130/56 
f 118/130/56 117/129/55 119/131/57 120/132/56 
f 120/132/56 119/131/57 121/133/58 122/134/56 
f 103/115/17 123/135/16 124/136/59 104/116/45 
f 123/135/16 125/137/16 126/138/60 124/136/59 
f 125/137/16 127/139/16 128/140/61 126/138/60 
f 127/139/16 129/141/16 130/142/62 128/140/61 
f 57/57/16 131/143/63 132/144/64 58/58/16 
f 62/62/16 61/61/16 133/145/65 134/146/65 
f 59/59/18 135/147/66 136/148/67 63/63/18 
f 60/60/19 64/64/19 137/149/68 138/150/69 
f 64/64/19 63/63/18 136/148/67 137/149/68 
f 139/151/70 140/152/71 94/105/39 93/104/38 
f 139/151/70 141/153/72 140/152/71 
f 142/154/73 143/155/74 92/102/37 91/101/36 
f 66/156/21 1/157/1 143/155/74 142/154/73 
f 113/158/53 111/159/51 144/160/75 115/161/54 
f 115/161/54 144/160/75 145/162/76 117/163/55 
f 117/163/55 145/162/76 146/164/77 119/165/57 
f 119/165/57 146/164/77 147/166/78 121/167/58 
f 124/168/59 148/169/79 102/170/44 104/171/45 
f 126/172/60 149/173/80 148/169/79 124/168/59 
f 128/174/61 150/175/81 149/173/80 126/172/60 
f 130/176/62 151/177/82 150/175/81 128/174/61 
f 131/178/63 152/179/83 153/180/84 132/181/64 
f 133/182/65 154/183/85 155/184/85 134/185/65 
f 135/186/66 156/187/86 157/188/87 136/189/67 
f 137/190/68 158/191/88 159/192/89 138/193/69 
f 136/194/67 157/195/87 158/196/88 137/197/68 
f 160/198/90 161/199/91 144/160/75 111/159/51 
f 161/199/91 162/200/76 145/162/76 144/160/75 
f 162/200/76 163/201/77 146/164/77 145/162/76 
f 163/201/77 164/202/92 147/166/78 146/164/77 
f 165/203/93 166/204/94 102/170/44 148/169/79 
f 167/205/80 165/203/93 148/169/79 149/173/80 
f 168/206/81 167/205/80 149/173/80 150/175/81 
f 169/207/82 168/206/81 150/175/81 151/177/82 
f 170/208/95 171/209/96 153/180/84 152/179/83 
f 172/210/85 155/184/85 154/183/85 173/211/85 
f 174/212/97 175/213/98 157/188/87 156/187/86 
f 176/214/88 177/215/89 159/192/89 158/191/88 
f 175/216/98 176/217/88 158/196/88 157/195/87 
f 110/122/50 109/121/17 108/120/49 107/119/48 
f 111/159/51 110/218/50 107/219/48 160/198/90 
f 102/170/44 166/204/94 96/220/40 100/221/42 
f 25/25/17 28/28/17 11/11/11 10/10/10 
f 69/72/24 178/222/99 179/223/100 71/74/26 
f 69/72/24 70/73/25 180/224/101 178/222/99 
f 181/225/102 72/75/27 71/78/26 179/226/100 
f 182/227/103 183/228/104 184/229/105 185/230/106 
f 186/231/107 187/232/108 188/233/109 189/234/110 
f 190/235/16 191/236/16 192/237/16 193/238/16 
f 193/238/16 192/237/16 181/239/102 
f 194/240/111 195/241/112 196/242/113 197/243/114 
f 68/71/23 67/69/22 198/244/99 199/245/115 
f 198/244/99 67/69/22 65/70/20 200/246/100 
f 200/247/100 65/65/20 66/68/21 201/248/116 
f 201/249/116 202/250/16 203/251/16 
f 202/250/16 204/252/117 205/253/118 203/251/16 
f 206/254/16 207/255/16 208/256/16 209/257/16 
f 199/245/115 198/244/99 178/222/99 180/224/101 
f 198/244/99 200/246/100 179/223/100 178/222/99 
f 179/226/100 200/247/100 201/248/116 181/225/102 
f 181/239/102 201/249/116 203/251/16 210/258/16 
f 210/258/16 203/251/16 205/253/118 211/259/16 
f 211/259/16 205/253/118 212/260/16 
f 213/261/16 214/262/16 215/263/16 216/264/16 
f 217/265/16 218/266/16 219/267/16 220/268/16 
f 221/269/16 222/270/16 223/271/16 224/272/16 
f 199/273/115 217/265/16 214/262/16 
f 199/273/115 180/274/101 218/266/16 217/265/16 
f 70/89/25 82/92/16 222/270/16 
f 88/98/16 225/275/119 226/276/119 85/95/16 
f 9/9/9 12/12/12 227/277/120 228/278/120 
f 209/257/16 229/279/121 230/280/121 206/254/16 
f 224/272/16 223/271/16 231/281/122 232/282/122 
f 207/255/16 233/283/123 234/284/124 208/256/16 
f 20/20/16 235/285/120 236/286/120 17/17/16 
f 73/79/16 237/287/28 238/288/28 74/80/16 
f 216/264/16 215/263/16 239/289/122 240/290/122 
f 241/291/119 242/292/125 243/293/126 244/294/119 
f 245/295/120 246/296/120 247/297/127 248/298/128 
f 249/299/121 250/300/129 251/301/130 252/302/121 
f 253/303/122 254/304/122 255/305/131 256/306/132 
f 233/307/123 257/308/133 258/309/134 234/310/124 
f 259/311/120 260/312/135 261/313/136 262/314/120 
f 263/315/28 264/316/137 265/317/138 266/318/28 
f 267/319/122 268/320/122 269/321/139 270/322/140 
f 16/16/16 15/15/15 18/18/17 17/17/16 
f 95/107/17 98/110/16 20/20/16 19/19/17 
f 18/18/17 15/15/15 22/22/17 23/23/17 
f 99/111/17 95/107/17 19/19/17 24/24/17 
f 22/22/17 30/30/17 31/31/17 23/23/17 
f 101/113/43 99/111/17 24/24/17 32/32/17 
f 30/30/17 36/36/17 37/37/17 31/31/17 
f 103/115/17 101/113/43 32/32/17 38/38/17 
f 36/36/17 42/42/16 43/43/16 37/37/17 
f 123/135/16 103/115/17 38/38/17 44/44/16 
f 42/42/16 48/48/16 49/49/16 43/43/16 
f 125/137/16 123/135/16 44/44/16 50/50/16 
f 48/48/16 54/54/16 55/55/16 49/49/16 
f 127/139/16 125/137/16 50/50/16 56/56/16 
f 54/54/16 60/60/19 61/61/16 55/55/16 
f 129/141/16 127/139/16 56/56/16 62/62/16 
f 61/61/16 60/60/19 138/150/69 133/145/65 
f 134/146/65 130/142/62 129/141/16 62/62/16 
f 138/193/69 159/192/89 154/183/85 133/182/65 
f 151/177/82 130/176/62 134/185/65 155/184/85 
f 169/207/82 151/177/82 155/184/85 172/210/85 
f 159/192/89 177/215/89 173/211/85 154/183/85 
f 264/316/137 194/240/111 197/243/114 265/317/138 
f 271/323/141 196/242/113 195/241/112 272/324/142 
f 214/262/16 217/265/16 220/268/16 215/263/16 
f 216/264/16 78/84/16 77/83/16 213/261/16 
f 20/20/16 98/110/16 273/325/143 235/285/120 
f 274/326/144 16/16/16 17/17/16 236/286/120 
f 215/263/16 220/268/16 275/327/145 239/289/122 
f 276/328/146 78/84/16 216/264/16 240/290/122 
f 259/311/120 277/329/147 278/330/148 260/312/135 
f 279/331/149 280/332/150 262/314/120 261/313/136 
f 268/320/122 281/333/151 282/334/152 269/321/139 
f 283/335/153 284/336/154 267/319/122 270/322/140 
f 213/261/16 77/83/16 68/87/23 
f 213/261/16 68/87/23 199/273/115 214/262/16 
f 105/117/46 108/120/49 10/10/10 9/9/9 
f 14/14/14 13/13/13 12/12/12 11/11/11 
f 109/121/17 112/124/52 26/26/17 25/25/17 
f 29/29/17 21/21/17 28/28/17 27/27/17 
f 112/124/52 114/126/17 33/33/17 26/26/17 
f 35/35/17 29/29/17 27/27/17 34/34/17 
f 33/33/17 114/126/17 116/128/16 39/39/16 
f 40/40/16 41/41/16 35/35/17 34/34/17 
f 39/39/16 116/128/16 118/130/56 45/45/16 
f 47/47/16 41/41/16 40/40/16 46/46/16 
f 45/45/16 118/130/56 120/132/56 51/51/16 
f 52/52/16 53/53/16 47/47/16 46/46/16 
f 51/51/16 120/132/56 122/134/56 57/57/16 
f 58/58/16 59/59/18 53/53/16 52/52/16 
f 122/134/56 121/133/58 131/143/63 57/57/16 
f 135/147/66 59/59/18 58/58/16 132/144/64 
f 121/167/58 147/166/78 152/179/83 131/178/63 
f 156/187/86 135/186/66 132/181/64 153/180/84 
f 171/209/96 174/212/97 156/187/86 153/180/84 
f 152/179/83 147/166/78 164/202/92 170/208/95 
f 28/28/17 21/21/17 14/14/14 11/11/11 
f 108/120/49 109/121/17 25/25/17 10/10/10 
f 250/300/129 182/227/103 185/230/106 251/301/130 
f 242/292/125 184/229/105 183/228/104 243/293/126 
f 222/270/16 82/92/16 84/94/16 223/271/16 
f 224/272/16 219/267/16 218/266/16 221/269/16 
f 12/12/12 13/13/13 285/337/155 227/277/120 
f 286/338/156 105/117/46 9/9/9 228/278/120 
f 223/271/16 84/94/16 287/339/157 231/281/122 
f 288/340/158 219/267/16 224/272/16 232/282/122 
f 246/296/120 289/341/159 290/342/160 247/297/127 
f 291/343/161 292/344/162 245/295/120 248/298/128 
f 254/304/122 293/345/163 294/346/164 255/305/131 
f 295/347/165 296/348/166 253/303/122 256/306/132 
f 221/269/16 218/266/16 180/274/101 
f 222/270/16 221/269/16 180/274/101 70/89/25 
f 74/80/16 98/110/16 97/109/41 75/81/28 
f 76/82/28 79/85/29 78/84/16 73/79/16 
f 84/94/16 83/93/32 86/96/33 85/95/16 
f 106/118/47 105/117/46 88/98/16 87/97/33 
f 256/306/132 255/305/131 183/228/104 182/227/103 
f 248/298/128 247/297/127 185/230/106 184/229/105 
f 270/322/140 269/321/139 195/241/112 194/240/111 
f 261/313/136 260/312/135 197/243/114 196/242/113 
f 13/13/13 16/16/16 207/255/16 206/254/16 
f 220/268/16 219/267/16 209/257/16 208/256/16 
f 88/98/16 105/117/46 286/338/156 225/275/119 
f 287/339/157 84/94/16 85/95/16 226/276/119 
f 209/257/16 219/267/16 288/340/158 229/279/121 
f 285/337/155 13/13/13 206/254/16 230/280/121 
f 207/255/16 16/16/16 274/326/144 233/283/123 
f 275/327/145 220/268/16 208/256/16 234/284/124 
f 73/79/16 78/84/16 276/328/146 237/287/28 
f 273/325/143 98/110/16 74/80/16 238/288/28 
f 241/291/119 292/344/162 291/343/161 242/292/125 
f 294/346/164 293/345/163 244/294/119 243/293/126 
f 249/299/121 296/348/166 295/347/165 250/300/129 
f 290/342/160 289/341/159 252/302/121 251/301/130 
f 297/349/167 280/332/150 279/331/149 271/350/168 
f 282/334/152 281/333/151 298/351/169 272/352/170 
f 263/315/28 284/336/154 283/335/153 264/316/137 
f 278/330/148 277/329/147 266/318/28 265/317/138 
f 299/353/171 300/354/172 301/355/173 302/356/174 
f 303/357/175 304/358/176 305/359/177 306/360/178 
f 307/361/179 308/362/180 309/363/181 257/364/133 
f 310/365/182 311/366/183 258/367/134 312/368/184 
f 313/369/185 314/370/186 315/371/187 316/372/188 
f 317/373/189 318/374/190 319/375/191 320/376/192 
f 321/377/193 322/378/194 323/379/195 324/380/196 
f 325/381/197 326/382/198 327/383/199 328/384/200 
f 226/385/119 244/294/119 293/345/163 287/386/157 
f 225/387/119 241/291/119 244/294/119 226/385/119 
f 286/388/156 292/344/162 241/291/119 225/387/119 
f 228/389/120 245/295/120 292/344/162 286/388/156 
f 227/390/120 246/296/120 245/295/120 228/389/120 
f 285/391/155 289/341/159 246/296/120 227/390/120 
f 230/392/121 252/302/121 289/341/159 285/391/155 
f 229/393/121 249/299/121 252/302/121 230/392/121 
f 288/394/158 296/348/166 249/299/121 229/393/121 
f 232/395/122 253/303/122 296/348/166 288/394/158 
f 231/396/122 254/304/122 253/303/122 232/395/122 
f 287/386/157 293/345/163 254/304/122 231/396/122 
f 326/397/198 294/346/164 243/293/126 327/398/199 
f 325/399/197 255/305/131 294/346/164 326/397/198 
f 328/400/200 183/228/104 255/305/131 325/399/197 
f 327/398/199 243/293/126 183/228/104 328/400/200 
f 321/401/193 291/343/161 248/298/128 322/402/194 
f 324/403/196 242/292/125 291/343/161 321/401/193 
f 323/404/195 184/229/105 242/292/125 324/403/196 
f 322/402/194 248/298/128 184/229/105 323/404/195 
f 318/405/190 290/342/160 251/301/130 319/406/191 
f 317/407/189 247/297/127 290/342/160 318/405/190 
f 320/408/192 185/230/106 247/297/127 317/407/189 
f 319/406/191 251/301/130 185/230/106 320/408/192 
f 313/409/185 295/347/165 256/306/132 314/410/186 
f 316/411/188 250/300/129 295/347/165 313/409/185 
f 315/412/187 182/227/103 250/300/129 316/411/188 
f 314/410/186 256/306/132 182/227/103 315/412/187 
f 234/310/124 298/351/169 281/333/151 275/413/145 
f 258/309/134 272/352/170 298/351/169 234/310/124 
f 311/414/183 282/334/152 272/352/170 258/415/134 
f 310/416/182 269/321/139 282/334/152 311/414/183 
f 312/417/184 195/241/112 269/321/139 310/416/182 
f 258/415/134 272/324/142 195/241/112 
f 195/241/112 312/417/184 258/415/134 
f 257/308/133 271/323/141 272/324/142 
f 272/324/142 258/309/134 257/308/133 
f 309/418/181 196/242/113 271/323/141 257/419/133 
f 308/420/180 261/313/136 196/242/113 309/418/181 
f 307/421/179 279/331/149 261/313/136 308/420/180 
f 257/419/133 271/350/168 279/331/149 
f 279/331/149 307/421/179 257/419/133 
f 233/307/123 297/349/167 271/350/168 
f 271/350/168 257/308/133 233/307/123 
f 274/422/144 280/332/150 297/349/167 233/307/123 
f 236/423/120 262/314/120 280/332/150 274/422/144 
f 235/424/120 259/311/120 262/314/120 236/423/120 
f 273/425/143 277/329/147 259/311/120 235/424/120 
f 238/426/28 266/318/28 277/329/147 273/425/143 
f 237/427/28 263/315/28 266/318/28 238/426/28 
f 276/428/146 284/336/154 263/315/28 237/427/28 
f 240/429/122 267/319/122 284/336/154 276/428/146 
f 239/430/122 268/320/122 267/319/122 240/429/122 
f 275/413/145 281/333/151 268/320/122 239/430/122 
f 304/431/176 278/330/148 265/317/138 305/432/177 
f 303/433/175 260/312/135 278/330/148 304/431/176 
f 306/434/178 197/243/114 260/312/135 303/433/175 
f 305/432/177 265/317/138 197/243/114 306/434/178 
f 299/435/171 283/335/153 270/322/140 300/436/172 
f 302/437/174 264/316/137 283/335/153 299/435/171 
f 301/438/173 194/240/111 264/316/137 302/437/174 
f 300/436/172 270/322/140 194/240/111 301/438/173 
f 329/439/201 330/440/202 331/441/203 332/442/204 
f 333/443/205 334/444/206 335/445/207 336/446/208 
f 337/447/209 338/448/210 339/449/211 340/450/212 
f 329/439/201 341/451/189 342/452/213 330/440/202 
f 90/453/35 335/445/207 334/444/206 91/454/36 
f 343/455/214 336/456/208 335/457/207 90/458/35 
f 344/459/215 333/443/205 336/446/208 343/460/214 
f 345/461/216 341/451/189 329/439/201 346/462/217 
f 347/463/218 342/464/213 341/465/189 345/466/216 
f 205/467/118 330/440/202 342/452/213 347/468/218 
f 205/467/118 204/469/117 331/441/203 330/440/202 
f 348/470/17 349/471/219 350/472/220 
f 141/153/72 139/151/70 351/473/221 352/474/222 
f 191/236/16 190/235/16 353/475/223 354/476/224 
f 212/260/16 355/477/225 356/478/226 211/259/16 
f 357/479/227 358/480/228 359/481/229 360/482/230 
f 361/483/231 362/484/232 363/485/233 364/486/234 
f 365/487/235 366/488/236 367/489/237 368/490/238 
f 187/232/108 186/231/107 369/491/239 370/492/240 
f 354/493/224 353/494/223 189/234/110 188/233/109 
f 352/495/222 351/496/221 371/497/241 372/498/242 
f 349/499/219 361/483/231 364/486/234 350/500/220 
f 373/501/243 356/502/226 355/503/225 374/504/244 
f 181/239/102 210/258/16 193/238/16 
f 193/238/16 210/258/16 211/259/16 190/235/16 
f 190/235/16 211/259/16 356/478/226 353/475/223 
f 353/494/223 356/502/226 373/501/243 189/234/110 
f 375/505/245 366/488/236 365/487/235 376/506/246 
f 376/506/246 365/487/235 368/490/238 377/507/247 
f 378/508/248 379/509/249 380/510/250 381/511/251 
f 382/512/252 383/513/253 350/500/220 364/486/234 
f 350/472/220 383/514/253 348/470/17 
f 384/515/254 385/516/255 386/517/256 
f 386/518/256 385/519/255 387/520/257 388/521/258 
f 388/521/258 387/520/257 389/522/259 390/523/260 
f 391/524/261 392/525/262 393/526/263 394/527/264 
f 391/524/261 395/528/265 396/529/266 392/525/262 
f 395/528/265 397/530/267 398/531/268 396/529/266 
f 398/532/268 397/533/267 399/534/56 400/535/16 
f 400/535/16 399/534/56 401/536/16 402/537/16 
f 401/536/16 93/104/38 72/103/27 
f 72/103/27 402/537/16 401/536/16 
f 384/515/254 403/538/269 385/516/255 
f 385/519/255 403/539/269 404/540/270 387/520/257 
f 405/541/271 406/542/272 407/543/273 408/544/274 
f 359/481/229 409/545/275 410/546/276 360/482/230 
f 359/481/229 358/480/228 411/547/277 409/545/275 
f 371/497/241 351/496/221 397/530/267 395/528/265 
f 351/473/221 139/151/70 399/534/56 397/533/267 
f 399/534/56 139/151/70 93/104/38 401/536/16 
f 72/103/27 181/239/102 192/237/16 402/537/16 
f 402/537/16 192/237/16 191/236/16 400/535/16 
f 400/535/16 191/236/16 354/476/224 398/532/268 
f 398/531/268 354/493/224 188/233/109 396/529/266 
f 412/548/278 413/549/279 414/550/280 415/551/281 
f 414/550/280 413/549/279 416/552/282 417/553/283 
f 418/554/284 419/555/285 420/556/286 421/557/287 
f 361/483/231 349/499/219 386/518/256 388/521/258 
f 349/471/219 348/470/17 384/515/254 386/517/256 
f 205/253/118 422/558/16 212/260/16 
f 422/558/16 423/559/288 355/477/225 212/260/16 
f 423/560/288 424/561/289 374/504/244 355/503/225 
f 424/561/289 425/562/290 426/563/291 374/504/244 
f 425/562/290 427/564/292 369/491/239 426/563/291 
f 427/564/292 428/565/293 370/492/240 369/491/239 
f 428/565/293 429/566/294 393/526/263 370/492/240 
f 393/526/263 429/566/294 430/567/295 394/527/264 
f 394/527/264 430/567/295 431/568/296 432/569/297 
f 432/569/297 431/568/296 433/570/298 372/498/242 
f 372/498/242 433/570/298 434/571/299 352/495/222 
f 352/474/222 434/572/299 435/573/72 141/153/72 
f 141/153/72 435/573/72 140/152/71 
f 347/574/218 436/575/16 437/576/16 
f 437/576/16 436/575/16 438/577/300 439/578/301 
f 439/579/301 438/580/300 440/581/302 441/582/303 
f 441/582/303 440/581/302 442/583/304 443/584/305 
f 443/584/305 442/583/304 444/585/306 445/586/307 
f 445/586/307 444/585/306 446/587/308 447/588/309 
f 447/588/309 446/587/308 448/589/310 449/590/311 
f 449/590/311 448/589/310 450/591/312 451/592/313 
f 451/592/313 450/591/312 452/593/314 453/594/315 
f 452/593/314 454/595/316 455/596/317 453/594/315 
f 454/595/316 456/597/318 457/598/319 455/596/317 
f 456/599/318 458/600/320 459/601/320 457/602/319 
f 459/601/320 458/600/320 460/603/321 
f 347/574/218 348/470/17 436/575/16 
f 436/575/16 348/470/17 383/514/253 438/577/300 
f 438/580/300 383/513/253 382/512/252 440/581/302 
f 461/604/322 379/509/249 378/508/248 462/605/323 
f 462/605/323 378/508/248 381/511/251 463/606/324 
f 363/485/233 362/484/232 446/587/308 444/585/306 
f 464/607/325 419/555/285 418/554/284 465/608/326 
f 448/589/310 390/523/260 389/522/259 450/591/312 
f 466/609/327 408/544/274 407/543/273 467/610/328 
f 407/543/273 406/542/272 468/611/329 467/610/328 
f 404/540/270 403/539/269 456/597/318 454/595/316 
f 403/538/269 384/515/254 458/600/320 456/599/318 
f 458/600/320 384/515/254 460/603/321 
f 140/152/71 435/573/72 459/601/320 460/603/321 
f 435/573/72 434/572/299 457/602/319 459/601/320 
f 434/571/299 433/570/298 455/596/317 457/598/319 
f 469/612/330 470/613/331 471/614/332 472/615/333 
f 471/614/332 470/613/331 473/616/334 474/617/335 
f 451/592/313 430/567/295 429/566/294 449/590/311 
f 475/618/336 476/619/337 477/620/338 478/621/339 
f 447/588/309 428/565/293 427/564/292 445/586/307 
f 479/622/340 480/623/341 481/624/342 482/625/343 
f 482/625/343 481/624/342 483/626/344 484/627/345 
f 424/561/289 423/560/288 439/579/301 441/582/303 
f 439/578/301 423/559/288 422/558/16 437/576/16 
f 437/576/16 422/558/16 205/253/118 347/574/218 
f 395/528/265 411/628/277 358/629/228 371/497/241 
f 395/528/265 391/524/261 409/630/275 411/628/277 
f 394/527/264 410/631/276 409/630/275 391/524/261 
f 394/527/264 432/569/297 360/632/230 410/631/276 
f 372/498/242 357/633/227 360/632/230 432/569/297 
f 372/498/242 371/497/241 358/629/228 357/633/227 
f 374/504/244 367/634/237 366/635/236 373/501/243 
f 374/504/244 426/563/291 368/636/238 367/634/237 
f 369/491/239 377/637/247 368/636/238 426/563/291 
f 369/491/239 186/231/107 376/638/246 377/637/247 
f 189/234/110 375/639/245 376/638/246 186/231/107 
f 189/234/110 373/501/243 366/635/236 375/639/245 
f 364/486/234 380/640/250 379/641/249 382/512/252 
f 364/486/234 363/485/233 381/642/251 380/640/250 
f 444/585/306 463/643/324 381/642/251 363/485/233 
f 444/585/306 442/583/304 462/644/323 463/643/324 
f 440/581/302 461/645/322 462/644/323 442/583/304 
f 440/581/302 382/512/252 379/641/249 461/645/322 
f 454/595/316 468/646/329 406/647/272 404/540/270 
f 454/595/316 452/593/314 467/648/328 468/646/329 
f 450/591/312 466/649/327 467/648/328 452/593/314 
f 450/591/312 389/522/259 408/650/274 466/649/327 
f 387/520/257 405/651/271 408/650/274 389/522/259 
f 387/520/257 404/540/270 406/647/272 405/651/271 
f 188/233/109 187/232/108 413/652/279 412/653/278 
f 370/492/240 416/654/282 413/652/279 187/232/108 
f 393/526/263 417/655/283 416/654/282 370/492/240 
f 393/526/263 392/525/262 414/656/280 417/655/283 
f 396/529/266 415/657/281 414/656/280 392/525/262 
f 188/233/109 412/653/278 415/657/281 396/529/266 
f 388/521/258 421/658/287 420/659/286 361/483/231 
f 388/521/258 390/523/260 418/660/284 421/658/287 
f 448/589/310 465/661/326 418/660/284 390/523/260 
f 446/587/308 464/662/325 465/661/326 448/589/310 
f 446/587/308 362/484/232 419/663/285 464/662/325 
f 361/483/231 420/659/286 419/663/285 362/484/232 
f 430/567/295 473/664/334 470/665/331 431/568/296 
f 451/592/313 474/666/335 473/664/334 430/567/295 
f 451/592/313 453/594/315 471/667/332 474/666/335 
f 455/596/317 472/668/333 471/667/332 453/594/315 
f 433/570/298 469/669/330 472/668/333 455/596/317 
f 433/570/298 431/568/296 470/665/331 469/669/330 
f 429/566/294 476/670/337 475/671/336 449/590/311 
f 428/565/293 477/672/338 476/670/337 429/566/294 
f 447/588/309 478/673/339 477/672/338 428/565/293 
f 449/590/311 475/671/336 478/673/339 447/588/309 
f 441/582/303 484/674/345 483/675/344 424/561/289 
f 441/582/303 443/584/305 482/676/343 484/674/345 
f 445/586/307 479/677/340 482/676/343 443/584/305 
f 427/564/292 480/678/341 479/677/340 445/586/307 
f 427/564/292 425/562/290 481/679/342 480/678/341 
f 424/561/289 483/675/344 481/679/342 425/562/290 
f 66/156/21 142/154/73 485/680/16 
f 485/680/16 142/154/73 91/101/36 486/681/346 
f 91/454/36 334/444/206 487/682/347 486/683/346 
f 487/682/347 334/444/206 333/443/205 488/684/204 
f 333/443/205 344/459/215 489/685/204 488/684/204 
f 346/462/217 329/439/201 332/442/204 490/686/204 
f 491/687/348 492/688/349 493/689/350 494/690/351 
f 66/156/21 485/680/16 495/691/16 
f 495/691/16 485/680/16 486/681/346 496/692/352 
f 496/693/352 486/683/346 487/682/347 497/694/353 
f 497/694/353 487/682/347 488/684/204 498/695/204 
f 488/684/204 489/685/204 499/696/204 498/695/204 
f 489/697/204 500/698/17 501/699/17 499/700/204 
f 201/249/116 502/701/16 202/250/16 
f 502/701/16 503/702/354 204/252/117 202/250/16 
f 204/469/117 503/703/354 504/704/355 331/441/203 
f 504/704/355 505/705/204 332/442/204 331/441/203 
f 505/705/204 506/706/204 490/686/204 332/442/204 
f 506/707/204 507/708/17 508/709/17 490/710/204 
f 201/249/116 66/156/21 495/691/16 502/701/16 
f 502/701/16 495/691/16 496/692/352 503/702/354 
f 503/703/354 496/693/352 497/694/353 504/704/355 
f 497/694/353 498/695/204 505/705/204 504/704/355 
f 498/695/204 499/696/204 506/706/204 505/705/204 
f 509/711/356 510/712/357 511/713/358 512/714/359 
f 346/715/217 490/710/204 513/716/360 514/717/361 
f 508/709/17 515/718/362 513/716/360 490/710/204 
f 345/719/216 516/720/363 515/718/362 508/709/17 
f 346/715/217 514/717/361 516/720/363 345/719/216 
f 489/697/204 344/721/215 517/722/364 518/723/365 
f 343/724/214 519/725/366 517/722/364 344/721/215 
f 500/698/17 520/726/367 519/725/366 343/724/214 
f 489/697/204 518/723/365 520/726/367 500/698/17 
f 506/707/204 499/700/204 521/727/368 522/728/369 
f 501/699/17 523/729/370 521/727/368 499/700/204 
f 507/708/17 524/730/371 523/729/370 501/699/17 
f 506/707/204 522/728/369 524/730/371 507/708/17 
f 514/717/361 513/716/360 337/447/209 340/450/212 
f 515/718/362 338/448/210 337/447/209 513/716/360 
f 516/720/363 339/449/211 338/448/210 515/718/362 
f 514/717/361 340/450/212 339/449/211 516/720/363 
f 518/723/365 517/722/364 491/687/348 494/690/351 
f 519/725/366 492/688/349 491/687/348 517/722/364 
f 520/726/367 493/689/350 492/688/349 519/725/366 
f 518/723/365 494/690/351 493/689/350 520/726/367 
f 522/728/369 521/727/368 509/711/356 512/714/359 
f 523/729/370 510/712/357 509/711/356 521/727/368 
f 524/730/371 511/713/358 510/712/357 523/729/370 
f 522/728/369 512/714/359 511/713/358 524/730/371 
f 4/731/4 525/732/372 526/733/373 1/734/1 
f 5/735/5 527/736/374 528/737/375 6/738/6 
f 97/739/41 529/740/376 530/741/377 75/742/28 
f 79/743/29 531/744/378 532/745/379 80/746/30 
f 80/746/30 532/745/379 525/732/372 4/731/4 
f 6/738/6 528/737/375 533/747/380 81/748/31 
f 81/748/31 533/747/380 534/749/381 83/750/32 
f 83/750/32 534/749/381 535/751/382 86/752/33 
f 92/753/37 536/754/383 537/755/384 89/756/34 
f 89/757/34 537/758/384 538/759/385 90/458/35 
f 94/760/39 539/761/386 527/736/374 5/735/5 
f 96/220/40 540/762/387 529/740/376 97/739/41 
f 106/763/47 541/764/388 542/765/389 107/219/48 
f 140/766/71 543/767/390 539/761/386 94/760/39 
f 384/768/254 544/769/391 545/770/392 460/771/321 
f 460/772/321 545/773/392 543/767/390 140/766/71 
f 143/774/74 546/775/393 536/754/383 92/753/37 
f 1/734/1 526/733/373 546/775/393 143/774/74 
f 160/198/90 547/776/394 548/777/395 161/199/91 
f 161/199/91 548/777/395 549/778/396 162/200/76 
f 162/200/76 549/778/396 550/779/397 163/201/77 
f 163/201/77 550/779/397 551/780/398 164/202/92 
f 165/203/93 552/781/399 553/782/400 166/204/94 
f 167/205/80 554/783/401 552/781/399 165/203/93 
f 168/206/81 555/784/402 554/783/401 167/205/80 
f 169/207/82 556/785/403 555/784/402 168/206/81 
f 164/202/92 551/780/398 557/786/404 170/208/95 
f 177/215/89 558/787/405 559/788/406 173/211/85 
f 174/212/97 560/789/407 561/790/408 175/213/98 
f 176/214/88 562/791/409 558/787/405 177/215/89 
f 175/216/98 561/792/408 562/793/409 176/217/88 
f 107/219/48 542/765/389 547/776/394 160/198/90 
f 166/204/94 553/782/400 540/762/387 96/220/40 
f 90/458/35 538/759/385 563/794/410 343/455/214 
f 347/463/218 564/795/411 565/796/412 348/797/17 
f 348/797/17 565/796/412 544/769/391 384/768/254 
f 173/211/85 559/788/406 566/798/406 172/210/85 
f 172/210/85 566/798/406 556/785/403 169/207/82 
f 170/208/95 557/786/404 567/799/404 171/209/96 
f 171/209/96 567/799/404 560/789/407 174/212/97 
f 75/742/28 530/741/377 568/800/377 76/801/28 
f 76/801/28 568/800/377 531/744/378 79/743/29 
f 86/752/33 535/751/382 569/802/382 87/803/33 
f 87/803/33 569/802/382 541/764/388 106/763/47 
f 343/455/214 563/794/410 570/804/410 500/805/17 
f 345/466/216 571/806/411 564/795/411 347/463/218 
f 500/805/17 570/804/410 572/807/411 501/808/17 
f 501/808/17 572/807/411 573/809/411 507/810/17 
f 508/811/17 574/812/411 571/806/411 345/466/216 
f 507/810/17 573/809/411 574/812/411 508/811/17 
f 558/813/405 562/814/409 561/815/408 560/816/407 
f 560/816/407 567/817/404 559/818/406 558/813/405 
f 557/819/404 566/820/406 559/818/406 567/817/404 
f 557/819/404 551/821/398 556/822/403 566/820/406 
f 550/823/397 555/824/402 556/822/403 551/821/398 
f 549/825/396 554/826/401 555/824/402 550/823/397 
f 549/825/396 548/827/395 552/828/399 554/826/401 
f 547/829/394 553/830/400 552/828/399 548/827/395 
f 542/831/389 540/832/387 553/830/400 547/829/394 
f 541/833/388 529/834/376 540/832/387 542/831/389 
f 569/835/382 530/836/377 529/834/376 541/833/388 
f 535/837/382 568/838/377 530/836/377 569/835/382 
f 535/837/382 534/839/381 531/840/378 568/838/377 
f 533/841/380 532/842/379 531/840/378 534/839/381 
f 528/843/375 525/844/372 532/842/379 533/841/380 
f 527/845/374 526/846/373 525/844/372 528/843/375 
f 527/845/374 539/847/386 546/848/393 526/846/373 
f 539/847/386 543/849/390 536/850/383 546/848/393 
f 543/849/390 544/851/391 565/852/412 
f 543/849/390 545/853/392 544/851/391 
f 564/854/411 536/850/383 543/849/390 565/852/412 
f 564/854/411 571/855/411 536/850/383 
f 574/856/411 573/857/411 536/850/383 
f 536/850/383 571/855/411 574/856/411 
f 572/858/411 570/859/410 536/850/383 
f 536/850/383 573/857/411 572/858/411 
f 563/860/410 538/861/385 536/850/383 
f 536/850/383 570/859/410 563/860/410 
f 538/861/385 537/862/384 536/850/383 
f 575/863/413 576/864/414 577/865/415 578/866/416 
f 579/867/417 580/868/418 581/869/419 582/870/420 
f 577/865/415 579/867/417 582/870/420 578/866/416 
f 576/871/414 580/868/418 579/867/417 577/865/415 
f 575/872/413 581/869/419 580/868/418 576/871/414 
f 578/866/416 582/870/420 581/869/419 575/872/413 
# 559 polygons - 42 triangles

