# ###############################
# Obj file written by RoadKill1_1
# RoadKill by Andy Swann
# http://www.pullin-shapes.co.uk/
# ###############################
g RoadKillOut
o RoadKillOut
# 298 Vertex coords
v 1350.697388 194.286194 -27.995102
v 1361.239380 194.286194 -27.995102
v 1359.641113 247.432404 -27.995102
v 1349.145508 248.420410 -27.995102
v 1361.100586 577.907288 -28.562202
v 1350.806763 578.601318 -28.562202
v 1350.806763 567.918396 -28.562202
v 1361.100708 567.342285 -28.562202
v 1361.234009 378.582001 81.132797
v 1350.701660 378.582001 81.132797
v 1350.701660 355.118896 81.132797
v 1361.234009 355.118896 81.132797
v 1140.048584 375.957886 -46.921997
v 1137.741821 347.186615 -46.575901
v 1142.894043 347.342499 81.825104
v 1142.894043 370.805603 81.825104
v 1350.697388 354.963104 -47.268196
v 1361.239380 354.963104 -47.268196
v 1564.272095 354.963013 -46.575901
v 1562.483643 383.734314 -46.922100
v 1559.119873 378.582001 81.824997
v 1559.119873 355.118896 81.824997
v 1361.239380 383.734314 -47.268196
v 1350.697388 383.734314 -47.268196
v 1361.239380 765.883911 -47.268196
v 1350.697388 765.883911 -47.268196
v 1350.792847 713.917175 -47.268196
v 1361.118408 712.341797 -47.268196
v 1171.872925 592.151184 -47.268196
v 1171.719849 579.104980 -47.268196
v 1270.173706 572.415588 -47.268196
v 1270.236450 584.056885 -47.268196
v 1361.118408 426.067505 -47.268196
v 1350.792847 426.067505 -47.268196
v 1546.684448 556.191895 -47.268196
v 1546.549072 564.752319 -47.268196
v 1431.774414 572.538879 -47.268196
v 1431.839233 562.853699 -47.268196
v 1361.118408 712.341797 -28.562202
v 1350.792847 713.917175 -28.562202
v 1341.619751 697.995728 -28.562202
v 1361.100830 695.649414 -28.562202
v 1270.236450 584.056885 -28.562202
v 1270.173706 572.415588 -28.562202
v 1286.892944 578.663086 -28.562202
v 1286.915283 586.976929 -28.562202
v 1350.792847 426.067505 -28.562202
v 1361.118408 426.067505 -28.562202
v 1361.100830 442.795685 -28.562202
v 1355.978638 442.795685 -28.562202
v 1431.839233 562.853699 -28.562202
v 1431.774414 572.538879 -28.562202
v 1415.093750 578.362427 -28.562202
v 1415.146240 558.271423 -28.562202
v 1154.994751 375.957886 -47.268101
v 1270.032959 426.067505 -47.268196
v 1270.032959 723.550720 -47.268196
v 1177.621582 765.883911 -47.268196
v 1547.019165 765.883911 -47.268196
v 1431.980957 702.802917 -47.268196
v 1431.980957 426.067505 -47.268196
v 1547.019165 383.734314 -47.268196
v 1270.032959 426.067505 -28.562202
v 1286.761108 442.795685 -28.562202
v 1286.761108 704.542603 -28.562202
v 1270.032959 723.550720 -28.562202
v 1431.980957 702.802917 -28.562202
v 1415.252808 688.081116 -28.562202
v 1415.252808 442.795685 -28.562202
v 1431.980957 426.067505 -28.562202
v 1445.003296 1.584717 -47.268196
v 1530.029419 1.786987 -47.268196
v 1542.039551 246.458496 -47.268196
v 1445.188599 256.181305 -47.268196
v 1154.994751 347.186615 -47.268101
v 1256.607300 287.343933 -47.268196
v 1160.146973 370.805603 81.132797
v 1160.146973 347.342499 81.132797
v 1541.866943 355.118896 81.132797
v 1541.866943 378.582001 81.132797
v 1547.019165 354.963013 -47.268196
v 1341.619751 697.995728 -47.268196
v 1286.761108 704.542603 -47.268196
v 1286.915283 586.976929 -47.268196
v 1350.806763 578.601318 -47.268196
v 1361.100586 577.907288 -47.268196
v 1415.093750 578.362427 -47.268196
v 1415.252808 688.081116 -47.268196
v 1361.100830 695.649414 -47.268196
v 1361.100830 442.795685 -47.268196
v 1415.252808 442.795685 -47.268196
v 1415.146240 558.271423 -47.268196
v 1361.100708 567.342285 -47.268196
v 1350.806763 567.918396 -47.268196
v 1286.892944 578.663086 -47.268196
v 1286.761108 442.795685 -47.268196
v 1355.978638 442.795685 -47.268196
v 1547.019165 772.970825 -46.968296
v 1361.239380 772.970825 -47.268196
v 1350.697388 772.970825 -47.268196
v 1177.621582 772.970825 -47.268196
v 1361.239380 772.970825 -40.547600
v 1350.697388 772.970825 -40.547600
v 1177.621582 772.970825 -40.547600
v 1547.019165 772.970825 -40.547600
v 1547.019165 777.927429 -40.547600
v 1361.239380 777.927429 -40.547600
v 1350.697388 777.927429 -40.547600
v 1177.621582 777.927429 -40.547600
v 1547.019165 777.927429 -32.807297
v 1361.239380 777.927429 -32.807297
v 1350.697388 777.927429 -32.807297
v 1177.621582 777.927429 -32.807297
v 1444.236450 878.477478 -32.807297
v 1361.239380 878.477478 -32.807297
v 1350.697388 878.477478 -32.807297
v 1257.777466 878.477478 -32.807297
v 1379.397461 963.181580 -32.807297
v 1361.239380 963.181580 -32.807297
v 1350.697388 963.181580 -32.807297
v 1322.616455 963.181580 -32.807297
v 1367.250366 1007.906921 -32.807297
v 1361.239380 1007.906921 -32.807297
v 1344.566650 1007.906921 -32.807297
v 1334.763550 1007.906921 -32.807297
v 1367.250366 1016.422913 -32.807297
v 1360.537231 1023.828125 -32.807297
v 1341.617554 1024.084717 -32.807297
v 1334.763550 1016.422913 -32.807297
v 1353.221924 1028.502930 -32.807297
v 1348.932861 1028.759277 -32.807297
v 1361.208984 277.497009 -47.268196
v 1350.713379 278.484985 -47.268196
v 1445.198364 269.590515 -47.268196
v 1269.572876 272.713287 -4.493202
v 1350.713379 265.074890 -4.493202
v 1350.713379 278.484985 -4.493202
v 1269.026489 286.174713 -4.493202
v 1361.208984 264.086914 -4.493202
v 1361.208984 277.497009 -4.493202
v 1542.039551 260.053986 -47.268196
v 1296.640503 194.286194 -27.995102
v 1287.063599 254.264587 -27.995102
v 1161.244751 296.929688 -47.268196
v 1269.026489 286.174713 -47.268196
v 1161.244751 283.449799 -47.268196
v 1256.804321 273.915314 -47.268196
v 1171.984497 1.786987 -47.268196
v 1260.801392 1.584717 -47.268196
v 1431.458740 270.883911 -47.268196
v 1445.198364 269.590515 -4.493202
v 1431.458740 270.883911 -4.493202
v 1430.990112 257.517914 -4.493202
v 1445.188599 256.181305 -4.493202
v 1422.016113 1.584717 -4.493202
v 1445.003296 1.584717 -4.493202
v 1256.607300 287.343933 -4.493202
v 1256.804321 273.915314 -4.493202
v 1260.801392 1.584717 -4.493202
v 1280.577515 1.584717 -4.493202
v 1413.719482 242.341614 -27.995102
v 1405.864258 194.286194 -27.995102
v 1280.577515 1.584717 -47.268196
v 1269.572876 272.713287 -47.268196
v 1350.713379 265.074890 -47.268196
v 1361.208984 264.086914 -47.268196
v 1430.990112 257.517914 -47.268196
v 1422.016113 1.584717 -47.268196
v 1350.697388 1.584717 -47.268196
v 1361.239380 1.584717 -47.268196
v 1361.239380 1.584717 -23.487801
v 1350.697388 1.584717 -23.487801
v 1422.016113 1.584717 -23.487801
v 1430.990112 257.517914 -23.487801
v 1361.208984 264.086914 -23.487801
v 1350.713379 265.074890 -23.487801
v 1269.572876 272.713287 -23.487801
v 1280.577515 1.584717 -23.487801
v 1361.239380 194.286194 -23.487801
v 1350.697388 194.286194 -23.487801
v 1405.864258 194.286194 -23.487801
v 1413.719482 242.341614 -23.487801
v 1359.641113 247.432404 -23.487801
v 1349.145508 248.420410 -23.487801
v 1287.063599 254.264587 -23.487801
v 1296.640503 194.286194 -23.487801
v 1164.970947 765.883911 -47.268196
v 1159.233643 592.151184 -47.268196
v 1159.080444 579.104980 -47.268196
v 1560.360474 556.191895 -47.268196
v 1560.225098 564.752319 -47.268196
v 1560.432739 765.883911 -47.268196
v 1144.021973 284.406586 -46.575901
v 1156.227051 1.989380 -46.575901
v 1559.248047 259.055511 -46.575901
v 1164.959595 772.970825 -47.268196
v 1164.959595 772.970825 -40.547600
v 1165.272949 777.927429 -40.828201
v 1165.586426 777.927429 -32.807297
v 1560.170166 772.970825 -47.268196
v 1560.170166 772.970825 -40.547600
v 1559.931396 777.927429 -40.828201
v 1559.692627 777.927429 -32.807297
v 1456.432373 878.477478 -32.807297
v 1391.593262 963.181580 -32.807205
v 1379.446167 1007.906921 -32.807205
v 1379.446167 1016.422913 -32.807205
v 1246.368896 878.477478 -32.807297
v 1311.207886 963.181580 -32.807205
v 1323.354980 1007.906921 -32.807205
v 1323.354980 1016.422913 -32.807205
v 1364.845337 1023.604980 -32.807297
v 1337.322388 1023.978027 -32.807297
v 1354.203491 1030.405273 -32.807297
v 1347.964111 1030.393921 -32.807297
v 1559.248047 245.740723 -46.575901
v 1545.786865 1.989380 -46.575901
v 1144.021973 297.880890 -46.575901
v 1171.984497 1.787109 -607.763794
v 1260.801392 1.584717 -607.763794
v 1350.697388 1.584717 -607.763794
v 1361.239380 1.584717 -607.763794
v 1422.016113 1.584717 -607.763794
v 1280.577515 1.584717 -607.763794
v 1445.003296 1.584717 -607.763794
v 1530.029419 1.787109 -607.763794
v 1140.048584 375.957886 -607.757019
v 1137.741821 347.186615 -607.750183
v 1564.272095 354.963104 -607.750183
v 1562.483643 383.734314 -607.757019
v 1164.970947 765.883911 -607.763794
v 1159.233643 592.151184 -607.763794
v 1159.080444 579.104980 -607.763794
v 1560.360474 556.191895 -607.763794
v 1560.225098 564.752380 -607.763794
v 1560.432739 765.883911 -607.763794
v 1137.741821 297.880890 -607.750183
v 1545.786865 1.989380 -607.750183
v 1559.248047 245.740723 -607.750305
v 1156.227051 1.989380 -607.750183
v 1164.959595 772.970825 -607.763794
v 1560.170166 772.970825 -607.763794
v 1456.432373 878.477478 -41.108902
v 1391.593262 963.181580 -41.108795
v 1379.446167 1007.906921 -41.108795
v 1379.446167 1016.422913 -41.108795
v 1246.368896 878.477478 -41.108902
v 1311.207886 963.181580 -41.108795
v 1323.354980 1007.906921 -41.108795
v 1323.354980 1016.422913 -41.108795
v 1364.845337 1023.604980 -41.108902
v 1337.322388 1023.978027 -41.108902
v 1354.203491 1030.405273 -41.108902
v 1347.964111 1030.393921 -41.108902
v 1564.272095 259.055511 -607.750183
v 1137.741821 284.406586 -607.750183
v 1559.815552 777.927429 -48.005402
v 1456.432373 878.477478 -48.149899
v 1391.593262 963.181580 -48.149799
v 1379.446167 1007.906921 -48.149799
v 1379.446167 1016.422913 -48.149799
v 1246.368896 878.477478 -48.149899
v 1165.425049 777.927429 -48.005402
v 1311.207886 963.181580 -48.149799
v 1323.354980 1007.906921 -48.149799
v 1323.354980 1016.422913 -48.149799
v 1364.845337 1023.604980 -48.150002
v 1337.322388 1023.978027 -48.150002
v 1354.203491 1030.405273 -48.150002
v 1347.964111 1030.393921 -48.150002
v 1559.692627 777.927429 -607.481079
v 1456.432373 878.477478 -607.481079
v 1391.593262 963.181519 -607.481079
v 1379.446167 1007.906616 -607.481079
v 1379.446167 1016.422913 -607.481079
v 1246.368896 878.477478 -607.481079
v 1165.586426 777.927429 -607.481079
v 1311.207886 963.181519 -607.481079
v 1323.354980 1007.906616 -607.481079
v 1323.354980 1016.422913 -607.481079
v 1364.845337 1023.604980 -607.481079
v 1337.322388 1023.978027 -607.481079
v 1354.203491 1030.405273 -607.481079
v 1347.964111 1030.393921 -607.481079
v 1401.018555 127.642273 -15.331200
v 1401.018555 133.042694 -18.449097
v 1396.341675 130.342529 -18.449097
v 1396.341675 124.942108 -18.449097
v 1401.018555 122.241882 -18.449097
v 1405.695435 124.942108 -18.449097
v 1405.695435 130.342529 -18.449097
v 1401.018555 133.042694 -24.684998
v 1396.341675 130.342529 -24.684998
v 1396.341675 124.942108 -24.684998
v 1401.018555 122.241882 -24.684998
v 1405.695435 124.942108 -24.684998
v 1405.695435 130.342529 -24.684998
v 1401.018555 127.642273 -27.802902

# 234 Normal vectors
vn 0.000000 0.707107 0.707107
vn -0.066300 -0.703899 0.707199
vn 0.298810 0.301210 0.905530
vn -0.256798 0.270998 0.927693
vn -0.357203 -0.315002 0.879306
vn 0.248100 -0.293200 0.923299
vn 0.000000 0.692815 0.721115
vn -0.014200 0.697319 0.716620
vn 0.014300 -0.701916 0.712116
vn 0.000000 -0.706707 0.707507
vn -0.877867 0.373386 0.299889
vn -0.908004 -0.296501 0.296001
vn -0.553771 -0.576970 0.600369
vn -0.561391 0.563790 0.605790
vn 0.014101 -0.710926 0.703126
vn -0.000000 -0.706707 0.707507
vn 0.907335 -0.284511 0.309512
vn 0.884831 0.340412 0.318111
vn 0.560096 0.563996 0.606796
vn 0.553771 -0.576970 0.600369
vn -0.013700 0.687991 0.725590
vn 0.000000 -0.000000 1.000000
vn 0.094706 0.696944 0.710845
vn 0.100800 0.701903 0.705103
vn 0.000000 0.000000 1.000000
vn -0.706605 0.002200 0.707605
vn -0.707906 0.001400 0.706306
vn 0.000000 -0.707107 0.707107
vn 0.708005 0.001800 0.706205
vn 0.706404 0.002700 0.707804
vn 0.100197 0.697977 0.709076
vn 0.095702 0.704211 0.703511
vn -0.341708 -0.327707 0.880820
vn 0.256709 -0.295110 0.920332
vn -0.706306 0.001400 0.707906
vn -0.707605 0.002200 0.706605
vn 0.248007 -0.293508 0.923226
vn 0.344406 0.302605 0.888715
vn 0.301511 0.301511 0.904534
vn -0.300208 0.288107 0.909324
vn 0.707704 0.002700 0.706504
vn 0.706105 0.001800 0.708105
vn -0.304210 0.302110 0.903430
vn -0.356189 -0.301690 0.884371
vn -0.004700 0.694082 0.719881
vn -0.301511 -0.301211 0.904634
vn -0.263093 0.295892 0.918276
vn 0.000000 -0.021100 0.999777
vn 0.345391 0.301592 0.888677
vn 0.301484 -0.301184 0.904652
vn -0.008100 0.690289 0.723488
vn -0.577684 -0.577084 0.577284
vn 0.301511 0.301211 0.904634
vn 0.263109 -0.296011 0.918233
vn -0.545405 0.613306 0.571305
vn 0.611184 0.533586 0.584585
vn -0.346994 -0.301495 0.888085
vn -0.301511 0.301211 0.904634
vn 0.577684 -0.577084 0.577284
vn 0.302211 -0.904534 0.300811
vn -0.009400 -0.712901 0.701201
vn -0.020400 0.000500 0.999792
vn 0.707107 -0.000500 0.707107
vn 0.029000 -0.696688 0.716788
vn -0.270698 0.292998 0.916992
vn -0.000000 0.692203 0.721703
vn 0.029000 -0.715703 0.697803
vn -0.014100 -0.711224 0.702824
vn -0.014400 0.697216 0.716716
vn -0.014800 -0.701810 0.712210
vn -0.583713 -0.559613 0.588313
vn 0.545301 -0.613401 0.571301
vn 0.609498 0.535498 0.584598
vn -0.566533 0.597735 0.567233
vn 0.575180 0.579880 0.576980
vn -0.579081 0.574981 0.577981
vn -0.612189 -0.531990 0.584989
vn 0.539096 -0.619696 0.570396
vn 0.577350 0.577350 0.577350
vn -0.577617 0.577117 0.577317
vn -0.617973 -0.523377 0.586674
vn 0.531113 -0.627716 0.569114
vn -0.606011 -0.534509 0.589110
vn 0.530726 -0.628031 0.569128
vn 0.577684 0.577084 0.577284
vn -0.590233 0.566332 0.575233
vn 0.007300 -0.724615 0.689115
vn -0.000600 -0.706907 0.707307
vn 0.007700 -0.709581 0.704581
vn -0.008000 -0.709729 0.704429
vn -0.000000 -0.000000 1.000000
vn -0.000000 0.000000 1.000000
vn 0.066300 0.703899 0.707199
vn 0.332285 0.302186 0.893460
vn 0.269917 -0.284618 0.919857
vn -0.019700 0.000500 0.999806
vn 0.525819 0.616422 0.586121
vn 0.601883 -0.564084 0.565284
vn 0.019400 0.001100 0.999811
vn 0.020400 0.000400 0.999792
vn -0.706969 -0.010400 0.707169
vn 0.009500 -0.713000 0.701100
vn -0.301090 -0.906070 0.297290
vn 0.601409 0.546908 0.582408
vn -0.331190 -0.290991 0.897573
vn -0.588323 -0.568022 0.575523
vn 0.577117 -0.577517 0.577417
vn -0.556634 0.602536 0.571935
vn -0.572606 -0.581206 0.578206
vn 0.590036 -0.566535 0.575235
vn -0.648224 -0.500419 0.573922
vn -0.524494 0.617292 0.586393
vn -0.000000 -1.000000 0.000000
vn -1.000000 0.000000 -0.000000
vn 1.000000 0.000000 -0.000000
vn 0.000000 -1.000000 0.000000
vn -0.000000 -1.000000 -0.000000
vn 0.000000 -1.000000 -0.000000
vn -0.000000 -0.707107 0.707107
vn 0.566223 -0.586423 0.579223
vn 0.611713 0.537412 0.580513
vn 0.066300 0.703999 0.707099
vn -0.565062 0.595860 0.570662
vn -0.564503 -0.587803 0.579503
vn -0.301408 0.354809 0.885022
vn -0.323911 -0.250108 0.912430
vn -0.066300 -0.703999 0.707099
vn -0.066300 -0.703799 0.707299
vn 0.263705 -0.247104 0.932416
vn 0.301584 0.353581 0.885453
vn -0.703103 0.011000 0.711003
vn -0.709314 0.015900 0.704714
vn -0.696899 0.037300 0.716199
vn 0.707666 0.010699 0.706466
vn 0.705195 0.005200 0.708995
vn 0.711237 0.012801 0.702836
vn -0.693704 -0.015000 0.720104
vn -0.554983 -0.581982 0.594382
vn 0.682896 -0.017900 0.730296
vn -0.918366 -0.250091 0.306689
vn -0.593602 -0.546002 0.591202
vn -0.920054 0.143108 0.364721
vn -0.741895 -0.364798 0.562596
vn 0.918183 -0.244895 0.311394
vn 0.589097 -0.549897 0.592097
vn 0.902296 0.207499 0.377898
vn 0.767590 -0.317996 0.556493
vn 0.516001 0.458100 0.723801
vn 0.589609 0.291605 0.753212
vn 0.668786 0.089198 0.738085
vn 0.675772 0.420683 0.605275
vn -0.554292 0.434694 0.709790
vn -0.589609 0.291605 0.753212
vn -0.668786 0.089198 0.738085
vn -0.681990 0.406494 0.607991
vn 0.340592 0.604786 0.719883
vn -0.348199 0.609299 0.712399
vn 0.212692 0.730474 0.648976
vn -0.203907 0.730624 0.651621
vn 0.698981 -0.019299 0.714880
vn 0.551078 -0.584977 0.595076
vn -0.671391 -0.042399 0.739890
vn -0.005600 -0.708095 -0.706095
vn -0.000800 -0.707407 -0.706806
vn 0.000000 -0.707107 -0.707107
vn 0.000800 -0.707407 -0.706806
vn 0.005700 -0.708095 -0.706095
vn -0.705977 0.061298 -0.705577
vn -0.715316 0.028601 -0.698216
vn 0.713701 0.022100 -0.700101
vn 0.700893 0.026000 -0.712793
vn -0.703103 0.011000 -0.711003
vn -0.709314 0.015900 -0.704714
vn -0.696712 0.036701 -0.716412
vn 0.707422 0.009900 -0.706722
vn 0.705195 0.005200 -0.708995
vn 0.711237 0.012801 -0.702836
vn -0.711095 0.000000 -0.703095
vn 0.563427 -0.587628 -0.580727
vn 0.654829 -0.138206 -0.743033
vn -0.560180 -0.590179 -0.581280
vn -0.712784 0.062599 -0.698584
vn 0.705170 0.065897 -0.705970
vn 0.747437 0.664333 0.000000
vn 0.896379 0.443289 0.000000
vn 0.991223 0.132203 0.000000
vn 0.848924 0.528515 0.000000
vn -0.786273 0.617879 0.000000
vn -0.896379 0.443289 0.000000
vn -0.991223 0.132203 0.000000
vn -0.858989 0.511994 0.000000
vn 0.490712 0.871322 0.000000
vn -0.496204 0.868206 0.000000
vn 0.279604 0.960115 0.000000
vn -0.268799 0.963196 0.000000
vn 0.734209 -0.133802 -0.665608
vn -0.717778 -0.023399 -0.695879
vn 0.906613 0.421906 -0.007000
vn 0.747624 0.664122 0.000000
vn 0.896379 0.443289 -0.000000
vn 0.991223 0.132203 -0.000000
vn 0.848924 0.528515 -0.000000
vn -0.786582 0.617486 0.000000
vn -0.926491 0.376196 -0.009500
vn -0.896379 0.443289 -0.000000
vn -0.991223 0.132203 -0.000000
vn -0.858989 0.511994 -0.000000
vn 0.696440 0.352920 -0.624835
vn 0.516001 0.458100 -0.723801
vn 0.589609 0.291605 -0.753212
vn 0.668786 0.089198 -0.738085
vn 0.675772 0.420683 -0.605275
vn -0.554292 0.434694 -0.709790
vn -0.700898 0.317099 -0.638898
vn -0.589609 0.291605 -0.753212
vn -0.668786 0.089198 -0.738085
vn -0.681990 0.406494 -0.607991
vn 0.340592 0.604786 -0.719883
vn -0.348199 0.609299 -0.712399
vn 0.212692 0.730474 -0.648976
vn -0.203907 0.730624 -0.651621
vn 0.000000 0.897348 0.441324
vn -0.777115 0.448709 0.441308
vn -0.777115 -0.448709 0.441308
vn 0.000000 -0.897348 0.441324
vn 0.777115 -0.448709 0.441308
vn 0.777115 0.448709 0.441308
vn 0.000000 0.897348 -0.441324
vn -0.777115 0.448709 -0.441308
vn -0.777115 -0.448709 -0.441308
vn 0.000000 -0.897348 -0.441324
vn 0.777115 -0.448709 -0.441308
vn 0.777115 0.448709 -0.441308
vn 0.000000 0.000000 -1.000000

# 422 texture coords
vt 0.649444 0.755772 0.00
vt 0.654488 0.755556 0.00
vt 0.654669 0.778272 0.00
vt 0.649940 0.778702 0.00
vt 0.865025 0.165185 0.00
vt 0.860042 0.165074 0.00
vt 0.860139 0.160155 0.00
vt 0.865051 0.160104 0.00
vt 0.868096 0.013145 0.00
vt 0.861651 0.013206 0.00
vt 0.861604 0.000000 0.00
vt 0.867773 0.000000 0.00
vt 0.753941 0.076526 0.00
vt 0.739780 0.073392 0.00
vt 0.753253 0.010248 0.00
vt 0.762412 0.018672 0.00
vt 0.386741 0.780181 0.00
vt 0.386552 0.786688 0.00
vt 0.324896 0.783652 0.00
vt 0.325191 0.775657 0.00
vt 0.990996 0.072483 0.00
vt 0.973665 0.077121 0.00
vt 0.964798 0.020543 0.00
vt 0.971928 0.010790 0.00
vt 0.866877 0.070784 0.00
vt 0.860687 0.070749 0.00
vt 0.864302 0.258167 0.00
vt 0.856391 0.257157 0.00
vt 0.858303 0.230060 0.00
vt 0.863571 0.229394 0.00
vt 0.764290 0.166401 0.00
vt 0.764753 0.159234 0.00
vt 0.809097 0.159115 0.00
vt 0.808968 0.164772 0.00
vt 0.866745 0.092378 0.00
vt 0.861292 0.092513 0.00
vt 0.962281 0.159096 0.00
vt 0.961810 0.165724 0.00
vt 0.913872 0.166197 0.00
vt 0.913851 0.160842 0.00
vt 0.862861 0.220655 0.00
vt 0.858258 0.220651 0.00
vt 0.854861 0.213457 0.00
vt 0.862648 0.212662 0.00
vt 0.817108 0.165298 0.00
vt 0.818081 0.160099 0.00
vt 0.825146 0.163335 0.00
vt 0.825102 0.167051 0.00
vt 0.860876 0.101897 0.00
vt 0.866203 0.102458 0.00
vt 0.866500 0.111165 0.00
vt 0.863412 0.110941 0.00
vt 0.905100 0.160589 0.00
vt 0.904523 0.165190 0.00
vt 0.896548 0.167896 0.00
vt 0.896651 0.158265 0.00
vt 0.762963 0.077363 0.00
vt 0.819095 0.096215 0.00
vt 0.815460 0.228744 0.00
vt 0.772968 0.248819 0.00
vt 0.951338 0.258926 0.00
vt 0.899865 0.225666 0.00
vt 0.906484 0.097489 0.00
vt 0.963319 0.077587 0.00
vt 0.825752 0.104672 0.00
vt 0.831081 0.110577 0.00
vt 0.828718 0.213476 0.00
vt 0.823051 0.220188 0.00
vt 0.893580 0.217169 0.00
vt 0.888587 0.211488 0.00
vt 0.893054 0.111883 0.00
vt 0.898736 0.105630 0.00
vt 0.546378 0.843523 0.00
vt 0.543644 0.880366 0.00
vt 0.439752 0.883780 0.00
vt 0.436575 0.835987 0.00
vt 0.394411 0.678317 0.00
vt 0.424141 0.729268 0.00
vt 0.770160 0.017016 0.00
vt 0.764275 0.003422 0.00
vt 0.961973 0.006423 0.00
vt 0.957395 0.018335 0.00
vt 0.382373 0.883042 0.00
vt 0.317197 0.876204 0.00
vt 0.328009 0.678151 0.00
vt 0.849872 0.205432 0.00
vt 0.834957 0.207410 0.00
vt 0.831661 0.175831 0.00
vt 0.851628 0.172402 0.00
vt 0.870338 0.174910 0.00
vt 0.887525 0.174473 0.00
vt 0.884126 0.204223 0.00
vt 0.869976 0.206288 0.00
vt 0.871803 0.119461 0.00
vt 0.886733 0.117938 0.00
vt 0.889987 0.149184 0.00
vt 0.872748 0.152496 0.00
vt 0.854571 0.151950 0.00
vt 0.833880 0.155597 0.00
vt 0.835990 0.118452 0.00
vt 0.855798 0.116958 0.00
vt 0.949823 0.268678 0.00
vt 0.865537 0.267268 0.00
vt 0.853916 0.265493 0.00
vt 0.772756 0.257975 0.00
vt 0.865681 0.276663 0.00
vt 0.852146 0.274512 0.00
vt 0.771924 0.267051 0.00
vt 0.949468 0.278040 0.00
vt 0.949332 0.285961 0.00
vt 0.864806 0.284313 0.00
vt 0.851528 0.282271 0.00
vt 0.770596 0.274266 0.00
vt 0.949996 0.296898 0.00
vt 0.862387 0.293980 0.00
vt 0.851936 0.292723 0.00
vt 0.768000 0.284041 0.00
vt 0.904904 0.352458 0.00
vt 0.858469 0.353093 0.00
vt 0.851321 0.352846 0.00
vt 0.801783 0.345970 0.00
vt 0.867352 0.405428 0.00
vt 0.855475 0.404721 0.00
vt 0.848456 0.404136 0.00
vt 0.830740 0.400901 0.00
vt 0.856406 0.436151 0.00
vt 0.852250 0.435699 0.00
vt 0.840591 0.434246 0.00
vt 0.833834 0.433217 0.00
vt 0.855808 0.442059 0.00
vt 0.850736 0.446674 0.00
vt 0.836902 0.445164 0.00
vt 0.832936 0.439119 0.00
vt 0.844786 0.449464 0.00
vt 0.841635 0.449211 0.00
vt 0.428462 0.788039 0.00
vt 0.428158 0.782360 0.00
vt 0.429996 0.835598 0.00
vt 0.595637 0.812692 0.00
vt 0.653660 0.824977 0.00
vt 0.653053 0.833898 0.00
vt 0.594416 0.823484 0.00
vt 0.660245 0.824254 0.00
vt 0.660823 0.833351 0.00
vt 0.432472 0.883592 0.00
vt 0.632796 0.760832 0.00
vt 0.631636 0.777174 0.00
vt 0.420910 0.682822 0.00
vt 0.425089 0.739987 0.00
vt 0.428134 0.683413 0.00
vt 0.430597 0.729450 0.00
vt 0.541749 0.689119 0.00
vt 0.543525 0.725920 0.00
vt 0.429765 0.824289 0.00
vt 0.718258 0.815013 0.00
vt 0.710573 0.817791 0.00
vt 0.708674 0.807200 0.00
vt 0.720931 0.807645 0.00
vt 0.715136 0.689092 0.00
vt 0.731309 0.689510 0.00
vt 0.586489 0.823094 0.00
vt 0.583946 0.814541 0.00
vt 0.570613 0.692253 0.00
vt 0.583989 0.690163 0.00
vt 0.671604 0.771637 0.00
vt 0.669135 0.756833 0.00
vt 0.664509 0.869268 0.00
vt 0.654835 0.870084 0.00
vt 0.577534 0.850246 0.00
vt 0.568303 0.842233 0.00
vt 0.561530 0.833930 0.00
vt 0.548680 0.694271 0.00
vt 0.125119 0.713021 0.00
vt 0.108145 0.733591 0.00
vt 0.063652 0.696878 0.00
vt 0.080626 0.676308 0.00
vt 0.600469 0.688366 0.00
vt 0.612129 0.791817 0.00
vt 0.651833 0.800581 0.00
vt 0.657599 0.800064 0.00
vt 0.691843 0.786783 0.00
vt 0.695922 0.689199 0.00
vt 0.055239 0.793886 0.00
vt 0.038229 0.814430 0.00
vt 0.000000 0.782778 0.00
vt 0.017010 0.762234 0.00
vt 0.752648 0.690495 0.00
vt 0.743530 0.826227 0.00
vt 0.735773 0.835464 0.00
vt 0.727556 0.842402 0.00
vt 0.646424 0.669209 0.00
vt 0.655738 0.669209 0.00
vt 0.654659 0.687649 0.00
vt 0.646299 0.687412 0.00
vt 0.680299 0.697803 0.00
vt 0.682172 0.778167 0.00
vt 0.656341 0.787977 0.00
vt 0.651155 0.788251 0.00
vt 0.623658 0.783951 0.00
vt 0.615270 0.698777 0.00
vt 0.654652 0.753138 0.00
vt 0.649064 0.753606 0.00
vt 0.671467 0.754923 0.00
vt 0.673831 0.773315 0.00
vt 0.655118 0.780384 0.00
vt 0.650003 0.781400 0.00
vt 0.628385 0.779393 0.00
vt 0.630937 0.759018 0.00
vt 0.328003 0.669209 0.00
vt 0.394542 0.669209 0.00
vt 0.381581 0.891970 0.00
vt 0.316258 0.884981 0.00
vt 0.759495 0.247983 0.00
vt 0.755057 0.166603 0.00
vt 0.755747 0.158050 0.00
vt 0.973373 0.159546 0.00
vt 0.973023 0.166527 0.00
vt 0.966502 0.259997 0.00
vt 0.428177 0.672793 0.00
vt 0.541716 0.674171 0.00
vt 0.432052 0.893335 0.00
vt 0.757626 0.256390 0.00
vt 0.756021 0.264893 0.00
vt 0.755387 0.271245 0.00
vt 0.754594 0.280795 0.00
vt 0.966760 0.268534 0.00
vt 0.967254 0.277627 0.00
vt 0.967146 0.284611 0.00
vt 0.966796 0.295591 0.00
vt 0.917741 0.352350 0.00
vt 0.877187 0.405984 0.00
vt 0.864829 0.437106 0.00
vt 0.864070 0.442934 0.00
vt 0.791993 0.344373 0.00
vt 0.822281 0.399575 0.00
vt 0.825952 0.432008 0.00
vt 0.825033 0.437903 0.00
vt 0.854503 0.446919 0.00
vt 0.833910 0.444652 0.00
vt 0.845333 0.451014 0.00
vt 0.840764 0.450291 0.00
vt 0.439714 0.894393 0.00
vt 0.542493 0.893721 0.00
vt 0.420532 0.672953 0.00
vt 0.147148 0.689403 0.00
vt 0.296195 0.828420 0.00
vt 0.274166 0.852038 0.00
vt 0.073082 0.773935 0.00
vt 0.089982 0.753313 0.00
vt 0.239029 0.892330 0.00
vt 0.222129 0.912952 0.00
vt 0.204286 0.932903 0.00
vt 0.257192 0.872608 0.00
vt 0.017141 0.837040 0.00
vt 0.187277 0.953447 0.00
vt 0.166188 0.976057 0.00
vt 0.510354 0.190569 0.00
vt 0.509180 0.220436 0.00
vt 0.281402 0.204728 0.00
vt 0.282243 0.174838 0.00
vt 0.018817 0.213429 0.00
vt 0.015269 0.183658 0.00
vt 0.244260 0.168459 0.00
vt 0.247474 0.198253 0.00
vt 0.502895 0.333075 0.00
vt 0.498027 0.403673 0.00
vt 0.270387 0.387976 0.00
vt 0.275255 0.317377 0.00
vt 0.503325 0.303293 0.00
vt 0.275684 0.287596 0.00
vt 0.023625 0.283738 0.00
vt 0.252144 0.268570 0.00
vt 0.027334 0.313386 0.00
vt 0.255853 0.298219 0.00
vt 0.032777 0.395389 0.00
vt 0.261295 0.380222 0.00
vt 0.511746 0.160616 0.00
vt 0.283624 0.144884 0.00
vt 0.009066 0.114736 0.00
vt 0.002478 0.015143 0.00
vt 0.231417 0.000000 0.00
vt 0.238005 0.099593 0.00
vt 0.164373 0.669209 0.00
vt 0.313127 0.807820 0.00
vt 0.000000 0.857491 0.00
vt 0.149228 0.996677 0.00
vt 0.497745 0.433437 0.00
vt 0.270106 0.417740 0.00
vt 0.036521 0.425029 0.00
vt 0.265040 0.409861 0.00
vt 0.017581 0.492186 0.00
vt 0.020077 0.431599 0.00
vt 0.028012 0.432074 0.00
vt 0.024854 0.492791 0.00
vt 0.015695 0.544308 0.00
vt 0.022772 0.544672 0.00
vt 0.013265 0.586278 0.00
vt 0.022325 0.587337 0.00
vt 0.010404 0.597023 0.00
vt 0.021390 0.598884 0.00
vt 0.512258 0.440857 0.00
vt 0.512042 0.496793 0.00
vt 0.505174 0.496648 0.00
vt 0.505089 0.440404 0.00
vt 0.512304 0.547112 0.00
vt 0.505291 0.547034 0.00
vt 0.512899 0.588738 0.00
vt 0.503946 0.588924 0.00
vt 0.514680 0.599466 0.00
vt 0.503627 0.600376 0.00
vt 0.004618 0.622282 0.00
vt 0.018178 0.624718 0.00
vt 0.517832 0.624360 0.00
vt 0.504214 0.625463 0.00
vt 0.000000 0.644349 0.00
vt 0.014313 0.647292 0.00
vt 0.520166 0.646342 0.00
vt 0.505480 0.647902 0.00
vt 0.754688 0.687020 0.00
vt 0.754688 0.677717 0.00
vt 0.767065 0.677717 0.00
vt 0.767065 0.687020 0.00
vt 0.012659 0.144469 0.00
vt 0.241663 0.129323 0.00
vt 0.520166 0.015869 0.00
vt 0.512187 0.130770 0.00
vt 0.284065 0.115039 0.00
vt 0.292068 0.000000 0.00
vt 0.037156 0.432610 0.00
vt 0.032063 0.493066 0.00
vt 0.029267 0.544850 0.00
vt 0.030190 0.586787 0.00
vt 0.031419 0.599759 0.00
vt 0.498408 0.497034 0.00
vt 0.496651 0.440409 0.00
vt 0.498875 0.547083 0.00
vt 0.496193 0.587702 0.00
vt 0.493882 0.600003 0.00
vt 0.030048 0.626089 0.00
vt 0.492433 0.625483 0.00
vt 0.027182 0.649938 0.00
vt 0.492700 0.648907 0.00
vt 0.777564 0.677717 0.00
vt 0.777564 0.687020 0.00
vt 0.263635 0.439629 0.00
vt 0.264756 0.499401 0.00
vt 0.265044 0.543779 0.00
vt 0.264338 0.574033 0.00
vt 0.261913 0.603729 0.00
vt 0.268909 0.498246 0.00
vt 0.269866 0.446321 0.00
vt 0.268437 0.542278 0.00
vt 0.268071 0.572469 0.00
vt 0.267875 0.601804 0.00
vt 0.258691 0.633290 0.00
vt 0.267815 0.630945 0.00
vt 0.255462 0.662583 0.00
vt 0.267694 0.660351 0.00
vt 0.848831 0.669209 0.00
vt 0.848831 0.678512 0.00
vt 0.027454 0.424948 0.00
vt 0.506067 0.434290 0.00
vt 0.629607 0.546580 0.00
vt 0.624940 0.549383 0.00
vt 0.622207 0.549383 0.00
vt 0.617550 0.546395 0.00
vt 0.605880 0.519903 0.00
vt 0.577542 0.482744 0.00
vt 0.669569 0.482910 0.00
vt 0.641096 0.519967 0.00
vt 0.611166 0.539506 0.00
vt 0.635739 0.539551 0.00
vt 0.532384 0.438612 0.00
vt 0.705039 0.438924 0.00
vt 0.530256 0.415969 0.00
vt 0.703888 0.416348 0.00
vt 0.529457 0.393395 0.00
vt 0.702475 0.393678 0.00
vt 0.529691 0.305399 0.00
vt 0.705109 0.317673 0.00
vt 0.635732 0.543282 0.00
vt 0.529629 0.282367 0.00
vt 0.705417 0.294716 0.00
vt 0.529688 0.206750 0.00
vt 0.714926 0.205766 0.00
vt 0.528481 0.182444 0.00
vt 0.714866 0.181370 0.00
vt 0.528329 0.140541 0.00
vt 0.714746 0.156829 0.00
vt 0.530598 0.116303 0.00
vt 0.714658 0.132361 0.00
vt 0.522691 0.013010 0.00
vt 0.536322 0.011955 0.00
vt 0.572407 0.009542 0.00
vt 0.590024 0.009463 0.00
vt 0.683482 0.001389 0.00
vt 0.721631 0.008292 0.00
vt 0.737630 0.010977 0.00
vt 0.665344 0.003149 0.00
vt 0.616553 0.009345 0.00
vt 0.634900 0.000000 0.00
vt 0.611160 0.543237 0.00
vt 0.855023 0.673755 0.00
vt 0.855451 0.674822 0.00
vt 0.854313 0.674660 0.00
vt 0.853884 0.673593 0.00
vt 0.854594 0.672688 0.00
vt 0.855733 0.672851 0.00
vt 0.856161 0.673918 0.00
vt 0.857647 0.678301 0.00
vt 0.852398 0.678301 0.00
vt 0.849773 0.673755 0.00
vt 0.852398 0.669209 0.00
vt 0.857648 0.669209 0.00
vt 0.860272 0.673755 0.00
vt 0.863303 0.671743 0.00
vt 0.866229 0.671743 0.00
vt 0.864766 0.674277 0.00
vt 0.864766 0.669209 0.00
vt 0.861840 0.669209 0.00
vt 0.860377 0.671743 0.00
vt 0.861840 0.674277 0.00

# 309 Faces
f  1/1/1  2/2/1  3/3/2  4/4/2 
f  5/5/3  6/6/4  7/7/5  8/8/6 
f  9/9/7  10/10/8  11/11/9  12/12/10 
f  13/13/11  14/14/12  15/15/13  16/16/14 
f  17/17/15  18/18/16  12/19/10  11/20/9 
f  19/21/17  20/22/18  21/23/19  22/24/20 
f  23/25/7  24/26/21  10/10/8  9/9/7 
f  25/27/22  26/28/22  27/29/23  28/30/24 
f  29/31/22  30/32/25  31/33/26  32/34/27 
f  24/26/21  23/25/7  33/35/28  34/36/28 
f  35/37/22  36/38/22  37/39/29  38/40/30 
f  39/41/31  40/42/32  41/43/33  42/44/34 
f  43/45/35  44/46/36  45/47/37  46/48/38 
f  47/49/28  48/50/28  49/51/39  50/52/40 
f  51/53/41  52/54/42  53/55/43  54/56/44 
f  42/44/34  41/43/33  6/6/4  5/5/3 
f  50/52/40  49/51/39  8/8/6  7/7/5 
f  30/32/25  55/57/45  56/58/46  31/33/26 
f  32/34/27  57/59/47  58/60/22  29/31/22 
f  36/38/22  59/61/48  60/62/49  37/39/29 
f  38/40/30  61/63/50  62/64/51  35/37/22 
f  44/46/36  63/65/52  64/66/53  45/47/37 
f  46/48/38  65/67/54  66/68/55  43/45/35 
f  52/54/42  67/69/56  68/70/57  53/55/43 
f  54/56/44  69/71/58  70/72/59  51/53/41 
f  71/73/60  72/74/61  73/75/62  74/76/63 
f  17/17/15  75/77/64  76/78/65 
f  6/6/4  46/48/38  45/47/37  7/7/5 
f  8/8/6  54/56/44  53/55/43  5/5/3 
f  10/10/8  77/79/66  78/80/67  11/11/9 
f  12/12/10  79/81/68  80/82/69  9/9/7 
f  18/18/16  81/83/70  79/84/68  12/19/10 
f  11/20/9  78/85/67  75/77/64  17/17/15 
f  24/26/21  55/57/45  77/79/66  10/10/8 
f  9/9/7  80/82/69  62/64/51  23/25/7 
f  26/28/22  58/60/22  57/59/47  27/29/23 
f  28/30/24  60/62/49  59/61/48  25/27/22 
f  23/25/7  62/64/51  61/63/50  33/35/28 
f  34/36/28  56/58/46  55/57/45  24/26/21 
f  40/42/32  66/68/55  65/67/54  41/43/33 
f  42/44/34  68/70/57  67/69/56  39/41/31 
f  48/50/28  70/72/59  69/71/58  49/51/39 
f  50/52/40  64/66/53  63/65/52  47/49/28 
f  82/86/71  83/87/72  84/88/73  85/89/74 
f  86/90/75  87/91/76  88/92/77  89/93/78 
f  90/94/79  91/95/80  92/96/81  93/97/82 
f  94/98/83  95/99/84  96/100/85  97/101/86 
f  60/62/49  28/30/24  39/41/31  67/69/56 
f  28/30/24  27/29/23  40/42/32  39/41/31 
f  27/29/23  57/59/47  66/68/55  40/42/32 
f  57/59/47  32/34/27  43/45/35  66/68/55 
f  32/34/27  31/33/26  44/46/36  43/45/35 
f  31/33/26  56/58/46  63/65/52  44/46/36 
f  56/58/46  34/36/28  47/49/28  63/65/52 
f  34/36/28  33/35/28  48/50/28  47/49/28 
f  33/35/28  61/63/50  70/72/59  48/50/28 
f  61/63/50  38/40/30  51/53/41  70/72/59 
f  38/40/30  37/39/29  52/54/42  51/53/41 
f  37/39/29  60/62/49  67/69/56  52/54/42 
f  89/93/78  88/92/77  68/70/57  42/44/34 
f  88/92/77  87/91/76  53/55/43  68/70/57 
f  87/91/76  86/90/75  5/5/3  53/55/43 
f  86/90/75  89/93/78  42/44/34  5/5/3 
f  84/88/73  83/87/72  65/67/54  46/48/38 
f  83/87/72  82/86/71  41/43/33  65/67/54 
f  82/86/71  85/89/74  6/6/4  41/43/33 
f  85/89/74  84/88/73  46/48/38  6/6/4 
f  97/101/86  96/100/85  64/66/53  50/52/40 
f  96/100/85  95/99/84  45/47/37  64/66/53 
f  95/99/84  94/98/83  7/7/5  45/47/37 
f  94/98/83  97/101/86  50/52/40  7/7/5 
f  92/96/81  91/95/80  69/71/58  54/56/44 
f  91/95/80  90/94/79  49/51/39  69/71/58 
f  90/94/79  93/97/82  8/8/6  49/51/39 
f  93/97/82  92/96/81  54/56/44  8/8/6 
f  25/27/22  59/61/48  98/102/87  99/103/88 
f  26/28/22  25/27/22  99/103/88  100/104/28 
f  58/60/22  26/28/22  100/104/28  101/105/28 
f  100/104/28  99/103/88  102/106/28  103/107/28 
f  101/105/28  100/104/28  103/107/28  104/108/28 
f  102/106/28  105/109/28  106/110/89  107/111/28 
f  103/107/28  102/106/28  107/111/28  108/112/28 
f  104/108/28  103/107/28  108/112/28  109/113/90 
f  107/111/28  106/110/89  110/114/28  111/115/28 
f  108/112/28  107/111/28  111/115/28  112/116/28 
f  109/113/90  108/112/28  112/116/28  113/117/28 
f  111/115/28  110/114/28  114/118/22  115/119/22 
f  112/116/28  111/115/28  115/119/22  116/120/22 
f  113/117/28  112/116/28  116/120/22  117/121/22 
f  115/119/22  114/118/22  118/122/91  119/123/22 
f  116/120/22  115/119/22  119/123/22  120/124/22 
f  117/121/22  116/120/22  120/124/22  121/125/22 
f  119/123/22  118/122/91  122/126/91  123/127/22 
f  120/124/22  119/123/22  123/127/22  124/128/22 
f  121/125/22  120/124/22  124/128/22  125/129/22 
f  123/127/22  122/126/91  126/130/91  127/131/25 
f  124/128/22  123/127/22  127/131/25  128/132/92 
f  125/129/22  124/128/22  128/132/92  129/133/22 
f  128/132/92  127/131/25  130/134/25  131/135/92 
f  132/136/93  18/18/16  17/17/15  133/137/93 
f  81/83/70  18/18/16  134/138/94 
f  135/139/95  136/140/2  137/141/93  138/142/93 
f  139/143/2  140/144/93  137/141/93  136/140/2 
f  73/75/62  141/145/96  134/138/94  74/76/63 
f  142/146/97  1/1/1  4/4/2  143/147/98 
f  75/77/64  144/148/99  76/78/65 
f  145/149/93  133/137/93  17/17/15 
f  76/78/65  144/148/99  146/150/100  147/151/101 
f  147/151/101  146/150/100  148/152/102  149/153/103 
f  18/18/16  150/154/93  134/138/94 
f  134/138/94  141/145/96  81/83/70 
f  151/155/104  152/156/93  153/157/105  154/158/63 
f  154/158/63  153/157/105  155/159/106  156/160/107 
f  17/17/15  76/78/65  145/149/93 
f  138/142/93  157/161/108  158/162/101  135/139/95 
f  135/139/95  158/162/101  159/163/109  160/164/110 
f  18/18/16  132/136/93  150/154/93 
f  152/156/93  140/144/93  139/143/2  153/157/105 
f  161/165/111  3/3/2  2/2/1  162/166/112 
f  132/167/93  133/168/93  137/141/93  140/144/93 
f  133/168/93  145/169/93  138/142/93  137/141/93 
f  145/169/93  76/170/65  157/161/108  138/142/93 
f  76/170/65  147/171/101  158/162/101  157/161/108 
f  147/171/101  149/172/103  159/163/109  158/162/101 
f  149/173/103  163/174/113  160/175/110  159/176/109 
f  163/177/113  164/178/114  135/139/95  160/164/110 
f  164/178/114  165/179/115  136/140/2  135/139/95 
f  165/179/115  166/180/115  139/143/2  136/140/2 
f  166/180/115  167/181/114  153/157/105  139/143/2 
f  167/181/114  168/182/116  155/159/106  153/157/105 
f  168/183/116  71/184/60  156/185/107  155/186/106 
f  71/187/60  74/188/63  154/158/63  156/160/107 
f  74/188/63  134/189/94  151/155/104  154/158/63 
f  134/189/94  150/190/93  152/156/93  151/155/104 
f  150/190/93  132/167/93  140/144/93  152/156/93 
f  169/191/117  170/192/118  171/193/28  172/194/119 
f  170/192/118  168/182/116  173/195/120  171/193/28 
f  168/182/116  167/181/114  174/196/121  173/195/120 
f  167/181/114  166/180/115  175/197/93  174/196/121 
f  166/180/115  165/179/115  176/198/122  175/197/93 
f  165/179/115  164/178/114  177/199/123  176/198/122 
f  164/178/114  163/177/113  178/200/124  177/199/123 
f  163/177/113  169/191/117  172/194/119  178/200/124 
f  172/194/119  171/193/28  179/201/1  180/202/1 
f  171/193/28  173/195/120  181/203/125  179/201/1 
f  173/195/120  174/196/121  182/204/126  181/203/125 
f  174/196/121  175/197/93  183/205/127  182/204/126 
f  175/197/93  176/198/122  184/206/128  183/205/127 
f  176/198/122  177/199/123  185/207/129  184/206/128 
f  177/199/123  178/200/124  186/208/130  185/207/129 
f  178/200/124  172/194/119  180/202/1  186/208/130 
f  180/202/1  179/201/1  2/2/1  1/1/1 
f  179/201/1  181/203/125  162/166/112  2/2/1 
f  181/203/125  182/204/126  161/165/111  162/166/112 
f  182/204/126  183/205/127  3/3/2  161/165/111 
f  183/205/127  184/206/128  4/4/2  3/3/2 
f  184/206/128  185/207/129  143/147/98  4/4/2 
f  185/207/129  186/208/130  142/146/97  143/147/98 
f  186/208/130  180/202/1  1/1/1  142/146/97 
f  75/77/64  78/85/67  15/209/13  14/210/12 
f  78/80/67  77/79/66  16/16/14  15/15/13 
f  77/79/66  55/57/45  13/13/11  16/16/14 
f  62/64/51  80/82/69  21/23/19  20/22/18 
f  80/82/69  79/81/68  22/24/20  21/23/19 
f  79/84/68  81/83/70  19/211/17  22/212/20 
f  29/31/22  58/60/22  187/213/131  188/214/132 
f  30/32/25  29/31/22  188/214/132  189/215/133 
f  55/57/45  30/32/25  189/215/133  13/13/11 
f  35/37/22  62/64/51  20/22/18  190/216/134 
f  36/38/22  35/37/22  190/216/134  191/217/135 
f  59/61/48  36/38/22  191/217/135  192/218/136 
f  193/219/137  194/220/138  148/152/102  146/150/100 
f  19/211/17  81/83/70  141/145/96  195/221/139 
f  58/60/22  101/105/28  196/222/140  187/213/131 
f  101/105/28  104/108/28  197/223/141  196/222/140 
f  104/108/28  109/113/90  198/224/142  197/223/141 
f  109/113/90  113/117/28  199/225/143  198/224/142 
f  98/102/87  59/61/48  192/218/136  200/226/144 
f  106/110/89  105/109/28  201/227/145  202/228/146 
f  110/114/28  106/110/89  202/228/146  203/229/147 
f  114/118/22  110/114/28  203/229/147  204/230/148 
f  118/122/91  114/118/22  204/230/148  205/231/149 
f  122/126/91  118/122/91  205/231/149  206/232/150 
f  126/130/91  122/126/91  206/232/150  207/233/151 
f  113/117/28  117/121/22  208/234/152  199/225/143 
f  117/121/22  121/125/22  209/235/153  208/234/152 
f  121/125/22  125/129/22  210/236/154  209/235/153 
f  125/129/22  129/133/22  211/237/155  210/236/154 
f  127/131/25  126/130/91  207/233/151  212/238/156 
f  129/133/22  128/132/92  213/239/157  211/237/155 
f  130/134/25  127/131/25  212/238/156  214/240/158 
f  128/132/92  131/135/92  215/241/159  213/239/157 
f  131/135/92  130/134/25  214/240/158  215/241/159 
f  141/145/96  73/75/62  216/242/160  195/221/139 
f  73/75/62  72/74/61  217/243/161  216/242/160 
f  146/150/100  144/148/99  218/244/162  193/219/137 
f  144/148/99  75/77/64  14/210/12  218/244/162 
f  149/173/103  148/245/102  219/246/163  220/247/164 
f  170/248/118  169/249/117  221/250/165  222/251/165 
f  168/183/116  170/248/118  222/251/165  223/252/165 
f  163/174/113  149/173/103  220/247/164  224/253/165 
f  72/254/61  71/184/60  225/255/166  226/256/167 
f  169/249/117  163/174/113  224/253/165  221/250/165 
f  71/184/60  168/183/116  223/252/165  225/255/166 
f  14/257/12  13/258/11  227/259/168  228/260/169 
f  20/261/18  19/262/17  229/263/170  230/264/171 
f  188/265/132  187/266/131  231/267/172  232/268/173 
f  189/269/133  188/265/132  232/268/173  233/270/174 
f  13/258/11  189/269/133  233/270/174  227/259/168 
f  190/271/134  20/261/18  230/264/171  234/272/175 
f  191/273/135  190/271/134  234/272/175  235/274/176 
f  192/275/136  191/273/135  235/274/176  236/276/177 
f  218/277/162  14/257/12  228/260/169  237/278/178 
f  216/279/160  217/280/161  238/281/179  239/282/180 
f  148/245/102  194/283/138  240/284/181  219/246/163 
f  217/285/161  72/254/61  226/256/167  238/286/179 
f  187/266/131  196/287/140  241/288/182  231/267/172 
f  200/289/144  192/275/136  236/276/177  242/290/183 
f  204/291/148  203/292/147  202/293/146  243/294/184 
f  205/295/149  204/291/148  243/294/184  244/296/185 
f  206/297/150  205/295/149  244/296/185  245/298/186 
f  207/299/151  206/297/150  245/298/186  246/300/187 
f  199/301/143  208/302/152  247/303/188  198/304/142 
f  208/302/152  209/305/153  248/306/189  247/303/188 
f  209/305/153  210/307/154  249/308/190  248/306/189 
f  210/307/154  211/309/155  250/310/191  249/308/190 
f  212/311/156  207/299/151  246/300/187  251/312/192 
f  211/309/155  213/313/157  252/314/193  250/310/191 
f  214/315/158  212/311/156  251/312/192  253/316/194 
f  213/313/157  215/317/159  254/318/195  252/314/193 
f  215/319/159  214/320/158  253/321/194  254/322/195 
f  19/262/17  195/323/139  255/324/196  229/263/170 
f  195/323/139  216/279/160  239/282/180  255/324/196 
f  194/325/138  193/326/137  256/327/197  240/328/181 
f  193/326/137  218/277/162  237/278/178  256/327/197 
f  202/293/146  257/329/198  258/330/199  243/294/184 
f  243/294/184  258/330/199  259/331/200  244/296/185 
f  244/296/185  259/331/200  260/332/201  245/298/186 
f  245/298/186  260/332/201  261/333/202  246/300/187 
f  247/303/188  262/334/203  263/335/204  198/304/142 
f  248/306/189  264/336/205  262/334/203  247/303/188 
f  249/308/190  265/337/206  264/336/205  248/306/189 
f  250/310/191  266/338/207  265/337/206  249/308/190 
f  246/300/187  261/333/202  267/339/192  251/312/192 
f  252/314/193  268/340/193  266/338/207  250/310/191 
f  251/312/192  267/339/192  269/341/194  253/316/194 
f  254/318/195  270/342/195  268/340/193  252/314/193 
f  253/321/194  269/343/194  270/344/195  254/322/195 
f  257/329/198  271/345/208  272/346/209  258/330/199 
f  258/330/199  272/346/209  273/347/210  259/331/200 
f  259/331/200  273/347/210  274/348/211  260/332/201 
f  260/332/201  274/348/211  275/349/212  261/333/202 
f  262/334/203  276/350/213  277/351/214  263/335/204 
f  264/336/205  278/352/215  276/350/213  262/334/203 
f  265/337/206  279/353/216  278/352/215  264/336/205 
f  266/338/207  280/354/217  279/353/216  265/337/206 
f  261/333/202  275/349/212  281/355/218  267/339/192 
f  268/340/193  282/356/219  280/354/217  266/338/207 
f  267/339/192  281/355/218  283/357/220  269/341/194 
f  270/342/195  284/358/221  282/356/219  268/340/193 
f  269/343/194  283/359/220  284/360/221  270/344/195 
f  200/226/144  201/227/145  105/109/28  98/102/87 
f  257/329/198  202/293/146  201/361/145  200/289/144 
f  198/304/142  263/335/204  196/287/140  197/362/141 
f  263/335/204  277/351/214  241/288/182  196/287/140 
f  271/345/208  257/329/198  200/289/144  242/290/183 
f  282/363/219  284/364/221  283/365/220  281/366/218 
f  273/367/210  272/368/209  276/369/213  278/370/215 
f  274/371/211  273/367/210  278/370/215  279/372/216 
f  272/368/209  271/373/208  277/374/214  276/369/213 
f  271/373/208  242/375/183  241/376/182  277/374/214 
f  242/375/183  236/377/177  231/378/172  241/376/182 
f  236/377/177  235/379/176  232/380/173  231/378/172 
f  279/372/216  280/381/217  282/363/219 
f  235/379/176  234/382/175  233/383/174  232/380/173 
f  234/382/175  230/384/171  227/385/168  233/383/174 
f  230/384/171  229/386/170  228/387/169  227/385/168 
f  229/386/170  255/388/196  237/389/178  228/387/169 
f  255/388/196  239/390/180  256/391/197  237/389/178 
f  239/390/180  238/392/179  226/393/167 
f  225/394/166  223/395/165  239/390/180 
f  239/390/180  226/393/167  225/394/166 
f  220/396/164  219/397/163  256/391/197 
f  219/397/163  240/398/181  256/391/197 
f  256/391/197  224/399/165  220/396/164 
f  239/390/180  223/395/165  222/400/165 
f  221/401/165  224/399/165  256/391/197 
f  222/400/165  221/401/165  256/391/197  239/390/180 
f  98/102/87  105/109/28  102/106/28  99/103/88 
f  281/366/218  275/402/212  274/371/211 
f  282/363/219  281/366/218  274/371/211  279/372/216 
f  285/403/25  286/404/222  287/405/223 
f  285/403/25  287/405/223  288/406/224 
f  285/403/25  288/406/224  289/407/225 
f  285/403/25  289/407/225  290/408/226 
f  285/403/25  290/408/226  291/409/227 
f  285/403/25  291/409/227  286/404/222 
f  286/404/222  292/410/228  293/411/229  287/405/223 
f  287/405/223  293/411/229  294/412/230  288/406/224 
f  288/406/224  294/412/230  295/413/231  289/407/225 
f  289/407/225  295/413/231  296/414/232  290/408/226 
f  290/408/226  296/414/232  297/415/233  291/409/227 
f  291/409/227  297/415/233  292/410/228  286/404/222 
f  298/416/234  293/417/229  292/418/228 
f  298/416/234  294/419/230  293/417/229 
f  298/416/234  295/420/231  294/419/230 
f  298/416/234  296/421/232  295/420/231 
f  298/416/234  297/422/233  296/421/232 
f  298/416/234  292/418/228  297/422/233 
