# ###############################
# Obj file written by RoadKill1_1
# RoadKill by Andy Swann
# http://www.pullin-shapes.co.uk/
# ###############################
g RoadKillOut
o RoadKillOut
# 564 Vertex coords
v -40.060799 0.893097 0.481300
v -41.874599 0.893097 -5.101000
v -41.874599 1.025696 -5.101000
v -40.060799 1.025696 0.481300
v -46.623299 0.893097 -8.551100
v -46.623299 1.025696 -8.551100
v -52.492901 0.893097 -8.551100
v -52.492901 1.025696 -8.551100
v -57.241600 0.893097 -5.101000
v -57.241600 1.025696 -5.101000
v -59.055401 0.893097 0.481300
v -59.055401 1.025696 0.481300
v -57.241600 0.893097 6.063700
v -57.241600 1.025696 6.063700
v -52.492901 0.893097 9.513800
v -52.492901 1.025696 9.513800
v -46.623299 0.893097 9.513800
v -46.623299 1.025696 9.513800
v -41.874599 0.893097 6.063700
v -41.874599 1.025696 6.063700
v -49.558102 0.893097 0.481300
v -41.874599 2.149094 -5.101000
v -41.805401 2.316406 -5.151300
v -39.975201 2.316406 0.481300
v -40.060799 2.149094 0.481300
v -46.623299 2.149094 -8.551100
v -46.596802 2.316406 -8.632500
v -52.492901 2.149094 -8.551100
v -52.519402 2.316406 -8.632500
v -57.241600 2.149094 -5.101000
v -57.310799 2.316406 -5.151300
v -59.055401 2.149094 0.481300
v -59.140999 2.316406 0.481300
v -57.241600 2.149094 6.063700
v -57.310799 2.316406 6.114000
v -52.492901 2.149094 9.513800
v -52.519402 2.316406 9.595200
v -46.623299 2.149094 9.513800
v -46.596802 2.316406 9.595200
v -41.874599 2.149094 6.063700
v -41.805401 2.316406 6.114000
v -33.996300 10.624695 0.481300
v -36.968300 10.624695 -8.665700
v -37.334000 11.217194 -8.400000
v -34.448299 11.217194 0.481300
v -44.749199 10.624695 -14.318800
v -44.888901 11.217194 -13.888900
v -54.367001 10.624695 -14.318800
v -54.227299 11.217194 -13.888900
v -62.147900 10.624695 -8.665700
v -61.782101 11.217194 -8.400000
v -65.119904 10.624695 0.481300
v -64.667801 11.217194 0.481300
v -62.147900 10.624695 9.628400
v -61.782101 11.217194 9.362600
v -54.367001 10.624695 15.281500
v -54.227299 11.217194 14.851600
v -44.749199 10.624695 15.281500
v -44.888901 11.217194 14.851600
v -36.968300 10.624695 9.628300
v -37.334000 11.217194 9.362600
v -39.421501 8.513306 -6.883400
v -39.057098 8.743896 -7.148100
v -36.578098 8.743896 0.481300
v -37.028500 8.513306 0.481300
v -45.686199 8.513306 -11.434999
v -45.547100 8.743896 -11.863400
v -53.429901 8.513306 -11.434999
v -53.569099 8.743896 -11.863400
v -59.694698 8.513306 -6.883400
v -60.059101 8.743896 -7.148100
v -62.087700 8.513306 0.481300
v -62.538101 8.743896 0.481300
v -59.694698 8.513306 7.846001
v -60.059101 8.743896 8.110800
v -53.429901 8.513306 12.397701
v -53.569099 8.743896 12.826000
v -45.686199 8.513306 12.397701
v -45.547100 8.743896 12.826000
v -39.421501 8.513306 7.846001
v -39.057098 8.743896 8.110800
v -39.456100 11.809708 -6.858200
v -43.360298 18.770493 -4.021600
v -41.897301 18.770493 0.481300
v -37.071400 11.809708 0.481300
v -45.699501 11.809708 -11.394200
v -47.190800 18.770493 -6.804600
v -53.416698 11.809708 -11.394200
v -51.925400 18.770493 -6.804600
v -59.660099 11.809708 -6.858200
v -55.755798 18.770493 -4.021600
v -62.044800 11.809708 0.481300
v -57.218899 18.770493 0.481300
v -59.660099 11.809708 7.820900
v -55.755798 18.770493 4.984300
v -53.416698 11.809708 12.356900
v -51.925400 18.770493 7.767200
v -45.699501 11.809708 12.356900
v -47.190800 18.770493 7.767200
v -39.456100 11.809708 7.820800
v -43.360298 18.770493 4.984300
v -41.979500 19.001602 0.481300
v -43.426899 19.001602 -3.973200
v -43.426899 19.240906 -3.973200
v -41.979500 19.240906 0.481300
v -47.216202 19.001602 -6.726300
v -47.216202 19.240906 -6.726300
v -51.900002 19.001602 -6.726300
v -51.900002 19.240906 -6.726300
v -55.689301 19.001602 -3.973200
v -55.689301 19.240906 -3.973200
v -57.136700 19.001602 0.481300
v -57.136700 19.240906 0.481300
v -55.689301 19.001602 4.935900
v -55.689301 19.240906 4.935900
v -51.900002 19.001602 7.689000
v -51.900002 19.240906 7.689000
v -47.216202 19.001602 7.689000
v -47.216202 19.240906 7.689000
v -43.426899 19.001602 4.935900
v -43.426899 19.240906 4.935900
v -41.979500 20.314407 0.481300
v -43.426899 20.314407 -3.973200
v -45.000401 20.314407 -2.830000
v -43.924400 20.314407 0.481300
v -47.216202 20.314407 -6.726300
v -47.817200 20.314407 -4.876600
v -51.900002 20.314407 -6.726300
v -51.299000 20.314407 -4.876600
v -55.689301 20.314407 -3.973200
v -54.115799 20.314407 -2.830000
v -57.136700 20.314407 0.481300
v -55.191799 20.314407 0.481300
v -55.689301 20.314407 4.935900
v -54.115799 20.314407 3.792700
v -51.900002 20.314407 7.689000
v -51.299000 20.314407 5.839300
v -47.216202 20.314407 7.689000
v -47.817200 20.314407 5.839300
v -43.426899 20.314407 4.935900
v -45.000401 20.314407 3.792700
v -45.119301 20.502396 -2.713300
v -44.080700 20.543594 0.478400
v -47.835201 20.469299 -4.684800
v -51.190899 20.457001 -4.682900
v -53.904800 20.470108 -2.708500
v -54.940102 20.503601 0.484300
v -53.901501 20.544800 3.676000
v -51.185699 20.577896 5.647500
v -47.830002 20.590302 5.645600
v -45.116100 20.577194 3.671200
v -41.367298 147.730896 0.481300
v -41.799702 147.707306 -0.851200
v -41.817299 148.031494 -0.851200
v -41.384998 148.055099 0.481300
v -42.931499 147.645706 -1.674800
v -42.949200 147.969894 -1.674800
v -44.330601 147.569504 -1.674800
v -44.348202 147.893799 -1.674800
v -45.462399 147.507904 -0.851200
v -45.480099 147.832108 -0.851200
v -45.894699 147.484406 0.481300
v -45.912399 147.808594 0.481300
v -45.462399 147.507904 1.813900
v -45.480099 147.832108 1.813900
v -44.330601 147.569504 2.637400
v -44.348202 147.893799 2.637400
v -42.931499 147.645706 2.637400
v -42.949200 147.969894 2.637400
v -41.799702 147.707306 1.813900
v -41.817299 148.031494 1.813900
v -40.638100 149.660904 -1.771000
v -39.907398 149.700699 0.481300
v -42.551300 149.556793 -3.163100
v -44.916000 149.428101 -3.163100
v -46.829201 149.323898 -1.771000
v -47.559898 149.284103 0.481300
v -46.829201 149.323898 2.733700
v -44.916000 149.428101 4.125700
v -42.551300 149.556793 4.125700
v -40.638100 149.660904 2.733700
v -45.000000 184.003006 -0.615600
v -44.645100 183.969299 0.481300
v -45.928902 184.091003 -1.293500
v -47.077099 184.199799 -1.293500
v -48.006001 184.287903 -0.615600
v -48.360802 184.321503 0.481300
v -48.006001 184.287903 1.578200
v -47.077099 184.199799 2.256200
v -45.928902 184.091003 2.256200
v -45.000000 184.003006 1.578200
v -42.749100 185.190399 -2.196300
v -41.856998 185.265701 0.446400
v -45.009102 185.318100 -3.815900
v -47.773701 185.600006 -3.793700
v -49.986900 185.928497 -2.138200
v -50.803299 186.178101 0.518200
v -49.911201 186.253403 3.160900
v -47.651299 186.125702 4.780500
v -44.886700 185.843704 4.758300
v -42.673500 185.515198 3.102800
v -45.102100 185.543304 -0.190300
v -44.878700 185.562103 0.471400
v -45.667900 185.575195 -0.595800
v -46.360100 185.645798 -0.590200
v -46.914200 185.728104 -0.175700
v -47.118599 185.790604 0.489300
v -46.895302 185.809402 1.151000
v -46.329399 185.777405 1.556500
v -45.637299 185.706802 1.550900
v -45.083199 185.624603 1.136500
v -42.648399 211.079803 -0.183400
v -38.682701 236.801193 -0.183400
v -38.467701 236.780899 0.481300
v -42.433399 211.059494 0.481300
v -43.211300 211.133194 -0.594200
v -39.245602 236.854599 -0.594200
v -43.907101 211.199097 -0.594200
v -39.941399 236.920502 -0.594200
v -44.470001 211.252502 -0.183400
v -40.504299 236.973907 -0.183400
v -44.685001 211.272903 0.481300
v -40.719299 236.994202 0.481300
v -44.470001 211.252502 1.146000
v -40.504299 236.973907 1.146000
v -43.907101 211.199097 1.556800
v -39.941399 236.920502 1.556800
v -43.211300 211.133194 1.556800
v -39.245602 236.854599 1.556800
v -42.648399 211.079803 1.146000
v -38.682701 236.801193 1.146000
v -36.151600 262.522614 -0.183400
v -35.389801 288.654999 -0.183400
v -35.187901 288.731598 0.481300
v -35.936600 262.502197 0.481300
v -36.714500 262.575989 -0.594200
v -35.918499 288.454315 -0.594200
v -37.410301 262.641907 -0.594200
v -36.571899 288.206299 -0.594200
v -37.973202 262.695313 -0.183400
v -37.100498 288.005615 -0.183400
v -38.188202 262.715698 0.481300
v -37.302399 287.928986 0.481300
v -37.973202 262.695313 1.146000
v -37.100498 288.005615 1.146000
v -37.410301 262.641907 1.556800
v -36.571899 288.206299 1.556800
v -36.714500 262.575989 1.556800
v -35.918499 288.454315 1.556800
v -36.151600 262.522614 1.146000
v -35.389801 288.654999 1.146000
v -41.130402 314.879608 -0.592300
v -40.600601 315.080688 -0.183100
v -41.783798 314.631592 -0.595600
v -42.312401 314.431000 -0.184700
v -42.510300 314.355896 0.481300
v -42.312401 314.431000 1.147400
v -41.783798 314.631592 1.558200
v -41.130402 314.879608 1.555000
v -40.600601 315.080688 1.145800
v -40.397999 315.157593 0.481300
v -58.557999 325.570709 -0.591200
v -58.559601 326.137512 -0.182200
v -58.556099 324.871887 -0.597900
v -58.554501 324.307800 -0.185400
v -58.554001 324.099213 0.481700
v -58.554501 324.305908 1.149400
v -58.556099 324.872009 1.559300
v -58.557999 325.570801 1.554000
v -58.559601 326.137390 1.144800
v -58.560200 326.357086 0.481300
v -70.840500 314.498993 -0.589400
v -71.329102 314.786102 -0.180400
v -70.237999 314.144806 -0.602200
v -69.754402 313.860596 -0.185300
v -69.575897 313.755615 0.482200
v -69.749199 313.857605 1.151600
v -70.239304 314.145599 1.558200
v -70.841904 314.499786 1.553600
v -71.330299 314.786896 1.144500
v -71.521896 314.899414 0.481800
v -72.103302 305.478302 -0.587200
v -72.607498 305.504608 -0.180500
v -71.483803 305.444885 -0.605600
v -70.989098 305.416992 -0.184600
v -70.803902 305.407806 0.482400
v -70.982101 305.417389 1.151800
v -71.486099 305.444489 1.558500
v -72.105904 305.477905 1.554200
v -72.607697 305.505096 1.144200
v -72.805496 305.515411 0.481800
v -70.086197 296.223114 -0.180700
v -69.566498 296.457611 -0.584900
v -61.019600 290.210693 -0.580600
v -61.051201 289.638214 -0.180800
v -68.929802 296.745087 -0.609000
v -60.981201 290.907806 -0.614600
v -68.424004 296.973297 -0.183900
v -60.950699 291.456696 -0.182800
v -68.232101 297.059998 0.482600
v -60.939098 291.668488 0.483200
v -68.415199 296.977295 1.152100
v -60.950001 291.470795 1.153600
v -68.933197 296.743500 1.558900
v -60.981400 290.902313 1.558800
v -69.570198 296.455994 1.554800
v -61.019901 290.204407 1.557500
v -70.085403 296.223297 1.143900
v -61.050900 289.644012 1.141000
v -70.289299 296.131287 0.481700
v -61.063599 289.414093 0.481100
v -54.076900 294.813202 -0.578000
v -53.808498 294.305115 -0.180100
v -54.402699 295.430298 -0.621800
v -54.655499 295.909302 -0.179700
v -54.758400 296.104004 0.483700
v -54.664700 295.926788 1.153400
v -54.399200 295.423798 1.559400
v -54.073002 294.805695 1.560300
v -53.812698 294.312988 1.138400
v -53.702301 294.103607 0.480700
v -51.314800 302.913788 -0.579000
v -50.743099 302.934113 -0.177300
v -52.012001 302.889191 -0.625600
v -52.547501 302.870514 -0.176500
v -52.777302 302.862213 0.483600
v -52.570202 302.869598 1.151200
v -52.003399 302.889587 1.559600
v -51.304901 302.914215 1.562300
v -50.750999 302.933685 1.136500
v -50.508301 302.942291 0.481000
v -56.793301 307.961792 -0.580000
v -56.761501 308.530090 -0.174400
v -56.832199 307.265411 -0.629400
v -56.862000 306.736298 -0.173200
v -56.875301 306.496887 0.483500
v -56.863499 306.710510 1.149000
v -56.831799 307.275085 1.559700
v -56.792599 307.972992 1.564200
v -56.761799 308.523407 1.134600
v -56.747799 308.771912 0.481300
v -62.702000 303.842896 0.012900
v -62.850300 304.043915 0.193500
v -62.519402 303.595490 -0.010100
v -62.382301 303.409607 0.194300
v -62.316898 303.321014 0.482300
v -62.374699 303.399292 0.774900
v -62.522301 303.599396 0.957100
v -62.705299 303.847412 0.959800
v -62.848900 304.041992 0.768600
v -62.915600 304.132385 0.481500
v -36.863899 9.969894 -8.741500
v -33.867199 9.969894 0.481300
v -44.709400 9.969894 -14.441600
v -54.406799 9.969894 -14.441600
v -62.252300 9.969894 -8.741500
v -65.249001 9.969894 0.481300
v -62.252300 9.969894 9.704200
v -54.406799 9.969894 15.404199
v -44.709400 9.969894 15.404199
v -36.863899 9.969894 9.704200
v -37.299999 9.624100 -8.424700
v -34.406300 9.624100 0.481300
v -44.875900 9.624100 -13.928900
v -54.240299 9.624100 -13.928900
v -61.816200 9.624100 -8.424700
v -64.709900 9.624100 0.481300
v -61.816200 9.624100 9.387300
v -54.240299 9.624100 14.891600
v -44.875900 9.624100 14.891600
v -37.299999 9.624100 9.387300
v -39.785999 8.294601 -6.618500
v -37.479099 8.294601 0.481300
v -45.825500 8.294601 -11.006500
v -53.290699 8.294601 -11.006500
v -59.330200 8.294601 -6.618500
v -61.637100 8.294601 0.481300
v -59.330200 8.294601 7.581200
v -53.290699 8.294601 11.969100
v -45.825500 8.294601 11.969100
v -39.785999 8.294601 7.581200
v -41.874599 1.957993 -5.101000
v -40.060799 1.957993 0.481300
v -46.623299 1.957993 -8.551100
v -52.492901 1.957993 -8.551100
v -57.241600 1.957993 -5.101000
v -59.055401 1.957993 0.481300
v -57.241600 1.957993 6.063700
v -52.492901 1.957993 9.513800
v -46.623299 1.957993 9.513800
v -41.874599 1.957993 6.063700
v -43.426899 20.060699 -3.973200
v -41.979500 20.060699 0.481300
v -47.216202 20.060699 -6.726300
v -51.900002 20.060699 -6.726300
v -55.689301 20.060699 -3.973200
v -57.136700 20.060699 0.481300
v -55.689301 20.060699 4.935900
v -51.900002 20.060699 7.689000
v -47.216202 20.060699 7.689000
v -43.426899 20.060699 4.935900
v -54.789799 246.685196 0.458000
v -56.013199 246.685196 -2.779400
v -56.013199 247.885605 -2.779400
v -54.789799 247.885605 0.458000
v -59.216202 246.685196 -4.780200
v -59.216202 247.885605 -4.780200
v -63.175201 246.685196 -4.780200
v -63.175201 247.885605 -4.780200
v -66.378197 246.685196 -2.779400
v -66.378197 247.885605 -2.779400
v -67.601601 246.685196 0.458000
v -67.601601 247.885605 0.458000
v -66.378197 246.685196 3.695400
v -66.378197 247.885605 3.695400
v -63.175201 246.685196 5.696200
v -63.175201 247.885605 5.696200
v -59.216202 246.685196 5.696200
v -59.216202 247.885605 5.696200
v -56.013199 246.685196 3.695400
v -56.013199 247.885605 3.695400
v -57.653900 251.366898 -1.754500
v -56.817699 251.366898 0.458000
v -59.842800 251.366898 -3.121900
v -62.548599 251.366898 -3.121900
v -64.737602 251.366898 -1.754500
v -65.573700 251.366898 0.458000
v -64.737602 251.366898 2.670500
v -62.548599 251.366898 4.038000
v -59.842800 251.366898 4.038000
v -57.653900 251.366898 2.670500
v -48.427200 271.331512 0.458000
v -50.865799 271.331512 -5.994901
v -50.865799 272.694611 -5.994901
v -48.427200 272.694611 0.458000
v -57.250000 271.331512 -9.983000
v -57.250000 272.694611 -9.983000
v -65.141403 271.331512 -9.983000
v -65.141403 272.694611 -9.983000
v -71.525703 271.331512 -5.994901
v -71.525703 272.694611 -5.994901
v -73.964203 271.331512 0.458000
v -73.964203 272.694611 0.458000
v -71.525703 271.331512 6.910901
v -71.525703 272.694611 6.910901
v -65.141403 271.331512 10.899000
v -65.141403 272.694611 10.899000
v -57.250000 271.331512 10.899000
v -57.250000 272.694611 10.899000
v -50.865799 271.331512 6.910901
v -50.865799 272.694611 6.910901
v -60.251499 279.442413 -0.790700
v -60.028599 279.442413 0.458000
v -60.835098 279.442413 -1.562400
v -61.556400 279.442413 -1.562400
v -62.139900 279.442413 -0.790700
v -62.362801 279.442413 0.458000
v -62.139900 279.442413 1.706700
v -61.556400 279.442413 2.478400
v -60.835098 279.442413 2.478400
v -60.251499 279.442413 1.706700
v -60.251499 290.970795 -0.790700
v -60.251499 294.698486 -0.790700
v -60.028599 294.698486 0.458000
v -60.028599 290.970795 0.458000
v -60.835098 290.970795 -1.562400
v -60.835098 294.698486 -1.562400
v -61.556400 290.970795 -1.562400
v -61.556400 294.698486 -1.562400
v -62.139900 290.970795 -0.790700
v -62.139900 294.698486 -0.790700
v -62.362801 290.970795 0.458000
v -62.362801 294.698486 0.458000
v -62.139900 290.970795 1.706700
v -62.139900 294.698486 1.706700
v -61.556400 290.970795 2.478400
v -61.556400 294.698486 2.478400
v -60.835098 290.970795 2.478400
v -60.835098 294.698486 2.478400
v -60.251499 290.970795 1.706700
v -60.251499 294.698486 1.706700
v -60.251499 295.223602 -0.790700
v -60.028599 295.223602 0.458000
v -60.835098 295.223602 -1.562400
v -61.556400 295.223602 -1.562400
v -62.139900 295.223602 -0.790700
v -62.362801 295.223602 0.458000
v -62.139900 295.223602 1.706700
v -61.556400 295.223602 2.478400
v -60.835098 295.223602 2.478400
v -60.251499 295.223602 1.706700
v -60.454498 295.970215 -0.522200
v -60.723598 296.413086 -0.166300
v -60.612202 296.413086 0.458000
v -60.279499 295.970215 0.458000
v -60.912601 295.970215 -1.128000
v -61.015400 296.413086 -0.552200
v -61.478802 295.970215 -1.128000
v -61.375999 296.413086 -0.552200
v -61.936901 295.970215 -0.522200
v -61.667801 296.413086 -0.166300
v -62.111900 295.970215 0.458000
v -61.779301 296.413086 0.458000
v -61.936901 295.970215 1.438200
v -61.667801 296.413086 1.082300
v -61.478802 295.970215 2.044000
v -61.375999 296.413086 1.468200
v -60.912601 295.970215 2.044000
v -61.015400 296.413086 1.468200
v -60.454498 295.970215 1.438200
v -60.723598 296.413086 1.082300
v -60.992699 296.677399 0.189500
v -61.195702 296.858185 0.458000
v -60.944801 296.677399 0.458000
v -61.118198 296.677399 0.023600
v -61.273300 296.677399 0.023600
v -61.398701 296.677399 0.189500
v -61.446602 296.677399 0.458000
v -61.398701 296.677399 0.726500
v -61.273300 296.677399 0.892400
v -61.118198 296.677399 0.892400
v -60.992699 296.677399 0.726500
v -57.270100 251.898300 -1.330000
v -56.797501 251.898300 -0.079400
v -50.843399 270.799988 -5.344700
v -48.853600 270.799988 -0.079400
v -59.242199 251.898300 -2.972500
v -58.004799 251.898300 -2.199500
v -56.787399 270.799988 -9.468300
v -51.578098 270.799988 -6.214200
v -61.960400 251.898300 -3.304600
v -60.431000 251.898300 -3.304600
v -64.415199 270.799988 -9.800400
v -57.976200 270.799988 -9.800400
v -64.386597 251.898300 -2.199500
v -63.149200 251.898300 -2.972400
v -70.813301 270.799988 -6.214200
v -65.603996 270.799988 -9.468300
v -65.593903 251.898300 -0.079400
v -65.121300 251.898300 -1.330000
v -73.537804 270.799988 -0.079400
v -71.548103 270.799988 -5.344700
v -65.121300 251.898300 2.246000
v -65.593903 251.898300 0.995400
v -71.548103 270.799988 6.260700
v -73.537804 270.799988 0.995400
v -63.149200 251.898300 3.888500
v -64.386597 251.898300 3.115500
v -65.603996 270.799988 10.384300
v -70.813301 270.799988 7.130200
v -60.431000 251.898300 4.220600
v -61.960400 251.898300 4.220600
v -57.976200 270.799988 10.716400
v -64.415199 270.799988 10.716400
v -58.004799 251.898300 3.115500
v -59.242199 251.898300 3.888500
v -51.578098 270.799988 7.130200
v -56.787399 270.799988 10.384300
v -56.797501 251.898300 0.995400
v -57.270100 251.898300 2.246000
v -48.853600 270.799988 0.995400
v -50.843399 270.799988 6.260700
v -62.613998 303.723694 0.481900
v -61.195702 246.685196 0.458000

# 497 Normal vectors
vn 0.765287 -0.643689 -0.000000
vn 0.619114 -0.643715 -0.449810
vn 0.809004 0.000000 -0.587803
vn 1.000000 0.000000 -0.000000
vn 0.236503 -0.643708 -0.727809
vn 0.308989 0.000000 -0.951066
vn -0.236393 -0.643782 -0.727780
vn -0.308989 0.000000 -0.951066
vn -0.619074 -0.643773 -0.449781
vn -0.809004 0.000000 -0.587803
vn -0.765287 -0.643689 0.000000
vn -1.000000 0.000000 0.000000
vn -0.619114 -0.643715 0.449810
vn -0.809004 -0.000000 0.587803
vn -0.236503 -0.643708 0.727809
vn -0.308989 0.000000 0.951066
vn 0.236393 -0.643782 0.727780
vn 0.308989 0.000000 0.951066
vn 0.619074 -0.643773 0.449781
vn 0.809004 0.000000 0.587803
vn 0.000000 -1.000000 -0.000000
vn 0.784273 -0.245492 -0.569780
vn 0.735023 -0.417813 -0.534017
vn 0.908532 -0.417815 -0.000000
vn 0.969397 -0.245499 -0.000000
vn 0.299583 -0.245486 -0.921947
vn 0.280790 -0.417785 -0.864068
vn -0.299492 -0.245493 -0.921975
vn -0.280790 -0.417785 -0.864068
vn -0.784273 -0.245492 -0.569780
vn -0.735023 -0.417813 -0.534017
vn -0.969397 -0.245499 0.000000
vn -0.908532 -0.417815 0.000000
vn -0.784273 -0.245492 0.569780
vn -0.735023 -0.417813 0.534017
vn -0.299583 -0.245486 0.921947
vn -0.280790 -0.417785 0.864068
vn 0.299492 -0.245493 0.921975
vn 0.280790 -0.417785 0.864068
vn 0.784273 -0.245492 0.569780
vn 0.735023 -0.417813 0.534017
vn 0.918772 0.394788 -0.000000
vn 0.743314 0.394808 -0.540010
vn 0.473084 0.811173 -0.343788
vn 0.584789 0.811185 -0.000000
vn 0.283901 0.394801 -0.873803
vn 0.180695 0.811177 -0.556184
vn -0.283901 0.394801 -0.873803
vn -0.180695 0.811177 -0.556184
vn -0.743314 0.394808 -0.540010
vn -0.473084 0.811173 -0.343788
vn -0.918772 0.394788 0.000000
vn -0.584789 0.811185 0.000000
vn -0.743314 0.394808 0.540010
vn -0.473084 0.811173 0.343788
vn -0.283901 0.394801 0.873803
vn -0.180695 0.811177 0.556184
vn 0.283901 0.394801 0.873803
vn 0.180695 0.811177 0.556184
vn 0.743314 0.394808 0.540010
vn 0.473084 0.811173 0.343788
vn 0.362386 -0.894066 -0.263290
vn 0.330709 -0.912625 -0.240307
vn 0.408809 -0.912620 -0.000000
vn 0.447893 -0.894087 -0.000000
vn 0.138397 -0.894080 -0.425990
vn 0.126303 -0.912620 -0.388809
vn -0.138397 -0.894080 -0.425990
vn -0.126303 -0.912620 -0.388809
vn -0.362386 -0.894066 -0.263290
vn -0.330709 -0.912625 -0.240307
vn -0.447893 -0.894087 0.000000
vn -0.408809 -0.912620 0.000000
vn -0.362386 -0.894066 0.263290
vn -0.330709 -0.912625 0.240307
vn -0.138397 -0.894080 0.425990
vn -0.126303 -0.912620 0.388809
vn 0.138397 -0.894080 0.425990
vn 0.126303 -0.912620 0.388809
vn 0.362386 -0.894066 0.263290
vn 0.330709 -0.912625 0.240307
vn 0.408887 0.862872 -0.297091
vn 0.715215 0.467410 -0.519611
vn 0.884036 0.467419 -0.000000
vn 0.505394 0.862889 0.000000
vn 0.156195 0.862871 -0.480684
vn 0.273194 0.467389 -0.840781
vn -0.156195 0.862871 -0.480684
vn -0.273194 0.467389 -0.840781
vn -0.408887 0.862872 -0.297091
vn -0.715215 0.467410 -0.519611
vn -0.505394 0.862889 0.000000
vn -0.884036 0.467419 0.000000
vn -0.408887 0.862872 0.297091
vn -0.715215 0.467410 0.519611
vn -0.156195 0.862871 0.480684
vn -0.273194 0.467389 0.840781
vn 0.156195 0.862871 0.480684
vn 0.273194 0.467389 0.840781
vn 0.408887 0.862872 0.297091
vn 0.715215 0.467410 0.519611
vn 0.984373 0.176095 -0.000000
vn 0.796383 0.176096 -0.578588
vn 0.304197 0.176098 -0.936191
vn -0.304197 0.176098 -0.936191
vn -0.796383 0.176096 -0.578588
vn -0.984373 0.176095 -0.000000
vn -1.000000 0.000000 -0.000000
vn -0.796383 0.176096 0.578588
vn -0.304197 0.176098 0.936191
vn 0.304197 0.176098 0.936191
vn 0.796383 0.176096 0.578588
vn 0.765287 0.643689 -0.000000
vn 0.619114 0.643715 -0.449810
vn 0.271400 0.940599 -0.204000
vn 0.388191 0.921579 0.000700
vn 0.236503 0.643708 -0.727809
vn 0.077601 0.961614 -0.263204
vn -0.236503 0.643708 -0.727809
vn -0.077103 0.972941 -0.217809
vn -0.619114 0.643715 -0.449810
vn -0.186503 0.973614 -0.131502
vn -0.765287 0.643689 -0.000000
vn -0.257800 0.966198 -0.000400
vn -0.619074 0.643773 0.449781
vn -0.248507 0.952726 0.174805
vn -0.236393 0.643782 0.727780
vn -0.116201 0.936412 0.331104
vn 0.236503 0.643708 0.727809
vn 0.110800 0.921999 0.371000
vn 0.619114 0.643715 0.449810
vn 0.321698 0.915394 0.241999
vn 0.752688 0.371294 -0.543692
vn 0.953265 0.302089 -0.005300
vn 0.281095 0.466291 -0.838784
vn -0.252113 0.534727 -0.806540
vn -0.670706 0.549405 -0.498305
vn -0.856394 0.516297 -0.005200
vn -0.720674 0.451984 0.525681
vn -0.278190 0.377187 0.883369
vn 0.304406 0.314806 0.899018
vn 0.781734 0.284713 0.554824
vn 0.999859 0.016799 0.000000
vn 0.812395 0.015700 -0.582896
vn 0.758307 -0.371903 -0.535405
vn 0.932020 -0.362408 -0.000000
vn 0.317699 0.013300 -0.948098
vn 0.303492 -0.396590 -0.866377
vn -0.300807 0.011000 -0.953622
vn -0.258690 -0.427184 -0.866368
vn -0.806018 0.009600 -0.591813
vn -0.713486 -0.451991 -0.535389
vn -0.999959 0.009100 0.000000
vn -0.887153 -0.461476 -0.000000
vn -0.806018 0.009600 0.591813
vn -0.713486 -0.451991 0.535389
vn -0.300807 0.011000 0.953622
vn -0.258690 -0.427184 0.866368
vn 0.317699 0.013300 0.948098
vn 0.303492 -0.396590 0.866377
vn 0.812395 0.015700 0.582896
vn 0.758307 -0.371903 0.535405
vn 0.783180 -0.280393 -0.554986
vn 0.963366 -0.268191 -0.000000
vn 0.311888 -0.312188 -0.897365
vn -0.269797 -0.351196 -0.896589
vn -0.739609 -0.382605 -0.553707
vn -0.918897 -0.394499 0.000000
vn -0.739609 -0.382605 0.553707
vn -0.269797 -0.351196 0.896589
vn 0.311888 -0.312188 0.897365
vn 0.783180 -0.280393 0.554986
vn 0.652591 -0.547892 -0.523392
vn 0.850488 -0.525993 0.001000
vn 0.191895 -0.557086 -0.807980
vn -0.321501 -0.549301 -0.771301
vn -0.710542 -0.527031 -0.466228
vn -0.866155 -0.499774 -0.001000
vn -0.732597 -0.479498 0.483098
vn -0.330801 -0.473002 0.816603
vn 0.211603 -0.480806 0.850911
vn 0.676908 -0.500406 0.539806
vn 0.801595 0.107099 -0.588196
vn 0.991614 0.128002 -0.017800
vn 0.310811 0.132205 -0.941233
vn -0.292600 0.195200 -0.936100
vn -0.772091 0.271297 -0.574694
vn -0.944056 0.329785 -0.000900
vn -0.747908 0.348104 0.565206
vn -0.259790 0.320388 0.910967
vn 0.336016 0.258312 0.905742
vn 0.813307 0.185402 0.551505
vn 0.558304 0.720505 -0.411303
vn 0.693102 0.718202 -0.061600
vn 0.254995 0.744185 -0.617387
vn -0.108803 0.780023 -0.616219
vn -0.410996 0.816092 -0.406296
vn -0.540114 0.840021 -0.051401
vn -0.432298 0.841897 0.322999
vn -0.113806 0.818840 0.562627
vn 0.286694 0.779183 0.557388
vn 0.595911 0.740214 0.311406
vn 0.800934 -0.100104 -0.590325
vn 0.804590 -0.101499 -0.585093
vn 0.992157 -0.124995 0.000000
vn 0.992270 -0.124096 0.000000
vn 0.301689 -0.037599 -0.952665
vn 0.311507 -0.039501 -0.949422
vn -0.311784 0.038998 -0.949352
vn -0.301804 0.038000 -0.952612
vn -0.804797 0.100400 -0.584998
vn -0.800901 0.101100 -0.590201
vn -0.992332 0.123604 -0.000000
vn -0.992106 0.125401 0.000000
vn -0.804852 0.100306 0.584938
vn -0.800901 0.101100 0.590201
vn -0.311814 0.039002 0.949342
vn -0.301804 0.038000 0.952612
vn 0.301598 -0.037600 0.952694
vn 0.311507 -0.039501 0.949422
vn 0.800887 -0.100098 0.590390
vn 0.804590 -0.101499 0.585093
vn 0.809815 -0.051601 -0.584411
vn 0.821486 0.069399 -0.565990
vn 0.996049 0.088804 0.000000
vn 0.997982 -0.063499 0.000000
vn 0.314393 -0.020100 -0.949080
vn 0.338890 0.021899 -0.940571
vn -0.302602 0.020000 -0.952907
vn -0.294902 -0.028400 -0.955105
vn -0.805150 0.053397 -0.590663
vn -0.808726 -0.061902 -0.584919
vn -0.997793 0.066400 -0.000000
vn -0.997317 -0.073201 -0.000000
vn -0.805150 0.053397 0.590663
vn -0.808726 -0.061902 0.584919
vn -0.302602 0.020000 0.952907
vn -0.294902 -0.028400 0.955105
vn 0.314483 -0.020099 0.949050
vn 0.338890 0.021899 0.940571
vn 0.809815 -0.051601 0.584411
vn 0.821486 0.069399 0.565990
vn 0.304896 0.246297 -0.919987
vn 0.687013 0.479009 -0.546410
vn -0.196397 -0.125298 -0.972486
vn -0.636698 -0.468598 -0.612398
vn -0.807320 -0.590114 -0.000000
vn -0.636609 -0.468706 0.612408
vn -0.196397 -0.125298 0.972486
vn 0.304896 0.246297 0.919987
vn 0.687013 0.479009 0.546410
vn 0.831311 0.555807 0.000000
vn -0.059001 0.412110 -0.909222
vn -0.076297 0.838470 -0.539581
vn 0.013500 -0.180998 -0.983391
vn 0.096603 -0.758122 -0.644918
vn 0.117595 -0.993060 -0.001600
vn 0.096797 -0.756679 0.646582
vn 0.013400 -0.180902 0.983410
vn -0.058903 0.411622 0.909449
vn -0.076202 0.838521 0.539514
vn -0.077201 0.997016 0.000000
vn -0.331703 0.171802 -0.927608
vn -0.729029 0.389115 -0.563122
vn 0.210991 -0.112795 -0.970958
vn 0.702610 -0.365205 -0.610708
vn 0.887802 -0.460201 -0.004800
vn 0.699112 -0.363006 0.616011
vn 0.210700 -0.113000 0.970998
vn -0.327986 0.169993 0.929262
vn -0.729681 0.389390 0.562086
vn -0.880477 0.474088 -0.001000
vn -0.383298 -0.031300 -0.923094
vn -0.840563 -0.053398 -0.539076
vn 0.286902 0.017100 -0.957807
vn 0.829332 0.066203 -0.554821
vn 0.996674 0.081298 -0.005600
vn 0.823974 0.065898 0.562782
vn 0.288296 0.017300 0.957385
vn -0.377378 -0.030798 0.925547
vn -0.842206 -0.053400 0.536504
vn -0.998258 -0.058998 -0.000200
vn -0.680430 -0.469421 -0.562725
vn -0.302396 -0.228097 -0.925488
vn -0.002300 -0.411299 -0.911498
vn -0.023100 -0.833991 -0.551294
vn 0.201404 0.132403 -0.970518
vn 0.004600 0.170491 -0.985348
vn 0.649907 0.470705 -0.596706
vn 0.000300 0.777894 -0.628395
vn 0.808734 0.588125 -0.007600
vn 0.000800 0.999929 -0.011900
vn 0.643407 0.466705 0.606807
vn -0.001000 0.762494 0.646995
vn 0.204396 0.135397 0.969479
vn 0.004500 0.188107 0.982138
vn -0.298797 -0.225498 0.927292
vn -0.003000 -0.414396 0.910092
vn -0.682311 -0.471008 0.559109
vn -0.022701 -0.837530 0.545920
vn -0.830509 -0.557006 0.000500
vn -0.033401 -0.999434 0.004000
vn 0.347192 -0.224695 -0.910478
vn 0.654721 -0.517417 -0.551018
vn -0.181099 0.162200 -0.969997
vn -0.692957 0.468671 -0.547866
vn -0.833076 0.552984 -0.013900
vn -0.683002 0.458601 0.568501
vn -0.199399 0.167499 0.965497
vn 0.346499 -0.221199 0.911597
vn 0.660207 -0.521206 0.540806
vn 0.764728 -0.644324 0.006100
vn 0.403217 0.144406 -0.903639
vn 0.807629 0.204707 -0.553020
vn -0.177206 -0.029401 -0.983734
vn -0.761507 -0.247102 -0.599206
vn -0.952013 -0.305504 -0.018400
vn -0.740572 -0.244091 0.626077
vn -0.200399 -0.044700 0.978694
vn 0.405091 0.146397 0.902480
vn 0.812986 0.206096 0.544590
vn 0.976777 0.214195 0.005300
vn -0.004500 0.429079 -0.903256
vn 0.037601 0.829317 -0.557512
vn -0.067299 -0.155198 -0.985588
vn -0.100002 -0.776915 -0.621612
vn -0.104805 -0.994243 -0.022301
vn -0.100604 -0.749928 0.653825
vn -0.069802 -0.184105 0.980425
vn -0.003900 0.431583 0.902065
vn 0.038200 0.835010 0.548907
vn 0.053597 0.998553 0.004500
vn -0.697686 -0.192396 -0.690086
vn -0.886317 0.091702 -0.453909
vn -0.400217 -0.583525 -0.706630
vn -0.211209 -0.887839 -0.408818
vn -0.109604 -0.993837 -0.016601
vn -0.202696 -0.879883 0.429792
vn -0.414873 -0.587061 0.695154
vn -0.683702 -0.194001 0.703502
vn -0.892400 0.092800 0.441600
vn -0.970472 0.241193 0.003300
vn 0.755699 -0.357099 -0.548999
vn 0.934070 -0.357089 0.000000
vn 0.288591 -0.357088 -0.888371
vn -0.288591 -0.357088 -0.888371
vn -0.755699 -0.357099 -0.548999
vn -0.934070 -0.357089 0.000000
vn -0.755699 -0.357099 0.548999
vn -0.288591 -0.357088 0.888371
vn 0.288591 -0.357088 0.888371
vn 0.755699 -0.357099 0.548999
vn 0.383506 -0.880513 -0.278604
vn 0.474010 -0.880519 0.000000
vn 0.146503 -0.880516 -0.450808
vn -0.146503 -0.880516 -0.450808
vn -0.383506 -0.880513 -0.278604
vn -0.474010 -0.880519 0.000000
vn -0.383506 -0.880513 0.278604
vn -0.146503 -0.880516 0.450808
vn 0.146503 -0.880516 0.450808
vn 0.383506 -0.880513 0.278604
vn 0.558273 -0.723765 -0.405580
vn 0.690005 -0.723805 -0.000000
vn 0.213193 -0.723775 -0.656277
vn -0.213193 -0.723775 -0.656277
vn -0.558273 -0.723765 -0.405580
vn -0.690005 -0.723805 0.000000
vn -0.558273 -0.723765 0.405580
vn -0.213193 -0.723775 0.656277
vn 0.213193 -0.723775 0.656277
vn 0.558273 -0.723765 0.405580
vn -1.000000 -0.000000 0.000000
vn -0.809004 0.000000 0.587803
vn 0.772101 -0.635500 -0.000000
vn 0.593025 -0.641727 -0.486321
vn 0.754019 0.238006 -0.612216
vn 0.969015 0.247004 -0.000000
vn 0.209402 -0.650007 -0.730508
vn 0.271106 0.224005 -0.936121
vn -0.209402 -0.650007 -0.730508
vn -0.271106 0.224005 -0.936121
vn -0.593025 -0.641727 -0.486321
vn -0.754019 0.238006 -0.612216
vn -0.772101 -0.635500 -0.000000
vn -0.969015 0.247004 -0.000000
vn -0.593025 -0.641727 0.486321
vn -0.754019 0.238006 0.612216
vn -0.209402 -0.650007 0.730508
vn -0.271106 0.224005 0.936121
vn 0.209402 -0.650007 0.730508
vn 0.271014 0.224011 0.936147
vn 0.593025 -0.641727 0.486321
vn 0.754062 0.237988 0.612170
vn 0.763205 0.068600 -0.642504
vn 0.997376 0.072398 -0.000000
vn 0.268888 0.063797 -0.961056
vn -0.268888 0.063797 -0.961056
vn -0.763205 0.068600 -0.642504
vn -0.997376 0.072398 -0.000000
vn -0.763205 0.068600 0.642504
vn -0.268888 0.063797 0.961056
vn 0.268888 0.063797 0.961056
vn 0.763205 0.068600 0.642504
vn 0.981881 -0.189496 -0.000000
vn 0.762894 -0.181599 -0.620495
vn 0.697302 0.444001 -0.562702
vn 0.890249 0.455474 -0.000000
vn 0.273593 -0.169596 -0.946776
vn 0.254306 0.420711 -0.870822
vn -0.273593 -0.169596 -0.946776
vn -0.254295 0.420592 -0.870883
vn -0.762908 -0.181502 -0.620507
vn -0.697302 0.444001 -0.562702
vn -0.981881 -0.189496 -0.000000
vn -0.890249 0.455474 -0.000000
vn -0.762908 -0.181502 0.620507
vn -0.697302 0.444001 0.562702
vn -0.273593 -0.169596 0.946776
vn -0.254295 0.420592 0.870883
vn 0.273593 -0.169596 0.946776
vn 0.254295 0.420592 0.870883
vn 0.762908 -0.181502 0.620507
vn 0.697302 0.444001 0.562702
vn 0.787080 0.515487 -0.338791
vn 0.851480 0.524388 0.000000
vn 0.389795 0.511194 -0.765990
vn -0.389795 0.511194 -0.765990
vn -0.787080 0.515487 -0.338791
vn -0.851480 0.524388 -0.000000
vn -0.787080 0.515487 0.338791
vn -0.389795 0.511194 0.765990
vn 0.389795 0.511194 0.765990
vn 0.787080 0.515487 0.338791
vn 0.916297 0.000000 -0.400499
vn 1.000000 0.000000 0.000000
vn 0.445493 0.000000 -0.895286
vn -0.445493 0.000000 -0.895286
vn -0.916297 0.000000 -0.400499
vn -0.916297 0.000000 0.400499
vn -0.445493 0.000000 0.895286
vn 0.445493 0.000000 0.895286
vn 0.916297 0.000000 0.400499
vn 0.895477 0.183795 -0.405390
vn 0.987342 0.158607 0.000000
vn 0.419615 0.240609 -0.875232
vn -0.419615 0.240609 -0.875232
vn -0.895477 0.183795 -0.405390
vn -0.987342 0.158607 -0.000000
vn -0.895477 0.183795 0.405390
vn -0.419615 0.240609 0.875232
vn 0.419615 0.240609 0.875232
vn 0.895477 0.183795 0.405390
vn 0.787400 0.511800 -0.343600
vn 0.623125 0.738130 -0.258610
vn 0.723462 0.690364 0.000000
vn 0.888798 0.458299 0.000000
vn 0.360512 0.624521 -0.692823
vn 0.272598 0.831993 -0.483196
vn -0.360512 0.624521 -0.692823
vn -0.272598 0.831993 -0.483196
vn -0.787400 0.511800 -0.343600
vn -0.623125 0.738130 -0.258610
vn -0.888798 0.458299 -0.000000
vn -0.723462 0.690364 -0.000000
vn -0.787400 0.511800 0.343600
vn -0.623125 0.738130 0.258610
vn -0.360512 0.624521 0.692823
vn -0.272598 0.831993 0.483196
vn 0.360512 0.624521 0.692823
vn 0.272598 0.831993 0.483196
vn 0.787400 0.511800 0.343600
vn 0.623125 0.738130 0.258610
vn 0.509575 0.834760 -0.208590
vn -0.000000 1.000000 0.000000
vn 0.605187 0.796083 0.000000
vn 0.209403 0.907311 -0.364605
vn -0.209403 0.907311 -0.364605
vn -0.509575 0.834760 -0.208590
vn -0.605187 0.796083 0.000000
vn -0.509575 0.834760 0.208590
vn -0.209403 0.907311 0.364605
vn 0.209403 0.907311 0.364605
vn 0.509618 0.834729 0.208607
vn 0.870570 -0.365888 -0.328989
vn 0.498425 -0.338917 -0.797940
vn -0.000000 -0.325004 -0.945713
vn -0.498425 -0.338917 -0.797940
vn -0.870570 -0.365888 -0.328989
vn -0.870570 -0.365888 0.328989
vn -0.498425 -0.338917 0.797940
vn -0.000000 -0.325004 0.945713
vn 0.000000 -0.325004 0.945713
vn 0.498425 -0.338917 0.797940
vn 0.870570 -0.365888 0.328989
vn -0.804608 -0.593806 -0.000000
vn -0.000000 -1.000000 0.000000

# 672 texture coords
vt 0.654366 0.003480 0.00
vt 0.662820 0.014159 0.00
vt 0.661609 0.015233 0.00
vt 0.652878 0.004596 0.00
vt 0.672013 0.021109 0.00
vt 0.671186 0.022420 0.00
vt 0.682418 0.024789 0.00
vt 0.682025 0.026315 0.00
vt 0.694313 0.025201 0.00
vt 0.694364 0.026963 0.00
vt 0.708301 0.022267 0.00
vt 0.708568 0.024390 0.00
vt 0.075747 0.019272 0.00
vt 0.088654 0.024044 0.00
vt 0.088171 0.025615 0.00
vt 0.075047 0.021017 0.00
vt 0.100270 0.025229 0.00
vt 0.100242 0.026800 0.00
vt 0.111198 0.022951 0.00
vt 0.111658 0.024477 0.00
vt 0.121681 0.017057 0.00
vt 0.122653 0.018553 0.00
vt 0.132204 0.007173 0.00
vt 0.133550 0.008865 0.00
vt 0.685405 0.000000 0.00
vt 0.100765 0.000000 0.00
vt 0.659065 0.018017 0.00
vt 0.657956 0.019355 0.00
vt 0.648359 0.008433 0.00
vt 0.649805 0.007364 0.00
vt 0.669639 0.025497 0.00
vt 0.668952 0.026968 0.00
vt 0.681400 0.029743 0.00
vt 0.681120 0.031366 0.00
vt 0.694679 0.030800 0.00
vt 0.694826 0.032650 0.00
vt 0.709293 0.028590 0.00
vt 0.709948 0.030517 0.00
vt 0.087437 0.029362 0.00
vt 0.087184 0.031102 0.00
vt 0.073156 0.026704 0.00
vt 0.073845 0.025021 0.00
vt 0.100520 0.030275 0.00
vt 0.100699 0.031908 0.00
vt 0.112921 0.027768 0.00
vt 0.113531 0.029319 0.00
vt 0.124944 0.021699 0.00
vt 0.126045 0.023218 0.00
vt 0.136384 0.012104 0.00
vt 0.137962 0.013420 0.00
vt 0.620777 0.032608 0.00
vt 0.641489 0.043711 0.00
vt 0.640336 0.046018 0.00
vt 0.619620 0.035901 0.00
vt 0.657899 0.051027 0.00
vt 0.656976 0.053150 0.00
vt 0.673782 0.056944 0.00
vt 0.672962 0.059114 0.00
vt 0.691004 0.062323 0.00
vt 0.690166 0.064773 0.00
vt 0.713855 0.068379 0.00
vt 0.712250 0.071521 0.00
vt 0.061979 0.062059 0.00
vt 0.085711 0.060825 0.00
vt 0.085922 0.063438 0.00
vt 0.062699 0.065513 0.00
vt 0.103775 0.058557 0.00
vt 0.104090 0.060888 0.00
vt 0.120666 0.055319 0.00
vt 0.121101 0.057634 0.00
vt 0.138411 0.050856 0.00
vt 0.138987 0.053417 0.00
vt 0.161308 0.043960 0.00
vt 0.161590 0.047514 0.00
vt 0.647290 0.033068 0.00
vt 0.646102 0.035055 0.00
vt 0.630286 0.022845 0.00
vt 0.632449 0.021146 0.00
vt 0.662113 0.040826 0.00
vt 0.661320 0.042774 0.00
vt 0.677050 0.046347 0.00
vt 0.676497 0.048387 0.00
vt 0.693491 0.050224 0.00
vt 0.693189 0.052561 0.00
vt 0.712976 0.051554 0.00
vt 0.713609 0.054376 0.00
vt 0.085156 0.048566 0.00
vt 0.085170 0.050910 0.00
vt 0.065087 0.048636 0.00
vt 0.066067 0.046033 0.00
vt 0.102064 0.047503 0.00
vt 0.102400 0.049606 0.00
vt 0.117901 0.044421 0.00
vt 0.118498 0.046478 0.00
vt 0.134154 0.039093 0.00
vt 0.135129 0.041270 0.00
vt 0.151653 0.029939 0.00
vt 0.153689 0.032036 0.00
vt 0.637959 0.051504 0.00
vt 0.631792 0.076594 0.00
vt 0.616250 0.075153 0.00
vt 0.618163 0.043955 0.00
vt 0.654903 0.058028 0.00
vt 0.646706 0.079988 0.00
vt 0.671011 0.063996 0.00
vt 0.661078 0.084852 0.00
vt 0.688065 0.070072 0.00
vt 0.675252 0.091365 0.00
vt 0.707618 0.077764 0.00
vt 0.688915 0.100128 0.00
vt 0.086733 0.069432 0.00
vt 0.094465 0.094422 0.00
vt 0.080198 0.101297 0.00
vt 0.065639 0.073243 0.00
vt 0.104853 0.066206 0.00
vt 0.109225 0.089691 0.00
vt 0.121991 0.062901 0.00
vt 0.124371 0.086479 0.00
vt 0.139987 0.059113 0.00
vt 0.140273 0.084556 0.00
vt 0.160913 0.055335 0.00
vt 0.156923 0.084530 0.00
vt 0.616354 0.077143 0.00
vt 0.631557 0.078555 0.00
vt 0.631189 0.080482 0.00
vt 0.616101 0.079111 0.00
vt 0.646255 0.081824 0.00
vt 0.645671 0.083616 0.00
vt 0.660429 0.086645 0.00
vt 0.659643 0.088376 0.00
vt 0.674339 0.093157 0.00
vt 0.673298 0.094840 0.00
vt 0.687743 0.101766 0.00
vt 0.686620 0.103416 0.00
vt 0.081327 0.102973 0.00
vt 0.095279 0.096249 0.00
vt 0.095960 0.098115 0.00
vt 0.082135 0.104817 0.00
vt 0.109782 0.091533 0.00
vt 0.110196 0.093407 0.00
vt 0.124751 0.088399 0.00
vt 0.124976 0.090340 0.00
vt 0.140459 0.086617 0.00
vt 0.140476 0.088658 0.00
vt 0.156826 0.086589 0.00
vt 0.156778 0.088631 0.00
vt 0.615791 0.083738 0.00
vt 0.630631 0.084918 0.00
vt 0.629909 0.091221 0.00
vt 0.617333 0.090051 0.00
vt 0.644535 0.087949 0.00
vt 0.642913 0.094440 0.00
vt 0.658001 0.092587 0.00
vt 0.655613 0.098898 0.00
vt 0.671021 0.098945 0.00
vt 0.667660 0.104747 0.00
vt 0.683975 0.107771 0.00
vt 0.678036 0.112514 0.00
vt 0.084284 0.109007 0.00
vt 0.097778 0.102247 0.00
vt 0.100384 0.107990 0.00
vt 0.088971 0.113701 0.00
vt 0.111430 0.097794 0.00
vt 0.113305 0.104287 0.00
vt 0.125750 0.094937 0.00
vt 0.126981 0.101826 0.00
vt 0.140743 0.093520 0.00
vt 0.141059 0.100611 0.00
vt 0.156948 0.093849 0.00
vt 0.154594 0.101201 0.00
vt 0.629444 0.092767 0.00
vt 0.617390 0.091510 0.00
vt 0.642128 0.095882 0.00
vt 0.654683 0.100274 0.00
vt 0.666621 0.106092 0.00
vt 0.676735 0.113553 0.00
vt 0.101147 0.109501 0.00
vt 0.089955 0.114897 0.00
vt 0.113946 0.105927 0.00
vt 0.127456 0.103553 0.00
vt 0.141240 0.102389 0.00
vt 0.154225 0.102820 0.00
vt 0.589076 0.180767 0.00
vt 0.599052 0.185884 0.00
vt 0.597936 0.188279 0.00
vt 0.587963 0.182888 0.00
vt 0.610033 0.190437 0.00
vt 0.609090 0.193008 0.00
vt 0.621566 0.194266 0.00
vt 0.620800 0.196933 0.00
vt 0.633360 0.197358 0.00
vt 0.632783 0.200133 0.00
vt 0.645106 0.199689 0.00
vt 0.644591 0.202247 0.00
vt 0.118502 0.206766 0.00
vt 0.130472 0.206332 0.00
vt 0.130656 0.209165 0.00
vt 0.118553 0.209305 0.00
vt 0.143166 0.205158 0.00
vt 0.143551 0.208020 0.00
vt 0.155749 0.203197 0.00
vt 0.156325 0.205999 0.00
vt 0.167900 0.200374 0.00
vt 0.168728 0.203144 0.00
vt 0.179506 0.196581 0.00
vt 0.180332 0.199175 0.00
vt 0.590448 0.203707 0.00
vt 0.576283 0.195924 0.00
vt 0.603812 0.209116 0.00
vt 0.617200 0.213321 0.00
vt 0.631173 0.216419 0.00
vt 0.647178 0.217913 0.00
vt 0.131577 0.227620 0.00
vt 0.113853 0.227480 0.00
vt 0.146918 0.225681 0.00
vt 0.161223 0.222650 0.00
vt 0.175166 0.218516 0.00
vt 0.190255 0.212132 0.00
vt 0.547865 0.317632 0.00
vt 0.532055 0.309632 0.00
vt 0.564156 0.325327 0.00
vt 0.579949 0.332792 0.00
vt 0.595700 0.339405 0.00
vt 0.612895 0.342839 0.00
vt 0.145882 0.361421 0.00
vt 0.127182 0.365024 0.00
vt 0.163847 0.356632 0.00
vt 0.181235 0.351692 0.00
vt 0.198639 0.346438 0.00
vt 0.215694 0.338462 0.00
vt 0.534905 0.354997 0.00
vt 0.501594 0.348803 0.00
vt 0.554433 0.359558 0.00
vt 0.570794 0.364503 0.00
vt 0.588751 0.371146 0.00
vt 0.619797 0.384826 0.00
vt 0.160879 0.401665 0.00
vt 0.130697 0.417637 0.00
vt 0.179089 0.393204 0.00
vt 0.195750 0.386702 0.00
vt 0.215278 0.380002 0.00
vt 0.250018 0.369258 0.00
vt 0.529067 0.396050 0.00
vt 0.516703 0.394010 0.00
vt 0.540507 0.400593 0.00
vt 0.551259 0.406333 0.00
vt 0.561322 0.412954 0.00
vt 0.570439 0.420456 0.00
vt 0.192086 0.437002 0.00
vt 0.180866 0.443583 0.00
vt 0.204077 0.433037 0.00
vt 0.216345 0.430286 0.00
vt 0.228992 0.428262 0.00
vt 0.241887 0.427096 0.00
vt 0.493671 0.482610 0.00
vt 0.457040 0.560343 0.00
vt 0.447165 0.555383 0.00
vt 0.483738 0.477768 0.00
vt 0.503576 0.487317 0.00
vt 0.466884 0.565095 0.00
vt 0.513449 0.492015 0.00
vt 0.476765 0.569800 0.00
vt 0.523184 0.496774 0.00
vt 0.486609 0.574567 0.00
vt 0.533200 0.501924 0.00
vt 0.496464 0.579544 0.00
vt 0.223389 0.529440 0.00
vt 0.252801 0.613665 0.00
vt 0.241708 0.616570 0.00
vt 0.212446 0.532525 0.00
vt 0.234183 0.526634 0.00
vt 0.263737 0.610963 0.00
vt 0.245062 0.523952 0.00
vt 0.274681 0.608331 0.00
vt 0.256011 0.521258 0.00
vt 0.285618 0.605634 0.00
vt 0.267515 0.518365 0.00
vt 0.296741 0.602717 0.00
vt 0.423324 0.639563 0.00
vt 0.391408 0.723910 0.00
vt 0.380091 0.720781 0.00
vt 0.412967 0.634671 0.00
vt 0.433474 0.644434 0.00
vt 0.402703 0.725522 0.00
vt 0.443367 0.649197 0.00
vt 0.413693 0.726479 0.00
vt 0.452953 0.653772 0.00
vt 0.424142 0.727944 0.00
vt 0.462445 0.658255 0.00
vt 0.434593 0.730824 0.00
vt 0.278658 0.698850 0.00
vt 0.299809 0.780727 0.00
vt 0.289026 0.781294 0.00
vt 0.267942 0.701378 0.00
vt 0.289239 0.696275 0.00
vt 0.311206 0.781648 0.00
vt 0.300127 0.693618 0.00
vt 0.323237 0.783227 0.00
vt 0.311391 0.690911 0.00
vt 0.335696 0.784175 0.00
vt 0.323117 0.688181 0.00
vt 0.348162 0.783493 0.00
vt 0.376055 0.807379 0.00
vt 0.364435 0.805685 0.00
vt 0.386670 0.810049 0.00
vt 0.396532 0.812060 0.00
vt 0.406315 0.812968 0.00
vt 0.299527 0.873384 0.00
vt 0.289712 0.872302 0.00
vt 0.310437 0.873720 0.00
vt 0.322606 0.873628 0.00
vt 0.335416 0.874700 0.00
vt 0.348162 0.876995 0.00
vt 0.351644 0.805394 0.00
vt 0.394044 0.890885 0.00
vt 0.383585 0.897894 0.00
vt 0.403793 0.885074 0.00
vt 0.412027 0.879635 0.00
vt 0.419117 0.874106 0.00
vt 0.263637 0.934708 0.00
vt 0.257676 0.927937 0.00
vt 0.270192 0.941748 0.00
vt 0.277935 0.949433 0.00
vt 0.286360 0.958420 0.00
vt 0.295522 0.968572 0.00
vt 0.372624 0.906203 0.00
vt 0.463846 0.932917 0.00
vt 0.459988 0.944138 0.00
vt 0.467470 0.922794 0.00
vt 0.470403 0.913845 0.00
vt 0.472625 0.905473 0.00
vt 0.198662 0.950015 0.00
vt 0.198146 0.941549 0.00
vt 0.199421 0.958506 0.00
vt 0.200501 0.967896 0.00
vt 0.201724 0.978472 0.00
vt 0.202851 0.990061 0.00
vt 0.456531 0.955781 0.00
vt 0.543030 0.939105 0.00
vt 0.543082 0.950324 0.00
vt 0.543351 0.928659 0.00
vt 0.543409 0.919100 0.00
vt 0.542884 0.910249 0.00
vt 0.131233 0.936834 0.00
vt 0.133549 0.928461 0.00
vt 0.129505 0.945083 0.00
vt 0.127889 0.953977 0.00
vt 0.125813 0.963540 0.00
vt 0.122984 0.973729 0.00
vt 0.543766 0.961577 0.00
vt 0.622327 0.928856 0.00
vt 0.618882 0.918603 0.00
vt 0.682817 0.874273 0.00
vt 0.692257 0.880396 0.00
vt 0.616424 0.909313 0.00
vt 0.674214 0.868394 0.00
vt 0.613910 0.900942 0.00
vt 0.666320 0.863269 0.00
vt 0.610716 0.892744 0.00
vt 0.658797 0.858921 0.00
vt 0.075311 0.903639 0.00
vt 0.071249 0.909740 0.00
vt 0.035097 0.865455 0.00
vt 0.042504 0.862952 0.00
vt 0.067199 0.917035 0.00
vt 0.027360 0.868202 0.00
vt 0.062775 0.925484 0.00
vt 0.018972 0.871329 0.00
vt 0.057431 0.934369 0.00
vt 0.009885 0.874718 0.00
vt 0.051441 0.942914 0.00
vt 0.000000 0.878434 0.00
vt 0.627170 0.939847 0.00
vt 0.702485 0.886580 0.00
vt 0.693215 0.804270 0.00
vt 0.703838 0.806614 0.00
vt 0.683770 0.800751 0.00
vt 0.675707 0.798695 0.00
vt 0.668400 0.798339 0.00
vt 0.041947 0.805362 0.00
vt 0.048334 0.806342 0.00
vt 0.034867 0.805732 0.00
vt 0.026548 0.806915 0.00
vt 0.017351 0.806976 0.00
vt 0.007875 0.805456 0.00
vt 0.714804 0.806654 0.00
vt 0.674719 0.740755 0.00
vt 0.683353 0.735546 0.00
vt 0.666688 0.744270 0.00
vt 0.660307 0.747742 0.00
vt 0.654951 0.751471 0.00
vt 0.065979 0.765008 0.00
vt 0.069769 0.768765 0.00
vt 0.061349 0.761146 0.00
vt 0.055473 0.756849 0.00
vt 0.049240 0.751226 0.00
vt 0.042864 0.744684 0.00
vt 0.692145 0.728588 0.00
vt 0.621289 0.708245 0.00
vt 0.622046 0.698690 0.00
vt 0.620641 0.716895 0.00
vt 0.619924 0.724206 0.00
vt 0.619453 0.730618 0.00
vt 0.102460 0.752855 0.00
vt 0.101906 0.758311 0.00
vt 0.103113 0.747109 0.00
vt 0.103948 0.740677 0.00
vt 0.104694 0.733350 0.00
vt 0.105244 0.725047 0.00
vt 0.622628 0.688327 0.00
vt 0.572487 0.724898 0.00
vt 0.568092 0.719159 0.00
vt 0.574862 0.730469 0.00
vt 0.574791 0.736523 0.00
vt 0.573089 0.743721 0.00
vt 0.134414 0.771453 0.00
vt 0.134557 0.777142 0.00
vt 0.135499 0.767378 0.00
vt 0.137653 0.763767 0.00
vt 0.141611 0.760328 0.00
vt 0.148589 0.757004 0.00
vt 0.560224 0.713653 0.00
vt 0.642573 0.041304 0.00
vt 0.622414 0.029265 0.00
vt 0.658709 0.048813 0.00
vt 0.674447 0.054683 0.00
vt 0.691588 0.059825 0.00
vt 0.714803 0.064941 0.00
vt 0.085390 0.058169 0.00
vt 0.061645 0.058311 0.00
vt 0.103314 0.056213 0.00
vt 0.120048 0.053011 0.00
vt 0.137592 0.048390 0.00
vt 0.160305 0.040499 0.00
vt 0.643674 0.039065 0.00
vt 0.624886 0.026837 0.00
vt 0.659532 0.046655 0.00
vt 0.675101 0.052454 0.00
vt 0.692129 0.057244 0.00
vt 0.714514 0.061160 0.00
vt 0.085170 0.055656 0.00
vt 0.062510 0.054917 0.00
vt 0.102894 0.053912 0.00
vt 0.119438 0.050737 0.00
vt 0.136693 0.045873 0.00
vt 0.158054 0.037396 0.00
vt 0.648475 0.031189 0.00
vt 0.634411 0.019642 0.00
vt 0.662899 0.038959 0.00
vt 0.677577 0.044378 0.00
vt 0.693748 0.047938 0.00
vt 0.712342 0.048947 0.00
vt 0.085196 0.046319 0.00
vt 0.066974 0.043703 0.00
vt 0.101762 0.045474 0.00
vt 0.117318 0.042440 0.00
vt 0.133168 0.036984 0.00
vt 0.149730 0.028028 0.00
vt 0.660187 0.016696 0.00
vt 0.651145 0.006073 0.00
vt 0.670300 0.024075 0.00
vt 0.681647 0.028177 0.00
vt 0.694505 0.029063 0.00
vt 0.708928 0.026768 0.00
vt 0.087712 0.027629 0.00
vt 0.074325 0.023202 0.00
vt 0.100344 0.028698 0.00
vt 0.112311 0.026284 0.00
vt 0.123880 0.020291 0.00
vt 0.135111 0.010725 0.00
vt 0.630816 0.083032 0.00
vt 0.615874 0.081764 0.00
vt 0.644976 0.086049 0.00
vt 0.658669 0.090736 0.00
vt 0.671973 0.097135 0.00
vt 0.685140 0.105797 0.00
vt 0.096961 0.100518 0.00
vt 0.083323 0.107245 0.00
vt 0.110841 0.095900 0.00
vt 0.125364 0.092942 0.00
vt 0.140579 0.091402 0.00
vt 0.156839 0.091497 0.00
vt 0.872242 0.023158 0.00
vt 0.892123 0.031694 0.00
vt 0.890329 0.037599 0.00
vt 0.869492 0.031409 0.00
vt 0.908817 0.034650 0.00
vt 0.908355 0.040354 0.00
vt 0.925763 0.033574 0.00
vt 0.926677 0.039360 0.00
vt 0.942608 0.028030 0.00
vt 0.945037 0.034321 0.00
vt 0.962301 0.015471 0.00
vt 0.967192 0.024161 0.00
vt 0.735435 0.023138 0.00
vt 0.755313 0.031686 0.00
vt 0.753516 0.037591 0.00
vt 0.732680 0.031389 0.00
vt 0.772008 0.034652 0.00
vt 0.771543 0.040356 0.00
vt 0.788957 0.033585 0.00
vt 0.789868 0.039373 0.00
vt 0.805809 0.028050 0.00
vt 0.808234 0.034344 0.00
vt 0.825513 0.015501 0.00
vt 0.830400 0.024196 0.00
vt 0.889770 0.062853 0.00
vt 0.871274 0.059831 0.00
vt 0.909286 0.064955 0.00
vt 0.929398 0.064631 0.00
vt 0.949709 0.062699 0.00
vt 0.969606 0.059577 0.00
vt 0.752942 0.062847 0.00
vt 0.734447 0.059815 0.00
vt 0.772460 0.064961 0.00
vt 0.792574 0.064649 0.00
vt 0.812888 0.062730 0.00
vt 0.832791 0.059621 0.00
vt 0.855356 0.118877 0.00
vt 0.882883 0.119599 0.00
vt 0.882839 0.124562 0.00
vt 0.855299 0.125133 0.00
vt 0.908175 0.120136 0.00
vt 0.908100 0.124784 0.00
vt 0.934116 0.120249 0.00
vt 0.934029 0.124996 0.00
vt 0.960461 0.120173 0.00
vt 0.960273 0.125288 0.00
vt 0.990747 0.120124 0.00
vt 0.990812 0.126679 0.00
vt 0.718495 0.118850 0.00
vt 0.746021 0.119589 0.00
vt 0.745974 0.124552 0.00
vt 0.718435 0.125105 0.00
vt 0.771312 0.120143 0.00
vt 0.771234 0.124791 0.00
vt 0.797253 0.120273 0.00
vt 0.797162 0.125021 0.00
vt 0.823598 0.120216 0.00
vt 0.823406 0.125332 0.00
vt 0.853885 0.120191 0.00
vt 0.853944 0.126746 0.00
vt 0.903532 0.187868 0.00
vt 0.892631 0.189599 0.00
vt 0.914595 0.187328 0.00
vt 0.925170 0.189184 0.00
vt 0.935181 0.192911 0.00
vt 0.945125 0.196993 0.00
vt 0.766623 0.187869 0.00
vt 0.755723 0.189592 0.00
vt 0.777686 0.187336 0.00
vt 0.788258 0.189199 0.00
vt 0.798266 0.192933 0.00
vt 0.808205 0.197023 0.00
vt 0.896766 0.266950 0.00
vt 0.894121 0.297786 0.00
vt 0.883479 0.299656 0.00
vt 0.886366 0.266177 0.00
vt 0.905506 0.267752 0.00
vt 0.901086 0.297570 0.00
vt 0.912368 0.268849 0.00
vt 0.906112 0.298529 0.00
vt 0.921171 0.270779 0.00
vt 0.912854 0.301518 0.00
vt 0.931859 0.273382 0.00
vt 0.922787 0.308195 0.00
vt 0.759804 0.266932 0.00
vt 0.757137 0.297760 0.00
vt 0.746494 0.299622 0.00
vt 0.749406 0.266152 0.00
vt 0.768542 0.267740 0.00
vt 0.764101 0.297550 0.00
vt 0.775402 0.268843 0.00
vt 0.769125 0.298513 0.00
vt 0.784202 0.270778 0.00
vt 0.775865 0.301506 0.00
vt 0.794887 0.273388 0.00
vt 0.785793 0.308189 0.00
vt 0.894726 0.301630 0.00
vt 0.884494 0.304509 0.00
vt 0.900905 0.300937 0.00
vt 0.905055 0.301873 0.00
vt 0.910601 0.305130 0.00
vt 0.919460 0.312701 0.00
vt 0.757738 0.301605 0.00
vt 0.747504 0.304474 0.00
vt 0.763917 0.300917 0.00
vt 0.768067 0.301856 0.00
vt 0.773610 0.305117 0.00
vt 0.782464 0.312692 0.00
vt 0.895469 0.307495 0.00
vt 0.896233 0.312432 0.00
vt 0.891527 0.316434 0.00
vt 0.887713 0.311848 0.00
vt 0.900375 0.305997 0.00
vt 0.899662 0.310827 0.00
vt 0.903733 0.306794 0.00
vt 0.902215 0.311428 0.00
vt 0.907437 0.310376 0.00
vt 0.904499 0.314492 0.00
vt 0.912562 0.318127 0.00
vt 0.906728 0.320320 0.00
vt 0.758476 0.307470 0.00
vt 0.759235 0.312409 0.00
vt 0.754523 0.316406 0.00
vt 0.750715 0.311816 0.00
vt 0.763384 0.305976 0.00
vt 0.762667 0.310806 0.00
vt 0.766742 0.306777 0.00
vt 0.765220 0.311410 0.00
vt 0.770443 0.310361 0.00
vt 0.767502 0.314475 0.00
vt 0.775564 0.318115 0.00
vt 0.769728 0.320306 0.00
vt 0.897254 0.317160 0.00
vt 0.898513 0.320952 0.00
vt 0.895403 0.319348 0.00
vt 0.898923 0.316152 0.00
vt 0.900313 0.316460 0.00
vt 0.901383 0.318150 0.00
vt 0.901967 0.320952 0.00
vt 0.760253 0.317140 0.00
vt 0.761508 0.320939 0.00
vt 0.758397 0.319327 0.00
vt 0.761922 0.316132 0.00
vt 0.763313 0.316442 0.00
vt 0.764383 0.318133 0.00
vt 0.764966 0.320939 0.00
vt 0.883617 0.066582 0.00
vt 0.875642 0.065391 0.00
vt 0.879360 0.116186 0.00
vt 0.861608 0.115633 0.00
vt 0.903500 0.068634 0.00
vt 0.895415 0.068021 0.00
vt 0.904292 0.116954 0.00
vt 0.887891 0.116602 0.00
vt 0.923788 0.068826 0.00
vt 0.915498 0.069201 0.00
vt 0.929634 0.117050 0.00
vt 0.912917 0.117016 0.00
vt 0.944433 0.067643 0.00
vt 0.936142 0.068631 0.00
vt 0.955469 0.116861 0.00
vt 0.938469 0.116951 0.00
vt 0.965204 0.065199 0.00
vt 0.957065 0.066759 0.00
vt 0.983118 0.116091 0.00
vt 0.964662 0.116294 0.00
vt 0.746786 0.066572 0.00
vt 0.738811 0.065377 0.00
vt 0.742500 0.116174 0.00
vt 0.724749 0.115609 0.00
vt 0.766671 0.068636 0.00
vt 0.758585 0.068018 0.00
vt 0.767432 0.116958 0.00
vt 0.751030 0.116595 0.00
vt 0.786960 0.068841 0.00
vt 0.778669 0.069211 0.00
vt 0.792774 0.117071 0.00
vt 0.776056 0.117026 0.00
vt 0.807609 0.067671 0.00
vt 0.799316 0.068653 0.00
vt 0.818608 0.116901 0.00
vt 0.801609 0.116978 0.00
vt 0.828384 0.065241 0.00
vt 0.820242 0.066795 0.00
vt 0.846259 0.116152 0.00
vt 0.827802 0.116341 0.00
vt 0.561166 0.732398 0.00
vt 0.144867 0.770756 0.00
vt 0.914708 0.000000 0.00
vt 0.777920 0.000000 0.00

# 570 Faces
f  1/1/1  2/2/2  3/3/3  4/4/4 
f  2/2/2  5/5/5  6/6/6  3/3/3 
f  5/5/5  7/7/7  8/8/8  6/6/6 
f  7/7/7  9/9/9  10/10/10  8/8/8 
f  9/9/9  11/11/11  12/12/12  10/10/10 
f  11/13/11  13/14/13  14/15/14  12/16/12 
f  13/14/13  15/17/15  16/18/16  14/15/14 
f  15/17/15  17/19/17  18/20/18  16/18/16 
f  17/19/17  19/21/19  20/22/20  18/20/18 
f  19/21/19  1/23/1  4/24/4  20/22/20 
f  2/2/2  1/1/1  21/25/21 
f  5/5/5  2/2/2  21/25/21 
f  7/7/7  5/5/5  21/25/21 
f  9/9/9  7/7/7  21/25/21 
f  11/11/11  9/9/9  21/25/21 
f  13/14/13  11/13/11  21/26/21 
f  15/17/15  13/14/13  21/26/21 
f  17/19/17  15/17/15  21/26/21 
f  19/21/19  17/19/17  21/26/21 
f  1/23/1  19/21/19  21/26/21 
f  22/27/22  23/28/23  24/29/24  25/30/25 
f  26/31/26  27/32/27  23/28/23  22/27/22 
f  28/33/28  29/34/29  27/32/27  26/31/26 
f  30/35/30  31/36/31  29/34/29  28/33/28 
f  32/37/32  33/38/33  31/36/31  30/35/30 
f  34/39/34  35/40/35  33/41/33  32/42/32 
f  36/43/36  37/44/37  35/40/35  34/39/34 
f  38/45/38  39/46/39  37/44/37  36/43/36 
f  40/47/40  41/48/41  39/46/39  38/45/38 
f  25/49/25  24/50/24  41/48/41  40/47/40 
f  42/51/42  43/52/43  44/53/44  45/54/45 
f  43/52/43  46/55/46  47/56/47  44/53/44 
f  46/55/46  48/57/48  49/58/49  47/56/47 
f  48/57/48  50/59/50  51/60/51  49/58/49 
f  50/59/50  52/61/52  53/62/53  51/60/51 
f  52/63/52  54/64/54  55/65/55  53/66/53 
f  54/64/54  56/67/56  57/68/57  55/65/55 
f  56/67/56  58/69/58  59/70/59  57/68/57 
f  58/69/58  60/71/60  61/72/61  59/70/59 
f  60/71/60  42/73/42  45/74/45  61/72/61 
f  62/75/62  63/76/63  64/77/64  65/78/65 
f  66/79/66  67/80/67  63/76/63  62/75/62 
f  68/81/68  69/82/69  67/80/67  66/79/66 
f  70/83/70  71/84/71  69/82/69  68/81/68 
f  72/85/72  73/86/73  71/84/71  70/83/70 
f  74/87/74  75/88/75  73/89/73  72/90/72 
f  76/91/76  77/92/77  75/88/75  74/87/74 
f  78/93/78  79/94/79  77/92/77  76/91/76 
f  80/95/80  81/96/81  79/94/79  78/93/78 
f  65/97/65  64/98/64  81/96/81  80/95/80 
f  82/99/82  83/100/83  84/101/84  85/102/85 
f  86/103/86  87/104/87  83/100/83  82/99/82 
f  88/105/88  89/106/89  87/104/87  86/103/86 
f  90/107/90  91/108/91  89/106/89  88/105/88 
f  92/109/92  93/110/93  91/108/91  90/107/90 
f  94/111/94  95/112/95  93/113/93  92/114/92 
f  96/115/96  97/116/97  95/112/95  94/111/94 
f  98/117/98  99/118/99  97/116/97  96/115/96 
f  100/119/100  101/120/101  99/118/99  98/117/98 
f  85/121/85  84/122/84  101/120/101  100/119/100 
f  102/123/102  103/124/103  104/125/3  105/126/4 
f  103/124/103  106/127/104  107/128/6  104/125/3 
f  106/127/104  108/129/105  109/130/8  107/128/6 
f  108/129/105  110/131/106  111/132/10  109/130/8 
f  110/131/106  112/133/107  113/134/108  111/132/10 
f  112/135/107  114/136/109  115/137/14  113/138/108 
f  114/136/109  116/139/110  117/140/16  115/137/14 
f  116/139/110  118/141/111  119/142/18  117/140/16 
f  118/141/111  120/143/112  121/144/20  119/142/18 
f  120/143/112  102/145/102  105/146/4  121/144/20 
f  122/147/113  123/148/114  124/149/115  125/150/116 
f  123/148/114  126/151/117  127/152/118  124/149/115 
f  126/151/117  128/153/119  129/154/120  127/152/118 
f  128/153/119  130/155/121  131/156/122  129/154/120 
f  130/155/121  132/157/123  133/158/124  131/156/122 
f  132/159/123  134/160/125  135/161/126  133/162/124 
f  134/160/125  136/163/127  137/164/128  135/161/126 
f  136/163/127  138/165/129  139/166/130  137/164/128 
f  138/165/129  140/167/131  141/168/132  139/166/130 
f  140/167/131  122/169/113  125/170/116  141/168/132 
f  125/150/116  124/149/115  142/171/133  143/172/134 
f  124/149/115  127/152/118  144/173/135  142/171/133 
f  127/152/118  129/154/120  145/174/136  144/173/135 
f  129/154/120  131/156/122  146/175/137  145/174/136 
f  131/156/122  133/158/124  147/176/138  146/175/137 
f  133/162/124  135/161/126  148/177/139  147/178/138 
f  135/161/126  137/164/128  149/179/140  148/177/139 
f  137/164/128  139/166/130  150/180/141  149/179/140 
f  139/166/130  141/168/132  151/181/142  150/180/141 
f  141/168/132  125/170/116  143/182/134  151/181/142 
f  152/183/143  153/184/144  154/185/145  155/186/146 
f  153/184/144  156/187/147  157/188/148  154/185/145 
f  156/187/147  158/189/149  159/190/150  157/188/148 
f  158/189/149  160/191/151  161/192/152  159/190/150 
f  160/191/151  162/193/153  163/194/154  161/192/152 
f  162/195/153  164/196/155  165/197/156  163/198/154 
f  164/196/155  166/199/157  167/200/158  165/197/156 
f  166/199/157  168/201/159  169/202/160  167/200/158 
f  168/201/159  170/203/161  171/204/162  169/202/160 
f  170/203/161  152/205/143  155/206/146  171/204/162 
f  155/186/146  154/185/145  172/207/163  173/208/164 
f  154/185/145  157/188/148  174/209/165  172/207/163 
f  157/188/148  159/190/150  175/210/166  174/209/165 
f  159/190/150  161/192/152  176/211/167  175/210/166 
f  161/192/152  163/194/154  177/212/168  176/211/167 
f  163/198/154  165/197/156  178/213/169  177/214/168 
f  165/197/156  167/200/158  179/215/170  178/213/169 
f  167/200/158  169/202/160  180/216/171  179/215/170 
f  169/202/160  171/204/162  181/217/172  180/216/171 
f  171/204/162  155/206/146  173/218/164  181/217/172 
f  173/208/164  172/207/163  182/219/173  183/220/174 
f  172/207/163  174/209/165  184/221/175  182/219/173 
f  174/209/165  175/210/166  185/222/176  184/221/175 
f  175/210/166  176/211/167  186/223/177  185/222/176 
f  176/211/167  177/212/168  187/224/178  186/223/177 
f  177/214/168  178/213/169  188/225/179  187/226/178 
f  178/213/169  179/215/170  189/227/180  188/225/179 
f  179/215/170  180/216/171  190/228/181  189/227/180 
f  180/216/171  181/217/172  191/229/182  190/228/181 
f  181/217/172  173/218/164  183/230/174  191/229/182 
f  183/220/174  182/219/173  192/231/183  193/232/184 
f  182/219/173  184/221/175  194/233/185  192/231/183 
f  184/221/175  185/222/176  195/234/186  194/233/185 
f  185/222/176  186/223/177  196/235/187  195/234/186 
f  186/223/177  187/224/178  197/236/188  196/235/187 
f  187/226/178  188/225/179  198/237/189  197/238/188 
f  188/225/179  189/227/180  199/239/190  198/237/189 
f  189/227/180  190/228/181  200/240/191  199/239/190 
f  190/228/181  191/229/182  201/241/192  200/240/191 
f  191/229/182  183/230/174  193/242/184  201/241/192 
f  193/232/184  192/231/183  202/243/193  203/244/194 
f  192/231/183  194/233/185  204/245/195  202/243/193 
f  194/233/185  195/234/186  205/246/196  204/245/195 
f  195/234/186  196/235/187  206/247/197  205/246/196 
f  196/235/187  197/236/188  207/248/198  206/247/197 
f  197/238/188  198/237/189  208/249/199  207/250/198 
f  198/237/189  199/239/190  209/251/200  208/249/199 
f  199/239/190  200/240/191  210/252/201  209/251/200 
f  200/240/191  201/241/192  211/253/202  210/252/201 
f  201/241/192  193/242/184  203/254/194  211/253/202 
f  212/255/203  213/256/204  214/257/205  215/258/206 
f  216/259/207  217/260/208  213/256/204  212/255/203 
f  218/261/209  219/262/210  217/260/208  216/259/207 
f  220/263/211  221/264/212  219/262/210  218/261/209 
f  222/265/213  223/266/214  221/264/212  220/263/211 
f  224/267/215  225/268/216  223/269/214  222/270/213 
f  226/271/217  227/272/218  225/268/216  224/267/215 
f  228/273/219  229/274/220  227/272/218  226/271/217 
f  230/275/221  231/276/222  229/274/220  228/273/219 
f  215/277/206  214/278/205  231/276/222  230/275/221 
f  232/279/223  233/280/224  234/281/225  235/282/226 
f  213/256/204  232/279/223  235/282/226  214/257/205 
f  215/258/206  203/244/194  202/243/193  212/255/203 
f  236/283/227  237/284/228  233/280/224  232/279/223 
f  217/260/208  236/283/227  232/279/223  213/256/204 
f  212/255/203  202/243/193  204/245/195  216/259/207 
f  238/285/229  239/286/230  237/284/228  236/283/227 
f  219/262/210  238/285/229  236/283/227  217/260/208 
f  216/259/207  204/245/195  205/246/196  218/261/209 
f  240/287/231  241/288/232  239/286/230  238/285/229 
f  221/264/212  240/287/231  238/285/229  219/262/210 
f  218/261/209  205/246/196  206/247/197  220/263/211 
f  242/289/233  243/290/234  241/288/232  240/287/231 
f  223/266/214  242/289/233  240/287/231  221/264/212 
f  220/263/211  206/247/197  207/248/198  222/265/213 
f  244/291/235  245/292/236  243/293/234  242/294/233 
f  225/268/216  244/291/235  242/294/233  223/269/214 
f  222/270/213  207/250/198  208/249/199  224/267/215 
f  246/295/237  247/296/238  245/292/236  244/291/235 
f  227/272/218  246/295/237  244/291/235  225/268/216 
f  224/267/215  208/249/199  209/251/200  226/271/217 
f  248/297/239  249/298/240  247/296/238  246/295/237 
f  229/274/220  248/297/239  246/295/237  227/272/218 
f  226/271/217  209/251/200  210/252/201  228/273/219 
f  250/299/241  251/300/242  249/298/240  248/297/239 
f  231/276/222  250/299/241  248/297/239  229/274/220 
f  228/273/219  210/252/201  211/253/202  230/275/221 
f  235/301/226  234/302/225  251/300/242  250/299/241 
f  214/278/205  235/301/226  250/299/241  231/276/222 
f  230/275/221  211/253/202  203/254/194  215/277/206 
f  233/280/224  237/284/228  252/303/243  253/304/244 
f  237/284/228  239/286/230  254/305/245  252/303/243 
f  239/286/230  241/288/232  255/306/246  254/305/245 
f  241/288/232  243/290/234  256/307/247  255/306/246 
f  243/293/234  245/292/236  257/308/248  256/309/247 
f  245/292/236  247/296/238  258/310/249  257/308/248 
f  247/296/238  249/298/240  259/311/250  258/310/249 
f  249/298/240  251/300/242  260/312/251  259/311/250 
f  251/300/242  234/302/225  261/313/252  260/312/251 
f  234/281/225  233/280/224  253/304/244  261/314/252 
f  253/304/244  252/303/243  262/315/253  263/316/254 
f  252/303/243  254/305/245  264/317/255  262/315/253 
f  254/305/245  255/306/246  265/318/256  264/317/255 
f  255/306/246  256/307/247  266/319/257  265/318/256 
f  256/309/247  257/308/248  267/320/258  266/321/257 
f  257/308/248  258/310/249  268/322/259  267/320/258 
f  258/310/249  259/311/250  269/323/260  268/322/259 
f  259/311/250  260/312/251  270/324/261  269/323/260 
f  260/312/251  261/313/252  271/325/262  270/324/261 
f  261/314/252  253/304/244  263/316/254  271/326/262 
f  263/316/254  262/315/253  272/327/263  273/328/264 
f  262/315/253  264/317/255  274/329/265  272/327/263 
f  264/317/255  265/318/256  275/330/266  274/329/265 
f  265/318/256  266/319/257  276/331/267  275/330/266 
f  266/321/257  267/320/258  277/332/268  276/333/267 
f  267/320/258  268/322/259  278/334/269  277/332/268 
f  268/322/259  269/323/260  279/335/270  278/334/269 
f  269/323/260  270/324/261  280/336/271  279/335/270 
f  270/324/261  271/325/262  281/337/272  280/336/271 
f  271/326/262  263/316/254  273/328/264  281/338/272 
f  273/328/264  272/327/263  282/339/273  283/340/274 
f  272/327/263  274/329/265  284/341/275  282/339/273 
f  274/329/265  275/330/266  285/342/276  284/341/275 
f  275/330/266  276/331/267  286/343/277  285/342/276 
f  276/333/267  277/332/268  287/344/278  286/345/277 
f  277/332/268  278/334/269  288/346/279  287/344/278 
f  278/334/269  279/335/270  289/347/280  288/346/279 
f  279/335/270  280/336/271  290/348/281  289/347/280 
f  280/336/271  281/337/272  291/349/282  290/348/281 
f  281/338/272  273/328/264  283/340/274  291/350/282 
f  292/351/283  293/352/284  294/353/285  295/354/286 
f  293/352/284  296/355/287  297/356/288  294/353/285 
f  296/355/287  298/357/289  299/358/290  297/356/288 
f  298/357/289  300/359/291  301/360/292  299/358/290 
f  300/361/291  302/362/293  303/363/294  301/364/292 
f  302/362/293  304/365/295  305/366/296  303/363/294 
f  304/365/295  306/367/297  307/368/298  305/366/296 
f  306/367/297  308/369/299  309/370/300  307/368/298 
f  308/369/299  310/371/301  311/372/302  309/370/300 
f  310/373/301  292/351/283  295/354/286  311/374/302 
f  295/354/286  294/353/285  312/375/303  313/376/304 
f  294/353/285  297/356/288  314/377/305  312/375/303 
f  297/356/288  299/358/290  315/378/306  314/377/305 
f  299/358/290  301/360/292  316/379/307  315/378/306 
f  301/364/292  303/363/294  317/380/308  316/381/307 
f  303/363/294  305/366/296  318/382/309  317/380/308 
f  305/366/296  307/368/298  319/383/310  318/382/309 
f  307/368/298  309/370/300  320/384/311  319/383/310 
f  309/370/300  311/372/302  321/385/312  320/384/311 
f  311/374/302  295/354/286  313/376/304  321/386/312 
f  313/376/304  312/375/303  322/387/313  323/388/314 
f  312/375/303  314/377/305  324/389/315  322/387/313 
f  314/377/305  315/378/306  325/390/316  324/389/315 
f  315/378/306  316/379/307  326/391/317  325/390/316 
f  316/381/307  317/380/308  327/392/318  326/393/317 
f  317/380/308  318/382/309  328/394/319  327/392/318 
f  318/382/309  319/383/310  329/395/320  328/394/319 
f  319/383/310  320/384/311  330/396/321  329/395/320 
f  320/384/311  321/385/312  331/397/322  330/396/321 
f  321/386/312  313/376/304  323/388/314  331/398/322 
f  323/388/314  322/387/313  332/399/323  333/400/324 
f  322/387/313  324/389/315  334/401/325  332/399/323 
f  324/389/315  325/390/316  335/402/326  334/401/325 
f  325/390/316  326/391/317  336/403/327  335/402/326 
f  326/393/317  327/392/318  337/404/328  336/405/327 
f  327/392/318  328/394/319  338/406/329  337/404/328 
f  328/394/319  329/395/320  339/407/330  338/406/329 
f  329/395/320  330/396/321  340/408/331  339/407/330 
f  330/396/321  331/397/322  341/409/332  340/408/331 
f  331/398/322  323/388/314  333/400/324  341/410/332 
f  333/400/324  332/399/323  342/411/333  343/412/334 
f  332/399/323  334/401/325  344/413/335  342/411/333 
f  334/401/325  335/402/326  345/414/336  344/413/335 
f  335/402/326  336/403/327  346/415/337  345/414/336 
f  336/405/327  337/404/328  347/416/338  346/417/337 
f  337/404/328  338/406/329  348/418/339  347/416/338 
f  338/406/329  339/407/330  349/419/340  348/418/339 
f  339/407/330  340/408/331  350/420/341  349/419/340 
f  340/408/331  341/409/332  351/421/342  350/420/341 
f  341/410/332  333/400/324  343/412/334  351/422/342 
f  44/53/44  82/99/82  85/102/85  45/54/45 
f  47/56/47  86/103/86  82/99/82  44/53/44 
f  49/58/49  88/105/88  86/103/86  47/56/47 
f  51/60/51  90/107/90  88/105/88  49/58/49 
f  53/62/53  92/109/92  90/107/90  51/60/51 
f  55/65/55  94/111/94  92/114/92  53/66/53 
f  57/68/57  96/115/96  94/111/94  55/65/55 
f  59/70/59  98/117/98  96/115/96  57/68/57 
f  61/72/61  100/119/100  98/117/98  59/70/59 
f  45/74/45  85/121/85  100/119/100  61/72/61 
f  352/423/343  43/52/43  42/51/42  353/424/344 
f  354/425/345  46/55/46  43/52/43  352/423/343 
f  355/426/346  48/57/48  46/55/46  354/425/345 
f  356/427/347  50/59/50  48/57/48  355/426/346 
f  357/428/348  52/61/52  50/59/50  356/427/347 
f  358/429/349  54/64/54  52/63/52  357/430/348 
f  359/431/350  56/67/56  54/64/54  358/429/349 
f  360/432/351  58/69/58  56/67/56  359/431/350 
f  361/433/352  60/71/60  58/69/58  360/432/351 
f  353/434/344  42/73/42  60/71/60  361/433/352 
f  63/76/63  362/435/353  363/436/354  64/77/64 
f  67/80/67  364/437/355  362/435/353  63/76/63 
f  69/82/69  365/438/356  364/437/355  67/80/67 
f  71/84/71  366/439/357  365/438/356  69/82/69 
f  73/86/73  367/440/358  366/439/357  71/84/71 
f  75/88/75  368/441/359  367/442/358  73/89/73 
f  77/92/77  369/443/360  368/441/359  75/88/75 
f  79/94/79  370/444/361  369/443/360  77/92/77 
f  81/96/81  371/445/362  370/444/361  79/94/79 
f  64/98/64  363/446/354  371/445/362  81/96/81 
f  372/447/363  62/75/62  65/78/65  373/448/364 
f  374/449/365  66/79/66  62/75/62  372/447/363 
f  375/450/366  68/81/68  66/79/66  374/449/365 
f  376/451/367  70/83/70  68/81/68  375/450/366 
f  377/452/368  72/85/72  70/83/70  376/451/367 
f  378/453/369  74/87/74  72/90/72  377/454/368 
f  379/455/370  76/91/76  74/87/74  378/453/369 
f  380/456/371  78/93/78  76/91/76  379/455/370 
f  381/457/372  80/95/80  78/93/78  380/456/371 
f  373/458/364  65/97/65  80/95/80  381/457/372 
f  382/459/3  22/27/22  25/30/25  383/460/4 
f  384/461/6  26/31/26  22/27/22  382/459/3 
f  385/462/8  28/33/28  26/31/26  384/461/6 
f  386/463/10  30/35/30  28/33/28  385/462/8 
f  387/464/373  32/37/32  30/35/30  386/463/10 
f  388/465/374  34/39/34  32/42/32  387/466/373 
f  389/467/16  36/43/36  34/39/34  388/465/374 
f  390/468/18  38/45/38  36/43/36  389/467/16 
f  391/469/20  40/47/40  38/45/38  390/468/18 
f  383/470/4  25/49/25  40/47/40  391/469/20 
f  3/3/3  382/459/3  383/460/4  4/4/4 
f  6/6/6  384/461/6  382/459/3  3/3/3 
f  8/8/8  385/462/8  384/461/6  6/6/6 
f  10/10/10  386/463/10  385/462/8  8/8/8 
f  12/12/12  387/464/373  386/463/10  10/10/10 
f  14/15/14  388/465/374  387/466/373  12/16/12 
f  16/18/16  389/467/16  388/465/374  14/15/14 
f  18/20/18  390/468/18  389/467/16  16/18/16 
f  20/22/20  391/469/20  390/468/18  18/20/18 
f  4/24/4  383/470/4  391/469/20  20/22/20 
f  23/28/23  372/447/363  373/448/364  24/29/24 
f  27/32/27  374/449/365  372/447/363  23/28/23 
f  29/34/29  375/450/366  374/449/365  27/32/27 
f  31/36/31  376/451/367  375/450/366  29/34/29 
f  33/38/33  377/452/368  376/451/367  31/36/31 
f  35/40/35  378/453/369  377/454/368  33/41/33 
f  37/44/37  379/455/370  378/453/369  35/40/35 
f  39/46/39  380/456/371  379/455/370  37/44/37 
f  41/48/41  381/457/372  380/456/371  39/46/39 
f  24/50/24  373/458/364  381/457/372  41/48/41 
f  362/435/353  352/423/343  353/424/344  363/436/354 
f  364/437/355  354/425/345  352/423/343  362/435/353 
f  365/438/356  355/426/346  354/425/345  364/437/355 
f  366/439/357  356/427/347  355/426/346  365/438/356 
f  367/440/358  357/428/348  356/427/347  366/439/357 
f  368/441/359  358/429/349  357/430/348  367/442/358 
f  369/443/360  359/431/350  358/429/349  368/441/359 
f  370/444/361  360/432/351  359/431/350  369/443/360 
f  371/445/362  361/433/352  360/432/351  370/444/361 
f  363/446/354  353/434/344  361/433/352  371/445/362 
f  392/471/3  123/148/114  122/147/113  393/472/4 
f  394/473/6  126/151/117  123/148/114  392/471/3 
f  395/474/8  128/153/119  126/151/117  394/473/6 
f  396/475/10  130/155/121  128/153/119  395/474/8 
f  397/476/108  132/157/123  130/155/121  396/475/10 
f  398/477/374  134/160/125  132/159/123  397/478/108 
f  399/479/16  136/163/127  134/160/125  398/477/374 
f  400/480/18  138/165/129  136/163/127  399/479/16 
f  401/481/20  140/167/131  138/165/129  400/480/18 
f  393/482/4  122/169/113  140/167/131  401/481/20 
f  104/125/3  392/471/3  393/472/4  105/126/4 
f  107/128/6  394/473/6  392/471/3  104/125/3 
f  109/130/8  395/474/8  394/473/6  107/128/6 
f  111/132/10  396/475/10  395/474/8  109/130/8 
f  113/134/108  397/476/108  396/475/10  111/132/10 
f  115/137/14  398/477/374  397/478/108  113/138/108 
f  117/140/16  399/479/16  398/477/374  115/137/14 
f  119/142/18  400/480/18  399/479/16  117/140/16 
f  121/144/20  401/481/20  400/480/18  119/142/18 
f  105/146/4  393/482/4  401/481/20  121/144/20 
f  83/100/83  103/124/103  102/123/102  84/101/84 
f  87/104/87  106/127/104  103/124/103  83/100/83 
f  89/106/89  108/129/105  106/127/104  87/104/87 
f  91/108/91  110/131/106  108/129/105  89/106/89 
f  93/110/93  112/133/107  110/131/106  91/108/91 
f  95/112/95  114/136/109  112/135/107  93/113/93 
f  97/116/97  116/139/110  114/136/109  95/112/95 
f  99/118/99  118/141/111  116/139/110  97/116/97 
f  101/120/101  120/143/112  118/141/111  99/118/99 
f  84/122/84  102/145/102  120/143/112  101/120/101 
f  142/171/133  153/184/144  152/183/143  143/172/134 
f  144/173/135  156/187/147  153/184/144  142/171/133 
f  145/174/136  158/189/149  156/187/147  144/173/135 
f  146/175/137  160/191/151  158/189/149  145/174/136 
f  147/176/138  162/193/153  160/191/151  146/175/137 
f  148/177/139  164/196/155  162/195/153  147/178/138 
f  149/179/140  166/199/157  164/196/155  148/177/139 
f  150/180/141  168/201/159  166/199/157  149/179/140 
f  151/181/142  170/203/161  168/201/159  150/180/141 
f  143/182/134  152/205/143  170/203/161  151/181/142 
f  282/339/273  293/352/284  292/351/283  283/340/274 
f  284/341/275  296/355/287  293/352/284  282/339/273 
f  285/342/276  298/357/289  296/355/287  284/341/275 
f  286/343/277  300/359/291  298/357/289  285/342/276 
f  287/344/278  302/362/293  300/361/291  286/345/277 
f  288/346/279  304/365/295  302/362/293  287/344/278 
f  289/347/280  306/367/297  304/365/295  288/346/279 
f  290/348/281  308/369/299  306/367/297  289/347/280 
f  291/349/282  310/371/301  308/369/299  290/348/281 
f  283/340/274  292/351/283  310/373/301  291/350/282 
f  402/483/375  403/484/376  404/485/377  405/486/378 
f  403/484/376  406/487/379  407/488/380  404/485/377 
f  406/487/379  408/489/381  409/490/382  407/488/380 
f  408/489/381  410/491/383  411/492/384  409/490/382 
f  410/491/383  412/493/385  413/494/386  411/492/384 
f  412/495/385  414/496/387  415/497/388  413/498/386 
f  414/496/387  416/499/389  417/500/390  415/497/388 
f  416/499/389  418/501/391  419/502/392  417/500/390 
f  418/501/391  420/503/393  421/504/394  419/502/392 
f  420/503/393  402/505/375  405/506/378  421/504/394 
f  405/486/378  404/485/377  422/507/395  423/508/396 
f  404/485/377  407/488/380  424/509/397  422/507/395 
f  407/488/380  409/490/382  425/510/398  424/509/397 
f  409/490/382  411/492/384  426/511/399  425/510/398 
f  411/492/384  413/494/386  427/512/400  426/511/399 
f  413/498/386  415/497/388  428/513/401  427/514/400 
f  415/497/388  417/500/390  429/515/402  428/513/401 
f  417/500/390  419/502/392  430/516/403  429/515/402 
f  419/502/392  421/504/394  431/517/404  430/516/403 
f  421/504/394  405/506/378  423/518/396  431/517/404 
f  432/519/405  433/520/406  434/521/407  435/522/408 
f  433/520/406  436/523/409  437/524/410  434/521/407 
f  436/523/409  438/525/411  439/526/412  437/524/410 
f  438/525/411  440/527/413  441/528/414  439/526/412 
f  440/527/413  442/529/415  443/530/416  441/528/414 
f  442/531/415  444/532/417  445/533/418  443/534/416 
f  444/532/417  446/535/419  447/536/420  445/533/418 
f  446/535/419  448/537/421  449/538/422  447/536/420 
f  448/537/421  450/539/423  451/540/424  449/538/422 
f  450/539/423  432/541/405  435/542/408  451/540/424 
f  435/522/408  434/521/407  452/543/425  453/544/426 
f  434/521/407  437/524/410  454/545/427  452/543/425 
f  437/524/410  439/526/412  455/546/428  454/545/427 
f  439/526/412  441/528/414  456/547/429  455/546/428 
f  441/528/414  443/530/416  457/548/430  456/547/429 
f  443/534/416  445/533/418  458/549/431  457/550/430 
f  445/533/418  447/536/420  459/551/432  458/549/431 
f  447/536/420  449/538/422  460/552/433  459/551/432 
f  449/538/422  451/540/424  461/553/434  460/552/433 
f  451/540/424  435/542/408  453/554/426  461/553/434 
f  462/555/435  463/556/435  464/557/436  465/558/436 
f  466/559/437  467/560/437  463/556/435  462/555/435 
f  468/561/438  469/562/438  467/560/437  466/559/437 
f  470/563/439  471/564/439  469/562/438  468/561/438 
f  472/565/108  473/566/108  471/564/439  470/563/439 
f  474/567/440  475/568/440  473/569/108  472/570/108 
f  476/571/441  477/572/441  475/568/440  474/567/440 
f  478/573/442  479/574/442  477/572/441  476/571/441 
f  480/575/443  481/576/443  479/574/442  478/573/442 
f  465/577/436  464/578/436  481/576/443  480/575/443 
f  463/556/435  482/579/444  483/580/445  464/557/436 
f  465/558/436  453/544/426  452/543/425  462/555/435 
f  467/560/437  484/581/446  482/579/444  463/556/435 
f  462/555/435  452/543/425  454/545/427  466/559/437 
f  469/562/438  485/582/447  484/581/446  467/560/437 
f  466/559/437  454/545/427  455/546/428  468/561/438 
f  471/564/439  486/583/448  485/582/447  469/562/438 
f  468/561/438  455/546/428  456/547/429  470/563/439 
f  473/566/108  487/584/449  486/583/448  471/564/439 
f  470/563/439  456/547/429  457/548/430  472/565/108 
f  475/568/440  488/585/450  487/586/449  473/569/108 
f  472/570/108  457/550/430  458/549/431  474/567/440 
f  477/572/441  489/587/451  488/585/450  475/568/440 
f  474/567/440  458/549/431  459/551/432  476/571/441 
f  479/574/442  490/588/452  489/587/451  477/572/441 
f  476/571/441  459/551/432  460/552/433  478/573/442 
f  481/576/443  491/589/453  490/588/452  479/574/442 
f  478/573/442  460/552/433  461/553/434  480/575/443 
f  464/578/436  483/590/445  491/589/453  481/576/443 
f  480/575/443  461/553/434  453/554/426  465/577/436 
f  492/591/454  493/592/455  494/593/456  495/594/457 
f  496/595/458  497/596/459  493/592/455  492/591/454 
f  498/597/460  499/598/461  497/596/459  496/595/458 
f  500/599/462  501/600/463  499/598/461  498/597/460 
f  502/601/464  503/602/465  501/600/463  500/599/462 
f  504/603/466  505/604/467  503/605/465  502/606/464 
f  506/607/468  507/608/469  505/604/467  504/603/466 
f  508/609/470  509/610/471  507/608/469  506/607/468 
f  510/611/472  511/612/473  509/610/471  508/609/470 
f  495/613/457  494/614/456  511/612/473  510/611/472 
f  512/615/474  513/616/475  514/617/476 
f  493/592/455  512/615/474  514/617/476  494/593/456 
f  495/594/457  483/580/445  482/579/444  492/591/454 
f  515/618/477  513/616/475  512/615/474 
f  497/596/459  515/618/477  512/615/474  493/592/455 
f  492/591/454  482/579/444  484/581/446  496/595/458 
f  516/619/478  513/616/475  515/618/477 
f  499/598/461  516/619/478  515/618/477  497/596/459 
f  496/595/458  484/581/446  485/582/447  498/597/460 
f  517/620/479  513/616/475  516/619/478 
f  501/600/463  517/620/479  516/619/478  499/598/461 
f  498/597/460  485/582/447  486/583/448  500/599/462 
f  518/621/480  513/616/475  517/620/479 
f  503/602/465  518/621/480  517/620/479  501/600/463 
f  500/599/462  486/583/448  487/584/449  502/601/464 
f  519/622/481  513/623/475  518/624/480 
f  505/604/467  519/622/481  518/624/480  503/605/465 
f  502/606/464  487/586/449  488/585/450  504/603/466 
f  520/625/482  513/623/475  519/622/481 
f  507/608/469  520/625/482  519/622/481  505/604/467 
f  504/603/466  488/585/450  489/587/451  506/607/468 
f  521/626/483  513/623/475  520/625/482 
f  509/610/471  521/626/483  520/625/482  507/608/469 
f  506/607/468  489/587/451  490/588/452  508/609/470 
f  522/627/484  513/623/475  521/626/483 
f  511/612/473  522/627/484  521/626/483  509/610/471 
f  508/609/470  490/588/452  491/589/453  510/611/472 
f  514/628/476  513/623/475  522/627/484 
f  494/614/456  514/628/476  522/627/484  511/612/473 
f  510/611/472  491/589/453  483/590/445  495/613/457 
f  423/508/396  422/507/395  523/629/485  524/630/485 
f  422/507/395  433/520/406  525/631/485  523/629/485 
f  433/520/406  432/519/405  526/632/485  525/631/485 
f  432/519/405  423/508/396  524/630/485  526/632/485 
f  422/507/395  424/509/397  527/633/486  528/634/486 
f  424/509/397  436/523/409  529/635/486  527/633/486 
f  436/523/409  433/520/406  530/636/486  529/635/486 
f  433/520/406  422/507/395  528/634/486  530/636/486 
f  424/509/397  425/510/398  531/637/487  532/638/487 
f  425/510/398  438/525/411  533/639/487  531/637/487 
f  438/525/411  436/523/409  534/640/487  533/639/487 
f  436/523/409  424/509/397  532/638/487  534/640/487 
f  425/510/398  426/511/399  535/641/488  536/642/488 
f  426/511/399  440/527/413  537/643/488  535/641/488 
f  440/527/413  438/525/411  538/644/488  537/643/488 
f  438/525/411  425/510/398  536/642/488  538/644/488 
f  426/511/399  427/512/400  539/645/489  540/646/489 
f  427/512/400  442/529/415  541/647/489  539/645/489 
f  442/529/415  440/527/413  542/648/489  541/647/489 
f  440/527/413  426/511/399  540/646/489  542/648/489 
f  427/514/400  428/513/401  543/649/490  544/650/490 
f  428/513/401  444/532/417  545/651/490  543/649/490 
f  444/532/417  442/531/415  546/652/490  545/651/490 
f  442/531/415  427/514/400  544/650/490  546/652/490 
f  428/513/401  429/515/402  547/653/491  548/654/491 
f  429/515/402  446/535/419  549/655/491  547/653/491 
f  446/535/419  444/532/417  550/656/491  549/655/491 
f  444/532/417  428/513/401  548/654/491  550/656/491 
f  429/515/402  430/516/403  551/657/492  552/658/493 
f  430/516/403  448/537/421  553/659/493  551/657/492 
f  448/537/421  446/535/419  554/660/492  553/659/493 
f  446/535/419  429/515/402  552/658/493  554/660/492 
f  430/516/403  431/517/404  555/661/494  556/662/494 
f  431/517/404  450/539/423  557/663/494  555/661/494 
f  450/539/423  448/537/421  558/664/494  557/663/494 
f  448/537/421  430/516/403  556/662/494  558/664/494 
f  431/517/404  423/518/396  559/665/495  560/666/495 
f  423/518/396  432/541/405  561/667/495  559/665/495 
f  432/541/405  450/539/423  562/668/495  561/667/495 
f  450/539/423  431/517/404  560/666/495  562/668/495 
f  343/412/334  342/411/333  563/669/496 
f  342/411/333  344/413/335  563/669/496 
f  344/413/335  345/414/336  563/669/496 
f  345/414/336  346/415/337  563/669/496 
f  346/417/337  347/416/338  563/670/496 
f  347/416/338  348/418/339  563/670/496 
f  348/418/339  349/419/340  563/670/496 
f  349/419/340  350/420/341  563/670/496 
f  350/420/341  351/421/342  563/670/496 
f  351/422/342  343/412/334  563/669/496 
f  403/484/376  402/483/375  564/671/497 
f  406/487/379  403/484/376  564/671/497 
f  408/489/381  406/487/379  564/671/497 
f  410/491/383  408/489/381  564/671/497 
f  412/493/385  410/491/383  564/671/497 
f  414/496/387  412/495/385  564/672/497 
f  416/499/389  414/496/387  564/672/497 
f  418/501/391  416/499/389  564/672/497 
f  420/503/393  418/501/391  564/672/497 
f  402/505/375  420/503/393  564/672/497 
